%!PS-Adobe-3.0 EPSF-3.0
%%BoundingBox: 175.815 -5 466.405 379
0.470588 0.666667 1 setrgbcolor
259 149 moveto
301.246 143.897 385.719 147.389 428 143 curveto
stroke
363 249 moveto
370.489 197.345 355.384 95.648 344 44 curveto
stroke
257 205 moveto
297.304 202.674 377.77 209.762 418 205 curveto
stroke
323 273 moveto
337.285 274.264 366.444 273.149 381 274 curveto
stroke
421 186 moveto
438.581 229.91 407.025 286.768 360 290 curveto
stroke
425 215 moveto
445.919 287.754 323.815 343.471 258 284 curveto
256.14 282.319 252.608 277.777 252 275 curveto
stroke
310 311 moveto
267.51 311.257 225.092 274.966 229 233 curveto
stroke
288 305 moveto
232.031 299.058 213.09 222.479 230 176 curveto
stroke
358 274 moveto
361.292 267.492 364.344 253.28 365 246 curveto
stroke
342 336 moveto
255.237 358.839 196.561 275.661 217 146 curveto
stroke
342 335 moveto
397.014 345.353 425.268 274.809 427 230 curveto
stroke
320 279 moveto
311.315 258.362 302.155 214.786 302 192 curveto
stroke
292 261 moveto
293.939 243.548 296.87 209.66 306 194 curveto
stroke
291 256 moveto
285.142 201.555 254.14 96.296 265 40 curveto
stroke
248 198 moveto
245.461 158.636 257.898 79.684 259 40 curveto
259.5 40 260.5 40 261 40 curveto
stroke
250 175 moveto
239.045 153.751 234.984 108.32 239 85 curveto
stroke
239 93 moveto
229.926 133.829 238.218 217.2 247 258 curveto
stroke
244 254 moveto
240.066 252.34 235.637 246.423 234 243 curveto
stroke
232 243 moveto
240.644 278.418 314.38 290.084 342 313 curveto
347.22 305.079 349.848 286.676 352 278 curveto
stroke
318 271 moveto
319.776 280.652 329.457 296.536 336 303 curveto
339.631 297.674 341.459 285.084 343 279 curveto
stroke
359 288 moveto
382.449 347.498 411.888 286.842 426 248 curveto
stroke
364 281 moveto
367.098 288.741 378.05 298.863 385 302 curveto
stroke
379 300 moveto
402.463 273.961 405.039 206.948 405 174 curveto
stroke
415 242 moveto
415.25 242.25 415.75 242.75 416 243 curveto
416.203 225.418 412.544 190.307 408 173 curveto
stroke
414 244 moveto
420.037 211.085 425.818 143.554 421 110 curveto
stroke
405 292 moveto
432.709 272.012 450.825 213.998 452 182 curveto
stroke
434 214 moveto
440.503 206.462 446.742 188.475 448 179 curveto
stroke
437 210 moveto
448.41 191.201 445.466 149.609 442 128 curveto
stroke
431 167 moveto
436.58 157.196 441.468 135.374 441 124 curveto
stroke
432 166 moveto
445.514 140.261 430.26 91.304 422 67 curveto
stroke
422 124 moveto
424.497 109.764 430.534 83.056 426 69 curveto
stroke
216 144 moveto
198.947 113.635 195.392 61.99 239 55 curveto
stroke
214 71 moveto
200.401 53.772 204.538 25.636 229 24 curveto
stroke
211 37 moveto
201.982 29.202 199.512 8.079 201 -3 curveto
stroke
0.705882 0.705882 0.705882 setrgbcolor
0 0 0 setrgbcolor
362 118 moveto
364.605 112.687 362.451 100.482 360 95 curveto
stroke
362 116 moveto
368.272 108.405 368.967 97.838 359 93 curveto
stroke
368 70 moveto
353.738 81.828 330.049 72.854 319 62 curveto
stroke
346 103 moveto
346 103 346 103 346 103 curveto
stroke
347 105 moveto
347 104.5 347 103.5 347 103 curveto
347.5 103 348.5 103 349 103 curveto
stroke
315 26 moveto
326.044 24.612 347.991 26.114 359 26 curveto
stroke
316 26 moveto
290.349 40.496 247.805 78.503 248 110 curveto
stroke
244 170 moveto
202.316 174.307 222.822 114.245 248 104 curveto
stroke
229 156 moveto
238.552 160.605 247.673 148.032 247 139 curveto
stroke
360 26 moveto
390.644 40.547 414.888 91.158 413 121 curveto
stroke
413 120 moveto
415.73 136.948 417.003 172.996 421 190 curveto
stroke
419 160 moveto
439.801 158.082 424.954 121.762 414 115 curveto
stroke
425 145 moveto
422.198 143.264 416.36 139.878 416 136 curveto
stroke
252 91 moveto
252.447 78.749 252.85 54.738 247 43 curveto
stroke
276 182 moveto
289.36 185.792 315.176 177.438 328 177 curveto
327.548 174.399 329.661 170.033 331 168 curveto
stroke
279 182 moveto
278.198 176.117 280.322 164.71 282 159 curveto
stroke
282 161 moveto
284.774 148.737 303.516 149.041 313 149 curveto
stroke
313 179 moveto
299.568 171.062 310.997 151.313 324 160 curveto
328.489 162.999 325.818 174.21 322 179 curveto
stroke
382 177 moveto
382.445 174.282 381.607 169.114 380 167 curveto
stroke
384 176 moveto
384.953 176.16 386.563 175.722 387 175 curveto
393.979 175.382 407.357 177.275 414 178 curveto
stroke
413 178 moveto
413.25 178.25 413.75 178.75 414 179 curveto
417.488 172.576 416.226 159.262 413 153 curveto
stroke
400 176 moveto
395.063 165.847 399.061 147.473 411 161 curveto
413.263 163.563 410.75 174.832 406 177 curveto
stroke
372 195 moveto
370.945 191.439 370.486 184.777 371 182 curveto
stroke
378 178 moveto
384.589 180.114 397.325 185.206 404 186 curveto
stroke
378 179 moveto
378.987 180.229 379.013 183.771 380 185 curveto
stroke
381 184 moveto
387.291 188.776 401.626 192.234 409 192 curveto
stroke
410 193 moveto
412.03 191.553 416.517 189.068 418 187 curveto
stroke
405 186 moveto
407.981 188.102 414.791 188.924 418 187 curveto
stroke
337 188 moveto
337.72 184.677 336.691 178.361 333 177 curveto
stroke
332 178 moveto
316.211 186.105 281.863 199.553 262 197 curveto
stroke
336 187 moveto
335.099 185.315 331.85 184.52 330 185 curveto
stroke
332 184 moveto
331.086 185.055 328.366 185.216 327 185 curveto
326.586 187.119 325.528 187.517 325 187 curveto
309.899 197.232 276.372 200.925 260 197 curveto
stroke
336 302 moveto
321.581 278.794 300.871 228.863 306 198 curveto
stroke
336 302 moveto
343.212 297.489 349.605 283.382 349 275 curveto
stroke
307 196 moveto
298.903 212.484 293.724 246.739 295 264 curveto
stroke
294 262 moveto
278.893 203.028 258.275 88.502 267 28 curveto
stroke
248 169 moveto
247.75 168.75 247.25 168.25 247 168 curveto
251.389 134.316 262.287 66.489 268 33 curveto
stroke
249 169 moveto
242.471 154.219 237.199 122.47 239 106 curveto
stroke
242 242 moveto
236.082 208.621 232.088 143.359 239 111 curveto
stroke
243 243 moveto
235.429 244.503 232.247 232.13 230 227 curveto
stroke
352 290 moveto
350.796 298.305 342.056 311.612 333 313 curveto
stroke
336 311 moveto
303.812 297.804 235.013 267.149 228 229 curveto
stroke
364 275 moveto
363.73 285.086 377.403 297.331 386 302 curveto
stroke
361 288 moveto
365.238 298.231 379.104 311.688 390 314 curveto
stroke
390 314 moveto
430.006 290.132 461.405 221.205 452 174 curveto
stroke
431 215 moveto
439.092 207.017 451.877 189.565 453 177 curveto
stroke
437 210 moveto
450.143 190.794 445.997 149.589 440 129 curveto
stroke
429 180 moveto
436.8 169.405 443.106 144.884 443 132 curveto
stroke
437 159 moveto
443.454 136.309 437.228 92.71 429 72 curveto
stroke
415 233 moveto
421.848 192.832 433.335 112.295 429 72 curveto
stroke
415 239 moveto
415.81 219.695 413.209 182.649 406 165 curveto
stroke
380 299 moveto
406.302 273.987 407.673 202.988 407 169 curveto
stroke
360 289 moveto
361.778 319.265 398.026 356.974 419 373 curveto
stroke
419 374 moveto
387.053 362.33 352.096 327.346 360 286 curveto
stroke
339 336 moveto
306.026 347.528 248.401 330.052 234 293 curveto
stroke
235 294 moveto
223.744 273.699 214.953 227.849 210 205 curveto
stroke
211 207 moveto
205.618 194.386 214.74 169.237 215 156 curveto
stroke
220 159 moveto
195.02 130.817 204.125 63.15 243 56 curveto
stroke
219 75 moveto
192.895 54.893 202.988 29.672 235 24 curveto
stroke
221 32 moveto
218.369 32.771 218.624 30.894 219 30 curveto
202.017 20.331 180.815 4.896 213 0 curveto
stroke
345 198 moveto
346.577 193.046 344.52 183.395 342 179 curveto
stroke
332 294 moveto
333.943 290.721 337.921 284.165 340 281 curveto
stroke
326 286 moveto
329.157 285.899 332.899 282.157 333 279 curveto
stroke
326 284 moveto
327.665 282.4 330.484 278.732 332 277 curveto
stroke
375 275 moveto
377.941 278.558 383.778 285.715 387 289 curveto
stroke
371 276 moveto
375.761 279.933 383.797 288.89 387 294 curveto
stroke
385 277 moveto
386.044 278.241 388.471 280.363 390 281 curveto
stroke
