%!PS-Adobe-3.0 EPSF-3.0
%%BoundingBox: 146.09 -5 442.566 402
0.470588 0.666667 1 setrgbcolor
198 159 moveto
245.358 143.312 341.677 135.967 390 138 curveto
stroke
315 259 moveto
285.35 206.664 285.35 88.444 289 29 curveto
stroke
0.705882 0.705882 0.705882 setrgbcolor
298.073 111.48 moveto
303.201 105.471 302.913 91.8488 300.584 85.7637 curveto
stroke
300.584 85.7637 moveto
302.913 91.8488 303.201 105.471 298.073 111.48 curveto
stroke
298.549 109.24 moveto
309.659 100.592 313.206 88.7411 299.577 83.546 curveto
stroke
299.577 83.546 moveto
313.206 88.7411 309.659 100.592 298.549 109.24 curveto
stroke
318.401 57.5827 moveto
294.434 71.1509 272.366 63.539 264.118 52.5995 curveto
stroke
264.118 52.5995 moveto
272.366 63.539 294.434 71.1509 318.401 57.5827 curveto
stroke
282.158 95.7789 moveto
282.158 95.7789 282.158 95.7789 282.158 95.7789 curveto
stroke
282.158 95.7789 moveto
282.158 95.7789 282.158 95.7789 282.158 95.7789 curveto
stroke
282.755 97.9251 moveto
282.828 97.3571 282.975 96.221 283.048 95.6529 curveto
stroke
283.048 95.6529 moveto
282.975 96.221 282.828 97.3571 282.755 97.9251 curveto
stroke
283.048 95.6529 moveto
283.493 95.5899 284.383 95.4639 284.828 95.401 curveto
stroke
284.828 95.401 moveto
284.383 95.4639 283.493 95.5899 283.048 95.6529 curveto
stroke
265.819 12.2032 moveto
275.852 9.23499 299.178 8.8771 315.532 8.5023 curveto
stroke
315.532 8.5023 moveto
299.178 8.8771 275.852 9.23499 265.819 12.2032 curveto
stroke
266.709 12.0772 moveto
241.76 31.7777 198.339 80.3175 193.909 116.077 curveto
stroke
193.909 116.077 moveto
198.339 80.3175 241.76 31.7777 266.709 12.0772 curveto
stroke
189.307 184.647 moveto
152.665 194.777 170.879 124.072 194.786 109.261 curveto
stroke
194.786 109.261 moveto
170.879 124.072 152.665 194.777 189.307 184.647 curveto
stroke
172.53 170.703 moveto
182.218 174.707 188.06 159.327 188.781 149.151 curveto
stroke
188.781 149.151 moveto
188.06 159.327 182.218 174.707 172.53 170.703 curveto
stroke
317.015 8.47985 moveto
358.997 24.0854 382.9 80.2284 372.993 113.695 curveto
stroke
372.993 113.695 moveto
382.9 80.2284 358.997 24.0854 317.015 8.47985 curveto
stroke
373.231 112.575 moveto
373.244 131.497 379.871 172.077 389.476 191.168 curveto
stroke
389.476 191.168 moveto
379.871 172.077 373.244 131.497 373.231 112.575 curveto
stroke
380.108 157.374 moveto
410.903 154.75 390.54 114.281 375.905 106.953 curveto
stroke
375.905 106.953 moveto
390.54 114.281 410.903 154.75 380.108 157.374 curveto
stroke
385.925 140.322 moveto
381.353 138.426 373.481 134.764 373.87 130.429 curveto
stroke
373.87 130.429 moveto
373.481 134.764 381.353 138.426 385.925 140.322 curveto
stroke
200.246 93.9871 moveto
202.434 80.0122 206.302 52.6822 202.811 40.0834 curveto
stroke
202.811 40.0834 moveto
206.302 52.6822 202.434 80.0122 200.246 93.9871 curveto
stroke
220.972 194.185 moveto
233.91 196.789 255.29 184.083 266.768 181.969 curveto
stroke
266.768 181.969 moveto
255.29 184.083 233.91 196.789 220.972 194.185 curveto
stroke
266.768 181.969 moveto
265.759 179.084 266.658 173.879 267.398 171.41 curveto
stroke
267.398 171.41 moveto
266.658 173.879 265.759 179.084 266.768 181.969 curveto
stroke
223.68 193.806 moveto
221.597 187.253 220.88 174.081 221.077 167.411 curveto
stroke
221.077 167.411 moveto
220.88 174.081 221.597 187.253 223.68 193.806 curveto
stroke
221.539 169.673 moveto
221.211 155.451 238.203 153.431 246.757 152.188 curveto
stroke
246.757 152.188 moveto
238.203 153.431 221.211 155.451 221.539 169.673 curveto
stroke
253.686 186.124 moveto
239.725 178.839 245.482 155.057 259.229 163.244 curveto
stroke
259.229 163.244 moveto
245.482 155.057 239.725 178.839 253.686 186.124 curveto
stroke
259.229 163.244 moveto
263.975 166.07 264.153 179.089 261.812 184.989 curveto
stroke
261.812 184.989 moveto
264.153 179.089 263.975 166.07 259.229 163.244 curveto
stroke
328.217 177.368 moveto
328.308 174.293 325.954 168.482 323.095 166.133 curveto
stroke
323.095 166.133 moveto
325.954 168.482 328.308 174.293 328.217 177.368 curveto
stroke
331.005 176.196 moveto
332.469 176.356 334.791 175.826 335.293 175.002 curveto
stroke
335.293 175.002 moveto
334.791 175.826 332.469 176.356 331.005 176.196 curveto
stroke
335.293 175.002 moveto
345.842 175.278 366.311 177.117 376.429 177.788 curveto
stroke
376.429 177.788 moveto
366.311 177.117 345.842 175.278 335.293 175.002 curveto
stroke
374.929 177.81 moveto
375.357 178.086 376.213 178.639 376.641 178.915 curveto
stroke
376.641 178.915 moveto
376.213 178.639 375.357 178.086 374.929 177.81 curveto
stroke
376.641 178.915 moveto
380.51 171.592 375.791 156.603 369.623 149.612 curveto
stroke
369.623 149.612 moveto
375.791 156.603 380.51 171.592 376.641 178.915 curveto
stroke
355.005 175.842 moveto
345.444 164.499 347.541 143.686 368.321 158.679 curveto
stroke
368.321 158.679 moveto
347.541 143.686 345.444 164.499 355.005 175.842 curveto
stroke
368.321 158.679 moveto
372.259 161.52 370.882 174.286 364.217 176.837 curveto
stroke
364.217 176.837 moveto
370.882 174.286 372.259 161.52 368.321 158.679 curveto
stroke
317.038 197.893 moveto
314.7 193.899 312.597 186.395 312.779 183.252 curveto
stroke
312.779 183.252 moveto
312.597 186.395 314.7 193.899 317.038 197.893 curveto
stroke
322.43 178.585 moveto
332.762 180.823 352.946 186.285 363.127 187.032 curveto
stroke
363.127 187.032 moveto
352.946 186.285 332.762 180.823 322.43 178.585 curveto
stroke
322.642 179.713 moveto
324.383 181.077 325.174 185.072 326.915 186.436 curveto
stroke
326.915 186.436 moveto
325.174 185.072 324.383 181.077 322.642 179.713 curveto
stroke
328.203 185.286 moveto
338.653 190.534 360.89 194.117 371.901 193.689 curveto
stroke
371.901 193.689 moveto
360.89 194.117 338.653 190.534 328.203 185.286 curveto
stroke
373.613 194.795 moveto
376.351 193.118 382.554 190.216 384.339 187.85 curveto
stroke
384.339 187.85 moveto
382.554 190.216 376.351 193.118 373.613 194.795 curveto
stroke
364.627 187.01 moveto
369.545 189.315 379.934 190.091 384.339 187.85 curveto
stroke
384.339 187.85 moveto
379.934 190.091 369.545 189.315 364.627 187.01 curveto
stroke
277.435 193.277 moveto
277.317 189.427 274.929 182.413 271.282 181.339 curveto
stroke
271.282 181.339 moveto
274.929 182.413 277.317 189.427 277.435 193.277 curveto
stroke
270.61 182.596 moveto
258.227 193.756 230.32 213.301 211.796 212.919 curveto
stroke
211.796 212.919 moveto
230.32 213.301 258.227 193.756 270.61 182.596 curveto
stroke
276.301 192.272 moveto
275.098 190.48 271.981 189.99 270.421 190.767 curveto
stroke
270.421 190.767 moveto
271.981 189.99 275.098 190.48 276.301 192.272 curveto
stroke
271.996 189.383 moveto
271.415 190.692 268.996 191.217 267.713 191.145 curveto
stroke
267.713 191.145 moveto
268.996 191.217 271.415 190.692 271.996 189.383 curveto
stroke
267.713 191.145 moveto
267.828 193.594 266.965 194.178 266.369 193.66 curveto
stroke
266.369 193.66 moveto
266.965 194.178 267.828 193.594 267.713 191.145 curveto
stroke
266.369 193.66 moveto
255.098 207.139 225.679 215.546 209.99 213.171 curveto
stroke
209.99 213.171 moveto
225.679 215.546 255.098 207.139 266.369 193.66 curveto
stroke
302.864 322.359 moveto
284.485 297.927 254.252 244.058 251.755 208.5 curveto
stroke
251.755 208.5 moveto
254.252 244.058 284.485 297.927 302.864 322.359 curveto
stroke
302.864 322.359 moveto
308.333 316.346 310.847 299.582 308.365 290.177 curveto
stroke
308.365 290.177 moveto
310.847 299.582 308.333 316.346 302.864 322.359 curveto
stroke
252.195 206.111 moveto
248.692 225.779 251.928 265.181 257.067 284.546 curveto
stroke
257.067 284.546 moveto
251.928 265.181 248.692 225.779 252.195 206.111 curveto
stroke
255.703 282.409 moveto
228.441 217.606 206.196 90.3586 222.804 20.5222 curveto
stroke
222.804 20.5222 moveto
206.196 90.3586 228.441 217.606 255.703 282.409 curveto
stroke
192.688 183.011 moveto
192.404 182.76 191.837 182.258 191.554 182.006 curveto
stroke
191.554 182.006 moveto
191.837 182.258 192.404 182.76 192.688 183.011 curveto
stroke
191.554 182.006 moveto
193.372 143.276 212.984 64.8439 222.963 26.0768 curveto
stroke
222.963 26.0768 moveto
212.984 64.8439 193.372 143.276 191.554 182.006 curveto
stroke
193.591 182.885 moveto
184.281 166.989 182.473 131.605 186.483 112.667 curveto
stroke
186.483 112.667 moveto
182.473 131.605 184.281 166.989 193.591 182.885 curveto
stroke
204.132 266.345 moveto
191.079 229.334 174.871 155.981 185.752 118.347 curveto
stroke
185.752 118.347 moveto
174.871 155.981 191.079 229.334 204.132 266.345 curveto
stroke
205.266 267.35 moveto
198.777 270.005 193.046 256.41 189.832 250.891 curveto
stroke
189.832 250.891 moveto
193.046 256.41 198.777 270.005 205.266 267.35 curveto
stroke
314.538 306.766 moveto
315.37 316.313 310.552 332.468 302.696 335.18 curveto
stroke
302.696 335.18 moveto
310.552 332.468 315.37 316.313 314.538 306.766 curveto
stroke
304.943 332.54 moveto
272.832 321.673 203.632 295.675 188.489 253.405 curveto
stroke
188.489 253.405 moveto
203.632 295.675 272.832 321.673 304.943 332.54 curveto
stroke
322.019 288.304 moveto
323.994 299.728 346.863 313.195 360.749 318.271 curveto
stroke
360.749 318.271 moveto
346.863 313.195 323.994 299.728 322.019 288.304 curveto
stroke
322.203 303.369 moveto
328.807 314.479 352.462 329.351 369.296 331.717 curveto
stroke
369.296 331.717 moveto
352.462 329.351 328.807 314.479 322.203 303.369 curveto
stroke
369.296 331.717 moveto
424.239 303.91 456.706 225.47 432.58 172.434 curveto
stroke
432.58 172.434 moveto
456.706 225.47 424.239 303.91 369.296 331.717 curveto
stroke
409.782 219.144 moveto
420.226 209.961 435.699 189.993 434.716 175.796 curveto
stroke
434.716 175.796 moveto
435.699 189.993 420.226 209.961 409.782 219.144 curveto
stroke
417.721 213.372 moveto
433.359 191.418 418.394 145.033 411.13 122.05 curveto
stroke
411.13 122.05 moveto
418.394 145.033 433.359 191.418 417.721 213.372 curveto
stroke
399.353 179.711 moveto
408.804 167.588 413.059 139.79 414.865 125.343 curveto
stroke
414.865 125.343 moveto
413.059 139.79 408.804 167.588 399.353 179.711 curveto
stroke
406.896 155.847 moveto
414.512 130.159 415.661 81.4653 408.39 58.4536 curveto
stroke
408.39 58.4536 moveto
415.661 81.4653 414.512 130.159 406.896 155.847 curveto
stroke
389.603 239.801 moveto
391.349 194.343 405.224 103.489 408.39 58.4536 curveto
stroke
408.39 58.4536 moveto
405.224 103.489 391.349 194.343 389.603 239.801 curveto
stroke
390.877 246.569 moveto
387.994 224.776 376.229 183.049 361.67 163.302 curveto
stroke
361.67 163.302 moveto
376.229 183.049 387.994 224.776 390.877 246.569 curveto
stroke
351.113 315.02 moveto
385.256 286.224 372.243 206.112 364.019 167.791 curveto
stroke
364.019 167.791 moveto
372.243 206.112 385.256 286.224 351.113 315.02 curveto
stroke
321.531 304.626 moveto
330.127 338.637 390.457 380.011 425.319 397.622 curveto
stroke
425.319 397.622 moveto
390.457 380.011 330.127 338.637 321.531 304.626 curveto
stroke
425.531 398.75 moveto
375.134 386.295 323.251 349 320.838 301.232 curveto
stroke
320.838 301.232 moveto
323.251 349 375.134 386.295 425.531 398.75 curveto
stroke
313.426 360.441 moveto
286.316 377.641 230.25 365.141 208.689 325.045 curveto
stroke
208.689 325.045 moveto
230.25 365.141 286.316 377.641 313.426 360.441 curveto
stroke
209.823 326.05 moveto
194.971 304.505 176.443 253.749 166.693 228.528 curveto
stroke
166.693 228.528 moveto
176.443 253.749 194.971 304.505 209.823 326.05 curveto
stroke
168.058 230.664 moveto
160.285 217.074 162.712 187.475 159.889 172.469 curveto
stroke
159.889 172.469 moveto
162.712 187.475 160.285 217.074 168.058 230.664 curveto
stroke
165.097 175.231 moveto
143.712 146.402 161.705 68.3773 197.351 55.3568 curveto
stroke
197.351 55.3568 moveto
161.705 68.3773 143.712 146.402 165.097 175.231 curveto
stroke
173.212 79.9664 moveto
152.916 60.4111 165.585 30.4857 194.907 20.0089 curveto
stroke
194.907 20.0089 moveto
165.585 30.4857 152.916 60.4111 173.212 79.9664 curveto
stroke
181.277 30.8615 moveto
178.822 32.0689 179.324 29.9043 179.789 28.8412 curveto
stroke
179.789 28.8412 moveto
179.324 29.9043 178.822 32.0689 181.277 30.8615 curveto
stroke
179.789 28.8412 moveto
166.086 19.9955 149.471 5.13051 178.833 -4.48641 curveto
stroke
178.833 -4.48641 moveto
149.471 5.13051 166.086 19.9955 179.789 28.8412 curveto
stroke
286.968 203.58 moveto
287.247 197.777 283.161 187.12 279.87 182.466 curveto
stroke
279.87 182.466 moveto
283.161 187.12 287.247 197.777 286.968 203.58 curveto
stroke
297.404 313.814 moveto
298.401 309.86 300.479 301.942 301.625 298.099 curveto
stroke
301.625 298.099 moveto
300.479 301.942 298.401 309.86 297.404 313.814 curveto
stroke
290.139 305.521 moveto
292.966 305.009 295.48 300.304 294.842 296.72 curveto
stroke
294.842 296.72 moveto
295.48 300.304 292.966 305.009 290.139 305.521 curveto
stroke
289.677 303.259 moveto
290.811 301.239 292.509 296.734 293.478 294.584 curveto
stroke
293.478 294.584 moveto
292.509 296.734 290.811 301.239 289.677 303.259 curveto
stroke
338.518 288.06 moveto
343.685 292.008 353.96 299.952 359.49 303.585 curveto
stroke
359.49 303.585 moveto
353.96 299.952 343.685 292.008 338.518 288.06 curveto
stroke
332.731 289.277 moveto
340.707 293.607 354.662 303.532 360.551 309.225 curveto
stroke
360.551 309.225 moveto
354.662 303.532 340.707 293.607 332.731 289.277 curveto
stroke
353.943 290.095 moveto
355.772 291.471 359.863 293.811 362.292 294.496 curveto
stroke
362.292 294.496 moveto
359.863 293.811 355.772 291.471 353.943 290.095 curveto
stroke
0 0 0 setrgbcolor
286 92 moveto
282.745 97.499 281.028 109.572 285 115 curveto
stroke
284 115 moveto
277.398 108.116 277.435 96.79 286 93 curveto
stroke
305 96 moveto
304.275 95.187 303.725 92.813 303 92 curveto
stroke
305 95 moveto
305 94 305 92 305 91 curveto
stroke
269 66 moveto
281.281 68.37 305.444 65.096 317 59 curveto
stroke
263 185 moveto
265.177 183.115 269.66 179.297 270 176 curveto
stroke
261 185 moveto
250.514 186.357 230.464 191.286 220 192 curveto
stroke
220 194 moveto
216.644 186.448 218.823 171.235 222 164 curveto
stroke
239 185 moveto
231.094 156.172 251.869 162.892 253 171 curveto
253.815 176.843 249.877 189.018 242 186 curveto
stroke
224 160 moveto
227.552 156.99 236.303 154.496 241 155 curveto
stroke
211 207 moveto
227.079 209.934 254.2 198.24 268 193 curveto
stroke
268 194 moveto
270.268 193.866 272.924 196.474 274 198 curveto
stroke
274 197 moveto
253.929 197.805 217.407 221.389 204 203 curveto
stroke
268 191 moveto
273.357 191.232 283.652 189.501 285 183 curveto
stroke
329 183 moveto
338.666 196.643 371.493 193.916 385 187 curveto
stroke
331 185 moveto
329.15 184.52 325.901 185.315 325 187 curveto
stroke
326 186 moveto
338.429 205.445 369.906 201.293 385 189 curveto
stroke
328 177 moveto
326.375 175.81 325.04 172.112 325 170 curveto
stroke
328 177 moveto
341.243 178.139 367.985 177.687 380 173 curveto
stroke
344 173 moveto
334.081 160.811 357.222 143.126 364 162 curveto
365.2 165.342 363.05 174.116 359 175 curveto
stroke
359 176 moveto
354.982 177.968 348.112 177.285 346 173 curveto
stroke
198 146 moveto
199.695 132.736 206.543 106.485 209 93 curveto
stroke
208 105 moveto
207.721 71.246 248.337 33.866 269 13 curveto
stroke
270 13 moveto
282.424 11.02 307.39 6.546 320 8 curveto
stroke
317 7 moveto
348.529 20.45 387.514 65.596 390 105 curveto
stroke
390 104 moveto
418.425 124.529 418.711 180.054 381 156 curveto
stroke
402 148 moveto
394.094 154.402 385.341 145.46 382 138 curveto
stroke
230 55 moveto
230.18 46.317 233.346 29.449 235 21 curveto
stroke
192 181 moveto
151.09 180.25 181.412 135.594 197 118 curveto
stroke
307 291 moveto
311.692 298.487 309.024 312.624 303 319 curveto
stroke
301 322 moveto
271.921 299.982 254.862 240.728 253 211 curveto
stroke
258 290 moveto
253.823 272.037 248.789 237.864 253 220 curveto
stroke
255 279 moveto
227.685 222.077 213.251 100.138 221 35 curveto
stroke
224 37 moveto
211.425 64.641 192.245 120.571 193 153 curveto
stroke
316 302 moveto
315.617 311.95 309.398 330.697 299 335 curveto
stroke
303 333 moveto
268.996 322.198 209.275 288.456 191 258 curveto
stroke
193 262 moveto
192.75 261.75 192.25 261.25 192 261 curveto
192.25 260.75 192.75 260.25 193 260 curveto
195.672 262.866 201.534 268.113 205 270 curveto
stroke
206 268 moveto
186.398 233.343 174.922 157.789 186 119 curveto
stroke
195 177 moveto
189.785 164.889 184.329 139.614 187 126 curveto
stroke
329 357 moveto
290.495 367.189 225.863 359.522 217 313 curveto
stroke
218 321 moveto
191.485 291.547 180.536 221.241 183 184 curveto
stroke
321 304 moveto
325.245 340.083 374.356 385.251 408 397 curveto
stroke
324 306 moveto
330.491 336.691 381.801 375.482 405 397 curveto
stroke
323 290 moveto
327.34 303.68 348.157 316.684 361 319 curveto
stroke
354 315 moveto
385.636 285.107 369.31 204.025 362 166 curveto
stroke
339 291 moveto
344.367 295.329 354.887 304.406 361 308 curveto
stroke
345 288 moveto
349.002 292.883 358.475 301.479 364 305 curveto
stroke
360 292 moveto
361.482 293.982 365.286 296.902 368 297 curveto
stroke
327 308 moveto
337.209 315.772 358.746 328.26 371 329 curveto
stroke
371 330 moveto
408.973 305.256 437.566 223.163 423 180 curveto
stroke
412 232 moveto
419.036 223.771 423.473 203.812 422 193 curveto
stroke
414 234 moveto
426.187 205.024 413.732 138.507 412 106 curveto
stroke
409 146 moveto
413.287 122.688 412.763 75.867 405 53 curveto
stroke
363 170 moveto
375.885 187.758 385.789 228.376 386 250 curveto
stroke
390 245 moveto
392.708 199.922 379.422 109.674 388 65 curveto
stroke
387 61 moveto
394.829 72.846 400.348 98.738 399 112 curveto
stroke
398 98 moveto
402.752 88.289 408.231 69.085 405 59 curveto
stroke
380 173 moveto
376.951 167.714 371.426 156.731 369 151 curveto
stroke
176 153 moveto
155.877 119.521 176.531 64.408 212 50 curveto
stroke
187 74 moveto
170.771 49.538 186.18 24.372 214 19 curveto
stroke
198 27 moveto
194.222 19.223 194.932 4.011 204 0 curveto
stroke
