%!PS-Adobe-3.0 EPSF-3.0
%%BoundingBox: 185.453 -5 464.418 357.486
0 0 0 setrgbcolor
340.391 82.7988 moveto
339.822 81.7502 339.876 79.6514 340.211 78.6862 curveto
stroke
355.225 92.5584 moveto
357.721 87.684 355.914 76.4551 353.678 71.4398 curveto
stroke
362.398 45.5954 moveto
347.934 56.8801 324.828 49.2522 313.709 39.2028 curveto
stroke
320.683 154.636 moveto
320.526 152.139 322.899 147.857 324.142 145.69 curveto
stroke
269.818 159.964 moveto
282.909 163.272 307.906 155.175 320.446 154.613 curveto
stroke
272.412 160.121 moveto
271.339 154.051 273.535 142.284 275.414 136.448 curveto
stroke
304.691 156.342 moveto
292.387 146.454 304.306 129.401 315.895 137.875 curveto
stroke
275.784 137.886 moveto
278.431 126.542 296.01 126.444 304.895 126.393 curveto
stroke
318.693 164.529 moveto
303.897 174.291 271.027 178.855 254.697 175.043 curveto
stroke
328.969 164.95 moveto
328.044 163.28 324.91 162.318 323.023 162.761 curveto
stroke
331.503 164.511 moveto
331.759 162.121 329.45 156.484 325.543 155.217 curveto
stroke
375.224 160.75 moveto
381.812 166.414 397.929 169.271 405.982 168.372 curveto
stroke
371.943 156.643 moveto
372.986 157.582 373.348 160.7 374.438 161.856 curveto
stroke
376.012 153.838 moveto
376.26 151.266 375.307 146.238 373.778 144.126 curveto
stroke
380.661 152.024 moveto
388.236 152.484 402.92 154.151 410.163 154.338 curveto
stroke
394.177 152.519 moveto
388.709 142.149 394.099 123.843 405.88 137.902 curveto
stroke
405.88 137.902 moveto
408.109 140.542 405.711 151.578 400.973 153.626 curveto
stroke
310.824 1.40893 moveto
285.805 16.6545 243.353 54.7411 243.595 86.5684 curveto
stroke
310.071 1.43391 moveto
321.317 0 343.184 0.808887 354.517 0.845257 curveto
stroke
355.202 0.738214 moveto
386.247 15.1715 411.491 65.3088 409.778 96.1687 curveto
stroke
414.765 136.407 moveto
436.887 137.078 423.483 98.8353 410.841 90.6612 curveto
stroke
421.817 122.1 moveto
418.456 121.169 412.494 117.23 412.07 112.989 curveto
stroke
238.322 148.139 moveto
196.928 151.984 218.539 93.4654 242.492 82.3281 curveto
stroke
332.407 280.771 moveto
339.499 276.065 345.423 261.92 344.305 253.584 curveto
stroke
332.105 281.039 moveto
315.923 257.805 295.836 207.069 300.066 176.259 curveto
stroke
300.704 175.318 moveto
293.073 191.972 289.156 226.311 290.778 243.658 curveto
stroke
289.735 240.762 moveto
273.1 181.908 253.515 66.6174 262.074 5.4413 curveto
stroke
241.39 143.562 moveto
244.471 109.841 256.61 43.1003 263.285 10.1799 curveto
stroke
348.115 268.251 moveto
346.984 276.719 338.457 290.578 329.198 292.237 curveto
stroke
332.309 290.249 moveto
299.903 277.296 232.353 246.518 223.808 209.022 curveto
stroke
238.718 222.794 moveto
231.725 224.019 228.063 212.321 225.715 207.412 curveto
stroke
237.978 221.722 moveto
230.439 188.091 225.763 121.779 233.124 88.7194 curveto
stroke
243.138 146.821 moveto
236.704 132.333 231.467 101.15 233.423 84.9265 curveto
stroke
338.082 315.4 moveto
304.559 326.741 245.986 310.187 232.436 272.322 curveto
stroke
233.283 274.001 moveto
220.415 252.655 211.866 204.449 208.091 180.312 curveto
stroke
355.676 267.503 moveto
357.65 298.334 395.864 336.869 418.359 352.486 curveto
stroke
359.391 253.483 moveto
359.542 263.949 374.067 276.277 383.205 280.715 curveto
stroke
377.016 277.616 moveto
404.007 252.07 403.533 179.957 402.089 145.519 curveto
stroke
370.948 253.579 moveto
374.147 257.218 380.482 264.576 384.007 267.897 curveto
stroke
381.998 255.487 moveto
383.095 256.803 385.677 259.006 387.336 259.591 curveto
stroke
357.128 267.041 moveto
361.83 277.01 376.647 290.384 387.866 292.534 curveto
stroke
387.854 292.634 moveto
428.158 268.611 459.418 198.258 449.001 151.402 curveto
stroke
428.657 193.579 moveto
436.732 185.553 448.955 167.808 449.764 155.399 curveto
stroke
434.313 189.26 moveto
447.551 169.044 442.647 125.26 436.633 103.445 curveto
stroke
433.941 134.505 moveto
440.035 111.705 434.523 67.7264 426.364 46.7746 curveto
stroke
411.897 217.011 moveto
412.503 197.45 409.015 159.996 401.095 142.315 curveto
stroke
412.145 211.108 moveto
418.496 170.392 428.257 88.7396 425.189 47.9616 curveto
stroke
410.184 155.239 moveto
413.15 148.91 411.391 135.808 408.115 129.595 curveto
stroke
215.312 135.568 moveto
190.453 106.823 201.213 40.3503 239.687 32.4058 curveto
stroke
215.554 51.9568 moveto
190.533 31.467 201.325 6.23779 232.924 0.528137 curveto
stroke
218.627 8.52759 moveto
215.719 8.42405 215.838 5.20136 217.259 4.09896 curveto
stroke
