%!PS-Adobe-3.0 EPSF-3.0
%%BoundingBox: 180.941 -5 462.266 361.603
0 0 0 setrgbcolor
333.713 85.2623 moveto
332.605 83.6654 332.748 80.4348 333.425 78.9819 curveto
stroke
348.561 91.7026 moveto
350.883 87.2823 349.379 77.0585 347.353 72.5228 curveto
stroke
356.78 45.823 moveto
342.24 56.541 319.557 50.2629 308.352 41.0525 curveto
stroke
313.39 156.922 moveto
313.527 154.522 316.161 150.319 317.305 148.017 curveto
stroke
263.626 162.551 moveto
276.435 165.371 300.657 157.562 312.919 156.881 curveto
stroke
265.833 162.882 moveto
264.484 156.626 266.736 144.483 268.809 138.509 curveto
stroke
296.403 158.352 moveto
285.098 146.421 297.644 132.125 307.845 140.423 curveto
stroke
269.511 139.36 moveto
272.084 128.961 288.514 128.484 296.817 128.442 curveto
stroke
312.38 166.679 moveto
297.848 175.95 265.65 181.389 249.359 177.689 curveto
stroke
321.974 167.554 moveto
321.026 165.9 317.995 164.763 316.067 165.167 curveto
stroke
325.935 165.592 moveto
325.786 164.175 322.261 159.271 318.145 158.105 curveto
stroke
369.448 162.122 moveto
376.353 168.698 394.32 170.932 403.052 169.349 curveto
stroke
365.928 158.933 moveto
367.011 159.574 367.714 162.254 368.906 163.334 curveto
stroke
370.021 155.303 moveto
370.064 152.883 369.011 148.002 367.584 145.89 curveto
stroke
374.268 153.684 moveto
382.464 154.223 398.498 155.655 406.341 155.289 curveto
stroke
388.255 153.662 moveto
382.249 143.072 389.215 124.836 400.734 139.442 curveto
stroke
400.734 139.442 moveto
402.909 142.162 400.607 152.955 395.898 154.877 curveto
stroke
305.636 1.44108 moveto
281.23 17.4258 238.901 55.5546 239.181 87.6923 curveto
stroke
305.125 1.48478 moveto
316.56 0 338.451 0.123053 350.071 0.315755 curveto
stroke
350.408 0.100652 moveto
381.78 14.4182 408.183 64.0484 406.722 95.9373 curveto
stroke
410.534 137.437 moveto
434.115 140.772 422.199 100.554 407.805 90.938 curveto
stroke
418.792 123.845 moveto
414.869 123.744 408.732 119.235 408.178 114.623 curveto
stroke
232.619 150.885 moveto
191.464 154.244 214.176 97.3104 236.944 85.2996 curveto
stroke
328.796 284.158 moveto
335.765 279.253 341.233 265.079 339.617 256.803 curveto
stroke
328.211 284.711 moveto
310.301 261.488 290.781 209.889 294.144 179.15 curveto
stroke
294.483 179.309 moveto
287.309 196.129 284.622 230.53 286.583 247.961 curveto
stroke
285.454 244.142 moveto
267.334 185.433 248.695 69.3638 257.101 7.55327 curveto
stroke
235.683 143.653 moveto
237.64 109.939 250.94 44.344 258.526 12.0125 curveto
stroke
344.201 271.109 moveto
343.148 279.744 334.851 294.168 325.402 296.113 curveto
stroke
328.623 294.134 moveto
296.004 281.429 229.643 250.473 219.637 213.681 curveto
stroke
234.451 227.226 moveto
228.005 228.149 223.909 217.154 221.474 212.474 curveto
stroke
233.962 226.073 moveto
224.827 192.217 219.432 124.831 227.245 91.0678 curveto
stroke
237.242 149.246 moveto
230.916 135.052 225.7 104.473 227.797 88.5135 curveto
stroke
337.115 319.37 moveto
303.027 330.534 243.548 314.942 230.79 276.206 curveto
stroke
231.523 278.589 moveto
217.022 256.204 208.595 205.551 205.909 180.049 curveto
stroke
351.35 270.634 moveto
353.54 302.051 393.585 341.413 417.572 356.603 curveto
stroke
354.795 256.598 moveto
355.391 267.45 370.753 279.861 380.414 284.06 curveto
stroke
374.055 280.859 moveto
401.712 254.778 399.363 181.55 397.156 146.661 curveto
stroke
366.909 256.794 moveto
370.369 260.516 377.208 268.078 381.039 271.433 curveto
stroke
379.052 258.605 moveto
380.201 259.998 382.938 262.285 384.726 262.815 curveto
stroke
353.28 270.714 moveto
358.495 280.418 374.24 293.703 385.738 295.688 curveto
stroke
385.716 295.89 moveto
426.187 271.728 457.266 199.939 445.947 153.456 curveto
stroke
426.371 196.822 moveto
434.405 188.757 445.974 170.723 446.476 158.479 curveto
stroke
431.658 193.208 moveto
444.941 171.964 439.238 125.543 433.33 102.477 curveto
stroke
430.869 134.609 moveto
436.633 111.71 431.814 67.3575 423.721 46.1644 curveto
stroke
408.764 219.661 moveto
409.189 199.843 404.833 161.985 396.223 144.276 curveto
stroke
409.309 213.86 moveto
415.173 172.595 422.951 89.8368 421.192 48.5749 curveto
stroke
406.378 156.089 moveto
408.77 149.861 406.521 136.983 403.228 130.823 curveto
stroke
210.574 136.665 moveto
185.941 107.351 198.262 42.1219 236.34 33.38 curveto
stroke
212.081 53.4831 moveto
188.147 32.5853 199.611 7.35147 230.784 1.62191 curveto
stroke
216.208 9.62095 moveto
213.06 8.62406 213.09 4.02168 215.537 2.67641 curveto
stroke
