%!PS-Adobe-3.0 EPSF-3.0
%%BoundingBox: 176.483 -5 459.948 366.296
0 0 0 setrgbcolor
326.964 88.3339 moveto
325.351 86.1889 325.616 81.7937 326.642 79.8305 curveto
stroke
342.007 91.3762 moveto
344.089 87.4252 342.848 78.2357 341.026 74.1926 curveto
stroke
351.146 46.6262 moveto
336.655 56.7541 314.237 51.8295 302.928 43.4927 curveto
stroke
306.121 159.801 moveto
306.551 157.493 309.447 153.362 310.487 150.923 curveto
stroke
257.423 165.706 moveto
269.938 168.033 293.429 160.542 305.42 159.748 curveto
stroke
259.261 166.226 moveto
257.635 159.784 259.926 147.249 262.182 141.128 curveto
stroke
288.138 160.973 moveto
277.704 146.906 291.014 135.428 299.848 143.588 curveto
stroke
263.181 141.364 moveto
265.733 131.939 281.027 131.105 288.764 131.088 curveto
stroke
306.06 169.394 moveto
291.752 178.152 260.239 184.47 243.985 180.883 curveto
stroke
315.014 170.756 moveto
314.044 169.119 311.104 167.799 309.134 168.164 curveto
stroke
320.298 167.186 moveto
319.802 166.782 315.122 162.664 310.805 161.607 curveto
stroke
363.671 164.058 moveto
370.912 171.571 390.797 173.16 400.21 170.873 curveto
stroke
359.955 161.816 moveto
361.061 162.15 362.111 164.376 363.402 165.379 curveto
stroke
364.026 157.339 moveto
363.857 155.077 362.718 150.347 361.417 148.236 curveto
stroke
367.821 155.924 moveto
376.663 156.544 394.092 157.732 402.534 156.797 curveto
stroke
382.232 155.371 moveto
375.685 144.56 384.409 126.396 395.563 141.565 curveto
stroke
395.563 141.565 moveto
397.662 144.367 395.438 154.905 390.773 156.695 curveto
stroke
300.437 2.03994 moveto
276.624 18.7533 234.448 56.8871 234.756 89.3153 curveto
stroke
300.16 2.09613 moveto
311.773 0.555504 333.792 0 345.663 0.354998 curveto
stroke
345.62 0.0308176 moveto
377.242 14.2306 404.964 63.3203 403.833 96.2493 curveto
stroke
406.305 139.035 moveto
431.486 145.107 421.1 102.861 404.892 91.7741 curveto
stroke
415.923 126.179 moveto
411.437 126.932 405.076 121.838 404.324 116.846 curveto
stroke
226.891 154.182 moveto
185.924 157.029 209.733 101.723 231.357 88.858 curveto
stroke
325.166 288.105 moveto
332.01 282.998 337.035 268.804 334.936 260.601 curveto
stroke
324.319 288.958 moveto
304.713 265.787 285.708 213.268 288.232 182.618 curveto
stroke
288.335 183.918 moveto
281.609 200.899 280.121 235.338 282.416 252.851 curveto
stroke
281.155 248.084 moveto
261.592 189.548 243.813 72.6846 252.082 10.2794 curveto
stroke
229.878 144.217 moveto
230.895 110.555 245.276 46.1636 253.724 14.4413 curveto
stroke
340.258 274.518 moveto
339.287 283.326 331.237 298.328 321.612 300.57 curveto
stroke
324.944 298.597 moveto
292.115 286.147 226.883 254.957 215.485 218.92 curveto
stroke
230.199 232.24 moveto
224.27 232.836 219.785 222.574 217.276 218.13 curveto
stroke
229.951 230.995 moveto
219.245 196.941 213.093 128.459 221.363 93.9885 curveto
stroke
231.312 152.218 moveto
225.106 138.318 219.897 108.383 222.119 92.7045 curveto
stroke
336.101 323.853 moveto
301.431 334.849 241.088 320.264 229.064 280.594 curveto
stroke
229.72 283.706 moveto
213.565 260.29 205.139 207.1 203.454 180.155 curveto
stroke
347.022 274.335 moveto
349.446 306.359 391.19 346.548 416.641 361.296 curveto
stroke
350.213 260.289 moveto
351.275 271.531 367.461 284.026 377.628 287.979 curveto
stroke
371.119 284.672 moveto
399.416 258.053 395.162 183.709 392.2 148.37 curveto
stroke
362.882 260.589 moveto
366.607 264.395 373.955 272.163 378.098 275.554 curveto
stroke
376.163 262.298 moveto
377.362 263.77 380.253 266.142 382.172 266.615 curveto
stroke
349.456 274.963 moveto
355.233 284.399 371.88 297.588 383.615 299.405 curveto
stroke
383.588 299.712 moveto
424.095 275.424 454.948 202.191 442.837 156.107 curveto
stroke
424.144 200.672 moveto
432.111 192.572 442.935 174.253 443.136 162.183 curveto
stroke
429.037 197.788 moveto
442.314 175.496 435.771 126.379 430.091 102.038 curveto
stroke
427.784 135.256 moveto
433.248 112.268 429.102 67.5466 421.069 46.1128 curveto
stroke
405.601 222.894 moveto
405.867 202.819 400.662 164.56 391.381 146.828 curveto
stroke
406.493 217.197 moveto
411.878 175.386 417.417 91.5301 417.009 49.7834 curveto
stroke
402.581 157.492 moveto
404.349 151.375 401.614 138.732 398.341 132.626 curveto
stroke
205.786 138.232 moveto
181.483 108.343 195.273 44.4086 232.961 34.8662 curveto
stroke
208.58 55.5225 moveto
185.737 34.1914 197.846 8.95654 228.58 3.22481 curveto
stroke
213.743 11.2236 moveto
210.394 9.31454 210.38 3.29847 213.833 1.67584 curveto
stroke
