%!PS-Adobe-3.0 EPSF-3.0
%%BoundingBox: 172.08 -5 457.465 371.124
0 0 0 setrgbcolor
320.145 91.5738 moveto
318.059 88.8811 318.48 83.2884 319.861 80.7923 curveto
stroke
335.564 91.1395 moveto
337.341 87.673 336.32 79.5468 334.695 76.0095 curveto
stroke
345.496 47.5653 moveto
331.179 57.0797 308.868 53.5123 297.439 46.0837 curveto
stroke
298.875 162.834 moveto
299.598 160.611 302.757 156.547 303.689 153.969 curveto
stroke
251.211 168.987 moveto
263.417 170.818 286.223 163.677 297.948 162.775 curveto
stroke
252.697 169.713 moveto
250.79 163.085 253.105 150.143 255.536 143.863 curveto
stroke
279.894 163.766 moveto
270.202 147.47 284.414 138.872 291.905 146.93 curveto
stroke
256.794 143.459 moveto
259.379 135.035 273.55 133.868 280.738 133.894 curveto
stroke
299.733 172.233 moveto
285.61 180.457 254.795 187.661 238.576 184.184 curveto
stroke
308.09 174.117 moveto
307.099 172.498 304.237 170.984 302.223 171.311 curveto
stroke
314.59 168.854 moveto
313.806 169.502 308.034 166.224 303.524 165.285 curveto
stroke
357.894 166.119 moveto
365.49 174.593 387.362 175.517 397.456 172.507 curveto
stroke
354.024 164.85 moveto
355.137 164.868 356.54 166.628 357.929 167.55 curveto
stroke
358.029 159.505 moveto
357.638 157.407 356.43 152.835 355.278 150.724 curveto
stroke
361.32 158.304 moveto
370.833 159.006 389.702 159.943 398.741 158.422 curveto
stroke
376.11 157.208 moveto
369.014 146.173 379.682 128.084 390.366 143.831 curveto
stroke
390.366 143.831 moveto
392.368 146.717 390.203 156.989 385.6 158.642 curveto
stroke
295.226 2.76578 moveto
271.987 20.1974 229.995 58.2988 230.322 90.9977 curveto
stroke
295.178 2.82822 moveto
306.956 1.22678 329.207 0 341.292 0.523257 curveto
stroke
340.838 0.0889825 moveto
372.633 14.169 401.834 62.6848 401.11 96.6651 curveto
stroke
402.08 140.76 moveto
429 149.644 420.189 105.317 402.103 92.7297 curveto
stroke
413.21 128.661 moveto
408.159 130.294 401.524 124.598 400.508 119.216 curveto
stroke
221.138 157.591 moveto
180.308 159.901 205.212 106.264 225.73 92.5636 curveto
stroke
321.518 292.171 moveto
328.233 286.86 332.83 272.654 330.263 264.537 curveto
stroke
320.429 293.341 moveto
299.16 270.262 280.615 216.765 282.332 186.223 curveto
stroke
282.261 188.704 moveto
275.976 205.843 275.654 240.296 278.277 257.889 curveto
stroke
276.838 252.148 moveto
255.877 193.812 238.871 76.1401 247.017 13.18 curveto
stroke
223.975 144.815 moveto
224.237 111.247 239.619 48.1194 248.878 17.0265 curveto
stroke
336.286 278.037 moveto
335.402 287.023 327.616 302.617 317.829 305.17 curveto
stroke
321.271 303.2 moveto
288.237 291.009 224.073 259.532 211.354 224.299 curveto
stroke
225.962 237.396 moveto
220.52 237.639 215.691 228.14 213.121 223.94 curveto
stroke
225.946 236.049 moveto
213.694 201.826 206.748 132.223 215.477 97.042 curveto
stroke
225.346 155.297 moveto
219.273 141.693 214.058 112.438 216.392 97.0598 curveto
stroke
335.038 328.41 moveto
299.77 339.248 238.606 325.71 227.256 285.048 curveto
stroke
227.874 288.913 moveto
210.044 264.473 201.499 208.657 200.727 180.19 curveto
stroke
342.691 278.168 moveto
345.37 310.818 388.677 351.835 415.564 366.124 curveto
stroke
345.644 264.117 moveto
347.196 275.753 364.19 288.332 374.846 292.031 curveto
stroke
368.206 288.616 moveto
397.12 261.458 390.93 185.995 387.222 150.207 curveto
stroke
358.869 264.524 moveto
362.86 268.414 370.723 276.393 375.183 279.818 curveto
stroke
373.329 266.127 moveto
374.577 267.679 377.622 270.138 379.672 270.553 curveto
stroke
345.654 279.347 moveto
352.045 288.513 369.57 301.6 381.498 303.245 curveto
stroke
381.468 303.661 moveto
421.88 279.262 452.465 204.575 439.67 158.915 curveto
stroke
421.975 204.69 moveto
429.85 196.56 439.838 177.958 439.743 166.073 curveto
stroke
426.448 202.56 moveto
439.669 179.201 432.244 127.331 426.916 101.689 curveto
stroke
424.686 136.006 moveto
429.879 112.939 426.387 67.8541 418.411 46.18 curveto
stroke
402.409 226.27 moveto
402.539 205.938 396.504 167.279 386.572 149.53 curveto
stroke
403.695 220.681 moveto
408.612 178.323 411.654 93.3798 412.639 51.1474 curveto
stroke
398.794 159.009 moveto
399.886 153.01 396.672 140.615 393.453 134.565 curveto
stroke
200.948 139.831 moveto
177.08 109.36 192.245 46.7704 229.55 36.4246 curveto
stroke
205.052 57.6353 moveto
183.303 35.8456 196.03 10.6133 226.311 4.89712 curveto
stroke
211.234 12.8958 moveto
207.719 10.0557 207.709 2.59201 212.148 0.657526 curveto
stroke
