%!PS-Adobe-3.0 EPSF-3.0
%%BoundingBox: 167.73 -5 454.816 376.466
0 0 0 setrgbcolor
313.256 95.3608 moveto
310.729 92.1204 311.341 85.2974 313.084 82.2459 curveto
stroke
329.23 91.3708 moveto
330.637 88.4044 329.795 81.3705 328.362 78.352 curveto
stroke
339.829 49.0189 moveto
325.813 57.8964 303.449 55.6899 291.883 49.2039 curveto
stroke
291.653 166.399 moveto
292.668 164.255 296.09 160.252 296.911 157.534 curveto
stroke
244.989 172.774 moveto
256.873 174.104 279.039 167.344 290.504 166.339 curveto
stroke
246.142 173.722 moveto
243.951 166.909 246.271 153.544 248.869 147.095 curveto
stroke
271.671 167.108 moveto
262.594 148.491 277.844 142.835 284.016 150.829 curveto
stroke
250.35 146.024 moveto
253.021 138.628 266.082 137.149 272.738 137.236 curveto
stroke
293.4 175.576 moveto
279.421 183.245 249.318 191.337 233.132 187.971 curveto
stroke
301.201 178.015 moveto
300.191 176.413 297.395 174.698 295.334 174.987 curveto
stroke
308.813 170.974 moveto
307.798 172.713 300.997 170.33 296.302 169.516 curveto
stroke
352.116 168.684 moveto
360.087 178.143 384.014 178.38 394.789 174.627 curveto
stroke
348.135 168.415 moveto
349.238 168.109 350.999 169.387 352.484 170.225 curveto
stroke
352.029 162.181 moveto
351.408 160.252 350.144 155.844 349.167 153.733 curveto
stroke
354.764 161.202 moveto
364.973 161.988 385.328 162.664 394.963 160.542 curveto
stroke
369.887 159.55 moveto
362.238 148.289 375.033 130.276 385.144 146.618 curveto
stroke
385.144 146.618 moveto
387.027 149.59 384.903 159.585 380.377 161.096 curveto
stroke
290.004 3.99715 moveto
267.319 22.1365 225.541 60.1683 225.877 93.1179 curveto
stroke
290.178 4.05958 moveto
302.11 2.39237 324.696 0.501585 336.959 1.19906 curveto
stroke
336.06 0.653678 moveto
367.954 14.6118 398.792 62.5204 398.555 97.5632 curveto
stroke
397.858 142.991 moveto
426.656 154.761 419.463 108.3 399.436 94.1833 curveto
stroke
410.655 131.67 moveto
405.037 134.207 398.078 127.894 396.731 122.115 curveto
stroke
215.36 161.489 moveto
174.616 163.237 200.611 111.312 220.063 96.795 curveto
stroke
317.852 296.736 moveto
324.434 291.218 328.618 277.008 325.596 268.991 curveto
stroke
316.54 298.239 moveto
293.642 275.292 275.503 220.759 276.443 190.344 curveto
stroke
276.261 194.047 moveto
270.408 211.339 271.22 245.783 274.166 263.454 curveto
stroke
272.505 256.713 moveto
250.187 198.604 233.869 80.1088 241.906 16.6336 curveto
stroke
217.975 145.824 moveto
217.666 112.396 233.967 50.5898 243.99 20.1468 curveto
stroke
332.286 282.047 moveto
331.494 291.215 323.987 307.413 314.051 310.29 curveto
stroke
317.605 308.32 moveto
284.368 296.396 221.213 264.575 207.243 230.197 curveto
stroke
221.74 243.071 moveto
216.753 242.938 211.627 234.231 209.01 230.282 curveto
stroke
221.946 241.614 moveto
208.173 207.249 200.397 136.502 209.588 100.607 curveto
stroke
219.346 158.862 moveto
213.419 145.554 208.184 117.019 210.614 101.958 curveto
stroke
333.927 333.419 moveto
298.044 344.109 236.102 331.66 225.367 289.947 curveto
stroke
225.985 294.589 moveto
206.46 269.132 197.675 210.598 197.727 180.533 curveto
stroke
338.357 282.51 moveto
341.311 315.807 386.047 357.653 414.341 371.466 curveto
stroke
341.089 268.459 moveto
343.152 280.495 360.94 293.158 372.068 296.596 curveto
stroke
365.317 293.07 moveto
394.824 265.369 386.667 188.786 382.222 152.549 curveto
stroke
354.869 268.978 moveto
359.13 272.954 367.513 281.146 372.294 284.605 curveto
stroke
370.551 270.47 moveto
371.848 272.104 375.046 274.652 377.228 275.007 curveto
stroke
341.877 284.245 moveto
348.931 293.137 367.308 306.117 379.387 307.588 curveto
stroke
379.356 308.115 moveto
419.543 283.618 449.816 207.468 436.448 162.257 curveto
stroke
419.864 209.255 moveto
427.622 201.097 436.682 182.216 436.299 170.527 curveto
stroke
423.893 207.902 moveto
437.007 183.458 428.659 128.775 423.805 101.81 curveto
stroke
421.575 137.237 moveto
426.527 114.101 423.669 68.6584 415.744 46.7447 curveto
stroke
399.186 230.168 moveto
399.203 209.579 392.356 170.523 381.794 152.762 curveto
stroke
400.918 224.69 moveto
405.374 181.787 405.664 95.7644 408.084 53.0454 curveto
stroke
395.016 161.018 moveto
395.382 155.146 391.694 143.009 388.564 137.018 curveto
stroke
196.059 141.841 moveto
172.73 110.781 189.179 49.586 226.105 38.4337 curveto
stroke
201.497 60.2 moveto
180.845 37.9264 194.162 12.7002 223.977 7.01738 curveto
stroke
208.678 15.016 moveto
205.036 11.2262 205.077 2.28081 210.481 0 curveto
stroke
