%!PS-Adobe-3.0 EPSF-3.0
%%BoundingBox: 163.436 -5 452.002 382.62
0 0 0 setrgbcolor
306.297 99.9913 moveto
303.36 96.2037 304.198 88.1175 306.309 84.488 curveto
stroke
323.007 92.3671 moveto
323.979 89.916 323.273 84.0035 322.026 81.5168 curveto
stroke
334.146 51.2836 moveto
320.557 59.5009 297.981 58.659 286.262 53.1502 curveto
stroke
284.454 170.792 moveto
285.76 168.722 289.447 164.774 290.153 161.914 curveto
stroke
238.757 177.363 moveto
250.306 178.189 271.875 171.84 283.087 170.739 curveto
stroke
239.594 178.55 moveto
237.117 171.551 239.427 157.748 242.182 151.119 curveto
stroke
263.471 171.297 moveto
254.879 150.267 271.305 147.612 276.181 155.579 curveto
stroke
243.848 149.355 moveto
246.659 143.014 258.623 141.248 264.764 141.413 curveto
stroke
287.06 179.718 moveto
273.186 186.812 243.808 195.798 227.652 192.54 curveto
stroke
294.348 182.747 moveto
293.319 181.163 290.577 179.238 288.467 179.488 curveto
stroke
302.965 173.843 moveto
301.779 176.714 294.011 175.278 289.139 174.598 curveto
stroke
346.338 172.049 moveto
354.704 182.517 380.753 182.045 392.21 177.531 curveto
stroke
342.288 172.807 moveto
343.365 172.169 345.49 172.95 347.069 173.703 curveto
stroke
346.026 165.663 moveto
345.167 163.91 343.863 159.671 343.084 157.56 curveto
stroke
348.154 164.915 moveto
359.085 165.787 380.968 166.194 391.2 163.454 curveto
stroke
363.565 162.695 moveto
355.357 151.206 370.463 133.272 379.896 150.223 curveto
stroke
379.896 150.223 moveto
381.641 153.284 379.538 162.99 375.106 164.353 curveto
stroke
284.77 6.03077 moveto
262.62 24.8675 221.087 62.7922 221.423 95.9728 curveto
stroke
285.16 6.08696 moveto
297.233 4.349 320.259 1.80149 332.663 2.67916 curveto
stroke
331.287 2.02164 moveto
363.204 15.8558 395.839 63.1238 396.166 99.2402 curveto
stroke
393.638 146.025 moveto
424.456 160.755 418.924 112.107 396.892 96.4316 curveto
stroke
408.256 135.503 moveto
402.069 138.969 394.736 132.023 392.991 125.836 curveto
stroke
209.558 166.173 moveto
168.848 167.335 195.93 117.164 214.357 101.849 curveto
stroke
314.166 302.096 moveto
320.614 296.367 324.398 282.163 320.936 274.259 curveto
stroke
312.652 303.949 moveto
288.159 281.174 270.371 225.547 270.566 195.276 curveto
stroke
270.335 200.242 moveto
264.905 217.683 266.821 252.095 270.083 269.842 curveto
stroke
268.155 262.075 moveto
244.523 204.222 228.805 84.8874 236.749 20.9369 curveto
stroke
211.878 147.541 moveto
211.181 114.297 228.322 53.8718 239.057 24.0988 curveto
stroke
328.258 286.842 moveto
327.561 296.198 320.351 313.014 310.279 316.228 curveto
stroke
313.944 314.255 moveto
280.51 302.602 218.303 270.384 203.152 236.911 curveto
stroke
217.533 249.564 moveto
212.972 249.03 207.593 241.143 204.942 237.454 curveto
stroke
217.951 247.986 moveto
202.684 213.506 194.038 141.593 203.696 104.979 curveto
stroke
213.312 163.209 moveto
207.544 150.199 202.274 122.422 204.786 107.695 curveto
stroke
332.767 339.177 moveto
296.254 349.727 233.575 338.411 223.397 295.585 curveto
stroke
224.053 301.03 moveto
202.812 274.563 193.667 213.222 194.454 181.479 curveto
stroke
334.022 287.659 moveto
337.269 321.622 383.3 364.298 412.974 377.62 curveto
stroke
336.546 273.613 moveto
339.145 286.053 357.712 298.801 369.294 301.969 curveto
stroke
362.452 298.33 moveto
392.527 270.084 382.374 192.379 377.2 155.694 curveto
stroke
350.882 274.246 moveto
355.415 278.309 364.324 286.718 369.431 290.211 curveto
stroke
367.829 275.623 moveto
369.174 277.341 372.524 279.979 374.839 280.273 curveto
stroke
338.122 289.953 moveto
345.89 298.57 365.094 311.436 377.282 312.729 curveto
stroke
377.254 313.37 moveto
417.084 288.79 447.002 211.168 433.17 166.431 curveto
stroke
417.811 214.663 moveto
425.426 206.481 433.467 187.326 432.802 175.841 curveto
stroke
421.37 214.112 moveto
434.328 188.564 425.016 131.01 420.758 102.695 curveto
stroke
418.45 139.247 moveto
423.192 116.052 420.947 70.2564 413.069 48.1036 curveto
stroke
395.935 234.885 moveto
395.86 214.037 388.221 174.587 377.048 156.819 curveto
stroke
398.159 229.521 moveto
402.165 186.073 399.446 98.9806 403.342 55.7742 curveto
stroke
391.248 163.816 moveto
390.836 158.078 386.681 146.213 383.674 140.283 curveto
stroke
191.119 144.556 moveto
168.436 112.902 186.075 53.1521 222.628 41.1903 curveto
stroke
197.914 63.5134 moveto
178.363 40.7306 192.243 15.514 221.58 9.8823 curveto
stroke
206.077 17.8811 moveto
202.345 13.1227 202.483 2.66163 208.833 0 curveto
stroke
