%!PS-Adobe-3.0 EPSF-3.0
%%BoundingBox: 158.005 -5 449.022 388.927
0 0 0 setrgbcolor
299.268 104.808 moveto
295.954 100.473 297.051 91.0911 299.536 86.861 curveto
stroke
316.895 93.4707 moveto
317.366 91.5503 316.754 86.7882 315.687 84.8464 curveto
stroke
328.447 53.7021 moveto
315.41 61.2357 292.464 61.762 280.574 57.265 curveto
stroke
277.279 175.357 moveto
278.876 173.355 282.828 169.456 283.416 166.451 curveto
stroke
232.515 182.097 moveto
243.715 182.414 264.733 176.507 275.697 175.315 curveto
stroke
233.055 183.539 moveto
230.287 176.355 232.57 162.098 235.475 155.277 curveto
stroke
255.292 175.676 moveto
247.057 152.139 264.796 152.548 268.4 160.524 curveto
stroke
237.289 152.795 moveto
240.294 147.537 251.174 145.505 256.817 145.765 curveto
stroke
280.713 184.003 moveto
266.904 190.5 238.265 200.384 222.137 197.235 curveto
stroke
287.53 187.655 moveto
286.484 186.09 283.783 183.946 281.623 184.158 curveto
stroke
297.047 176.804 moveto
295.748 180.845 287.075 180.411 282.034 179.873 curveto
stroke
340.559 175.556 moveto
349.339 187.059 377.579 185.857 389.719 180.561 curveto
stroke
336.484 177.368 moveto
337.518 176.39 340.012 176.66 341.683 177.324 curveto
stroke
340.021 169.293 moveto
338.914 167.722 337.585 163.658 337.028 161.547 curveto
stroke
341.49 168.786 moveto
353.167 169.745 376.625 169.874 387.452 166.502 curveto
stroke
357.143 165.985 moveto
348.371 154.265 365.971 136.412 374.623 153.988 curveto
stroke
374.623 153.988 moveto
376.207 157.141 374.107 166.547 369.786 167.756 curveto
stroke
279.525 8.20911 moveto
257.89 27.7327 216.632 65.5132 216.959 98.9048 curveto
stroke
280.125 8.25282 moveto
292.327 6.43915 315.895 3.2422 328.404 4.30601 curveto
stroke
326.52 3.53535 moveto
358.383 17.2435 392.975 63.8375 393.944 101.039 curveto
stroke
389.423 149.205 moveto
422.398 166.969 418.571 116.081 394.472 98.8172 curveto
stroke
406.014 139.502 moveto
399.256 143.922 391.499 136.326 389.289 129.725 curveto
stroke
203.73 170.986 moveto
163.005 171.536 191.17 123.161 208.611 107.068 curveto
stroke
310.463 307.593 moveto
316.772 301.652 320.17 287.461 316.284 279.683 curveto
stroke
308.767 309.812 moveto
282.712 287.249 265.221 230.471 264.699 200.363 curveto
stroke
264.483 206.633 moveto
259.467 224.219 262.454 258.575 266.027 276.396 curveto
stroke
263.787 267.577 moveto
238.885 210.006 223.681 89.8185 231.546 25.4324 curveto
stroke
205.683 149.31 moveto
204.782 116.293 222.684 57.3076 234.082 28.225 curveto
stroke
324.201 291.766 moveto
323.604 301.315 316.707 318.762 306.513 322.325 curveto
stroke
310.29 320.346 moveto
276.662 308.971 215.344 276.3 199.081 243.783 curveto
stroke
213.34 256.217 moveto
209.175 255.256 203.589 248.22 200.918 244.798 curveto
stroke
213.962 254.507 moveto
197.224 219.941 187.673 146.838 197.801 109.502 curveto
stroke
207.242 167.681 moveto
201.646 154.97 196.328 127.988 198.908 113.615 curveto
stroke
331.56 345.027 moveto
294.399 355.447 231.027 345.305 221.346 301.307 curveto
stroke
222.078 307.579 moveto
199.1 280.11 189.474 215.87 190.909 182.373 curveto
stroke
329.683 292.957 moveto
333.244 327.607 380.435 371.113 411.461 383.927 curveto
stroke
332.018 278.921 moveto
335.174 291.77 354.506 304.603 366.525 307.495 curveto
stroke
359.611 303.738 moveto
390.231 274.946 378.05 196.116 372.156 158.984 curveto
stroke
346.909 279.673 moveto
351.717 283.824 361.157 292.452 366.595 295.979 curveto
stroke
365.163 280.929 moveto
366.555 282.733 370.057 285.463 372.504 285.694 curveto
stroke
334.391 295.816 moveto
342.923 304.154 362.93 316.9 375.182 318.011 curveto
stroke
375.161 318.769 moveto
414.502 294.12 444.022 215.017 429.836 170.78 curveto
stroke
415.816 220.256 moveto
423.263 212.055 430.194 192.628 429.254 181.358 curveto
stroke
418.881 220.532 moveto
431.632 193.86 421.313 133.376 417.775 103.689 curveto
stroke
415.313 141.377 moveto
419.874 118.133 418.223 71.9905 410.387 49.5991 curveto
stroke
392.653 239.762 moveto
392.51 218.656 384.097 178.814 372.334 161.044 curveto
stroke
395.42 234.517 moveto
398.984 190.524 392.999 102.371 398.414 58.6762 curveto
stroke
387.489 166.746 moveto
386.249 161.151 381.632 149.568 378.784 143.702 curveto
stroke
186.13 147.322 moveto
164.195 115.065 182.932 56.8111 219.118 44.0369 curveto
stroke
194.303 66.9178 moveto
175.856 43.6006 190.273 18.3973 219.117 12.8344 curveto
stroke
203.43 20.8334 moveto
199.645 15.0877 199.928 3.07694 207.204 0 curveto
stroke
