%!PS-Adobe-3.0 EPSF-3.0
%%BoundingBox: 152.085 -5 445.877 395.387
0 0 0 setrgbcolor
292.169 109.811 moveto
288.51 104.93 289.9 94.2183 292.767 89.365 curveto
stroke
310.892 94.6817 moveto
310.798 93.3073 310.238 89.7247 309.345 88.3408 curveto
stroke
322.732 56.2742 moveto
310.372 63.1007 286.897 64.999 274.82 61.5482 curveto
stroke
270.128 180.093 moveto
272.015 178.152 276.232 174.297 276.698 171.147 curveto
stroke
226.262 186.976 moveto
237.101 186.78 257.613 181.346 268.335 180.069 curveto
stroke
226.523 188.689 moveto
223.463 181.321 225.702 166.594 228.748 159.571 curveto
stroke
247.135 180.243 moveto
239.129 154.107 258.317 157.641 260.673 165.665 curveto
stroke
230.673 156.343 moveto
233.925 152.195 243.734 149.921 248.895 150.295 curveto
stroke
274.36 188.43 moveto
260.575 194.309 232.688 205.096 216.586 202.055 curveto
stroke
280.747 192.739 moveto
279.686 191.194 277.013 188.822 274.8 188.995 curveto
stroke
291.058 179.856 moveto
289.706 185.108 280.191 185.729 274.988 185.34 curveto
stroke
334.78 179.207 moveto
343.993 191.767 374.493 189.814 387.316 183.717 curveto
stroke
330.721 182.099 moveto
331.697 180.772 334.566 180.517 336.327 181.09 curveto
stroke
334.012 173.072 moveto
332.65 171.689 331.311 167.805 331 165.693 curveto
stroke
334.772 172.814 moveto
347.219 173.862 372.297 173.705 383.719 169.683 curveto
stroke
350.622 169.42 moveto
341.279 157.467 361.557 139.696 369.324 157.914 curveto
stroke
369.324 157.914 moveto
370.727 161.16 368.611 170.256 364.418 171.305 curveto
stroke
274.268 10.5322 moveto
253.129 30.7322 212.177 68.3311 212.484 101.914 curveto
stroke
275.071 10.5572 moveto
287.39 8.66281 311.606 4.8237 324.183 6.07963 curveto
stroke
321.757 5.1948 moveto
353.491 18.7749 390.2 64.6616 391.889 102.959 curveto
stroke
385.21 152.53 moveto
420.483 173.402 418.405 120.222 392.174 101.34 curveto
stroke
403.929 143.668 moveto
396.597 149.067 388.368 140.806 385.626 133.779 curveto
stroke
197.877 175.929 moveto
157.085 175.841 186.331 129.305 202.825 112.451 curveto
stroke
306.741 313.228 moveto
312.909 307.07 315.935 292.903 311.638 285.263 curveto
stroke
304.883 315.829 moveto
277.299 293.518 260.051 235.532 258.844 205.604 curveto
stroke
258.704 213.219 moveto
254.096 230.946 258.122 265.222 262 283.115 curveto
stroke
259.402 273.219 moveto
233.272 215.958 218.496 94.902 226.296 30.1201 curveto
stroke
199.39 151.129 moveto
198.47 118.385 217.051 60.8973 229.062 32.5254 curveto
stroke
320.115 296.819 moveto
319.622 306.565 313.056 324.656 302.754 328.583 curveto
stroke
306.642 326.595 moveto
272.824 315.504 212.334 282.324 195.03 250.812 curveto
stroke
209.163 263.029 moveto
205.362 261.617 199.616 255.461 196.937 252.313 curveto
stroke
209.978 261.179 moveto
191.796 226.553 181.301 152.236 191.902 114.176 curveto
stroke
201.138 172.278 moveto
195.726 159.866 190.346 133.719 192.979 119.716 curveto
stroke
330.304 350.968 moveto
292.479 361.268 228.456 352.342 219.214 307.112 curveto
stroke
220.061 314.236 moveto
195.324 285.771 185.097 218.543 187.091 183.213 curveto
stroke
325.343 298.404 moveto
329.236 333.76 377.454 378.097 409.803 390.387 curveto
stroke
327.502 284.384 moveto
331.239 297.646 351.321 310.564 363.76 313.172 curveto
stroke
356.794 309.295 moveto
387.933 279.953 373.695 199.998 367.089 162.42 curveto
stroke
342.948 285.258 moveto
348.034 289.497 358.011 298.348 363.784 301.909 curveto
stroke
362.554 286.388 moveto
363.991 288.28 367.644 291.104 370.225 291.269 curveto
stroke
330.684 301.831 moveto
340.029 309.888 360.813 322.508 373.088 323.435 curveto
stroke
373.076 324.313 moveto
411.799 299.609 440.877 219.016 426.446 175.303 curveto
stroke
413.879 226.035 moveto
421.133 217.818 426.863 198.124 425.653 187.077 curveto
stroke
416.424 227.161 moveto
428.918 199.346 417.552 135.875 414.855 104.791 curveto
stroke
412.163 143.628 moveto
416.572 120.345 415.494 73.8607 407.698 51.2312 curveto
stroke
389.341 244.801 moveto
389.153 223.436 379.985 183.204 367.651 165.438 curveto
stroke
392.7 239.676 moveto
395.832 195.141 386.325 105.935 393.3 61.7515 curveto
stroke
383.74 169.807 moveto
381.621 164.362 376.547 153.074 373.892 147.274 curveto
stroke
181.09 150.136 moveto
160.009 117.272 179.751 60.5631 215.575 46.9735 curveto
stroke
190.665 70.4133 moveto
173.326 46.5364 188.252 21.3499 216.591 15.8736 curveto
stroke
200.738 23.8731 moveto
196.938 17.1211 197.411 3.52673 205.593 0 curveto
stroke
