%!PS-Adobe-3.0 EPSF-3.0
%%BoundingBox: 146.09 -5 442.566 402
0 0 0 setrgbcolor
286 92 moveto
282.745 97.499 281.028 109.572 285 115 curveto
stroke
284 115 moveto
277.398 108.116 277.435 96.79 286 93 curveto
stroke
305 96 moveto
304.275 95.187 303.725 92.813 303 92 curveto
stroke
305 95 moveto
305 94 305 92 305 91 curveto
stroke
269 66 moveto
281.281 68.37 305.444 65.096 317 59 curveto
stroke
263 185 moveto
265.177 183.115 269.66 179.297 270 176 curveto
stroke
261 185 moveto
250.514 186.357 230.464 191.286 220 192 curveto
stroke
220 194 moveto
216.644 186.448 218.823 171.235 222 164 curveto
stroke
239 185 moveto
231.094 156.172 251.869 162.892 253 171 curveto
253.815 176.843 249.877 189.018 242 186 curveto
stroke
224 160 moveto
227.552 156.99 236.303 154.496 241 155 curveto
stroke
211 207 moveto
227.079 209.934 254.2 198.24 268 193 curveto
stroke
268 194 moveto
270.268 193.866 272.924 196.474 274 198 curveto
stroke
274 197 moveto
253.929 197.805 217.407 221.389 204 203 curveto
stroke
268 191 moveto
273.357 191.232 283.652 189.501 285 183 curveto
stroke
329 183 moveto
338.666 196.643 371.493 193.916 385 187 curveto
stroke
331 185 moveto
329.15 184.52 325.901 185.315 325 187 curveto
stroke
326 186 moveto
338.429 205.445 369.906 201.293 385 189 curveto
stroke
328 177 moveto
326.375 175.81 325.04 172.112 325 170 curveto
stroke
328 177 moveto
341.243 178.139 367.985 177.687 380 173 curveto
stroke
344 173 moveto
334.081 160.811 357.222 143.126 364 162 curveto
365.2 165.342 363.05 174.116 359 175 curveto
stroke
359 176 moveto
354.982 177.968 348.112 177.285 346 173 curveto
stroke
198 146 moveto
199.695 132.736 206.543 106.485 209 93 curveto
stroke
208 105 moveto
207.721 71.246 248.337 33.866 269 13 curveto
stroke
270 13 moveto
282.424 11.02 307.39 6.546 320 8 curveto
stroke
317 7 moveto
348.529 20.45 387.514 65.596 390 105 curveto
stroke
390 104 moveto
418.425 124.529 418.711 180.054 381 156 curveto
stroke
402 148 moveto
394.094 154.402 385.341 145.46 382 138 curveto
stroke
230 55 moveto
230.18 46.317 233.346 29.449 235 21 curveto
stroke
192 181 moveto
151.09 180.25 181.412 135.594 197 118 curveto
stroke
307 291 moveto
311.692 298.487 309.024 312.624 303 319 curveto
stroke
301 322 moveto
271.921 299.982 254.862 240.728 253 211 curveto
stroke
258 290 moveto
253.823 272.037 248.789 237.864 253 220 curveto
stroke
255 279 moveto
227.685 222.077 213.251 100.138 221 35 curveto
stroke
224 37 moveto
211.425 64.641 192.245 120.571 193 153 curveto
stroke
316 302 moveto
315.617 311.95 309.398 330.697 299 335 curveto
stroke
303 333 moveto
268.996 322.198 209.275 288.456 191 258 curveto
stroke
193 262 moveto
192.75 261.75 192.25 261.25 192 261 curveto
192.25 260.75 192.75 260.25 193 260 curveto
195.672 262.866 201.534 268.113 205 270 curveto
stroke
206 268 moveto
186.398 233.343 174.922 157.789 186 119 curveto
stroke
195 177 moveto
189.785 164.889 184.329 139.614 187 126 curveto
stroke
329 357 moveto
290.495 367.189 225.863 359.522 217 313 curveto
stroke
218 321 moveto
191.485 291.547 180.536 221.241 183 184 curveto
stroke
321 304 moveto
325.245 340.083 374.356 385.251 408 397 curveto
stroke
324 306 moveto
330.491 336.691 381.801 375.482 405 397 curveto
stroke
323 290 moveto
327.34 303.68 348.157 316.684 361 319 curveto
stroke
354 315 moveto
385.636 285.107 369.31 204.025 362 166 curveto
stroke
339 291 moveto
344.367 295.329 354.887 304.406 361 308 curveto
stroke
345 288 moveto
349.002 292.883 358.475 301.479 364 305 curveto
stroke
360 292 moveto
361.482 293.982 365.286 296.902 368 297 curveto
stroke
327 308 moveto
337.209 315.772 358.746 328.26 371 329 curveto
stroke
371 330 moveto
408.973 305.256 437.566 223.163 423 180 curveto
stroke
412 232 moveto
419.036 223.771 423.473 203.812 422 193 curveto
stroke
414 234 moveto
426.187 205.024 413.732 138.507 412 106 curveto
stroke
409 146 moveto
413.287 122.688 412.763 75.867 405 53 curveto
stroke
363 170 moveto
375.885 187.758 385.789 228.376 386 250 curveto
stroke
390 245 moveto
392.708 199.922 379.422 109.674 388 65 curveto
stroke
387 61 moveto
394.829 72.846 400.348 98.738 399 112 curveto
stroke
398 98 moveto
402.752 88.289 408.231 69.085 405 59 curveto
stroke
380 173 moveto
376.951 167.714 371.426 156.731 369 151 curveto
stroke
176 153 moveto
155.877 119.521 176.531 64.408 212 50 curveto
stroke
187 74 moveto
170.771 49.538 186.18 24.372 214 19 curveto
stroke
198 27 moveto
194.222 19.223 194.932 4.011 204 0 curveto
stroke
