%!PS-Adobe-3.0 EPSF-3.0
%%Creator: cairo 1.12.16 (http://cairographics.org)
%%CreationDate: Tue Feb 11 13:25:32 2014
%%Pages: 1
%%DocumentData: Clean7Bit
%%LanguageLevel: 2
%%BoundingBox: 0 -1 781 542
%%EndComments
%%BeginProlog
save
50 dict begin
/q { gsave } bind def
/Q { grestore } bind def
/cm { 6 array astore concat } bind def
/w { setlinewidth } bind def
/J { setlinecap } bind def
/j { setlinejoin } bind def
/M { setmiterlimit } bind def
/d { setdash } bind def
/m { moveto } bind def
/l { lineto } bind def
/c { curveto } bind def
/h { closepath } bind def
/re { exch dup neg 3 1 roll 5 3 roll moveto 0 rlineto
      0 exch rlineto 0 rlineto closepath } bind def
/S { stroke } bind def
/f { fill } bind def
/f* { eofill } bind def
/n { newpath } bind def
/W { clip } bind def
/W* { eoclip } bind def
/BT { } bind def
/ET { } bind def
/pdfmark where { pop globaldict /?pdfmark /exec load put }
    { globaldict begin /?pdfmark /pop load def /pdfmark
    /cleartomark load def end } ifelse
/BDC { mark 3 1 roll /BDC pdfmark } bind def
/EMC { mark /EMC pdfmark } bind def
/cairo_store_point { /cairo_point_y exch def /cairo_point_x exch def } def
/Tj { show currentpoint cairo_store_point } bind def
/TJ {
  {
    dup
    type /stringtype eq
    { show } { -0.001 mul 0 cairo_font_matrix dtransform rmoveto } ifelse
  } forall
  currentpoint cairo_store_point
} bind def
/cairo_selectfont { cairo_font_matrix aload pop pop pop 0 0 6 array astore
    cairo_font exch selectfont cairo_point_x cairo_point_y moveto } bind def
/Tf { pop /cairo_font exch def /cairo_font_matrix where
      { pop cairo_selectfont } if } bind def
/Td { matrix translate cairo_font_matrix matrix concatmatrix dup
      /cairo_font_matrix exch def dup 4 get exch 5 get cairo_store_point
      /cairo_font where { pop cairo_selectfont } if } bind def
/Tm { 2 copy 8 2 roll 6 array astore /cairo_font_matrix exch def
      cairo_store_point /cairo_font where { pop cairo_selectfont } if } bind def
/g { setgray } bind def
/rg { setrgbcolor } bind def
/d1 { setcachedevice } bind def
%%EndProlog
%%Page: 1 1
%%BeginPageSetup
%%PageBoundingBox: 0 -1 781 542
%%EndPageSetup
q 0 -1 781 543 rectclip q
0 g
0.683597 w
0 J
0 j
[] 0.0 d
10 M q 1 0 0 -1 0 541.91217 cm
24.18 495.496 m 13.25 501.02 -1.137 517.434 18.027 519.422 c S Q
q 1 0 0 -1 0 541.91217 cm
102.793 286.996 m 80.25 279.121 40.863 291.066 31.012 316.395 c S Q
q 1 0 0 -1 0 541.91217 cm
31.699 315.711 m 24.004 329.586 17.996 360.934 14.609 376.551 c S Q
q 1 0 0 -1 0 541.91217 cm
15.293 375.184 m 11.617 383.805 17.852 400.996 18.027 410.047 c S Q
q 1 0 0 -1 0 541.91217 cm
103.473 288.363 m 118.906 286.059 141.809 292.793 146.543 308.191 c S Q
q 1 0 0 -1 0 541.91217 cm
20.758 465.414 m 2.918 479.164 9.816 496.402 31.699 500.277 c S Q
q 1 0 0 -1 0 541.91217 cm
118.516 436.023 m 120.293 439.656 118.824 447.996 117.148 451.746 c S Q
q 1 0 0 -1 0 541.91217 cm
118.516 437.391 m 122.801 442.582 123.277 449.801 116.465 453.113 c S Q
q 1 0 0 -1 0 541.91217 cm
122.617 468.832 m 112.871 460.75 96.676 466.883 89.121 474.305 c S Q
q 1 0 0 -1 0 541.91217 cm
108.262 444.906 m 108.262 446.277 l 109.629 446.277 l S Q
q 1 0 0 -1 0 541.91217 cm
86.387 498.914 m 93.934 499.859 108.938 498.836 116.465 498.914 c S Q
q 1 0 0 -1 0 541.91217 cm
87.07 498.914 m 69.535 489.004 40.453 463.023 40.582 441.492 c S Q
q 1 0 0 -1 0 541.91217 cm
37.852 400.477 m 9.355 397.531 23.371 438.586 40.582 445.594 c S Q
q 1 0 0 -1 0 541.91217 cm
27.598 410.047 m 34.129 406.898 40.363 415.492 39.902 421.668 c S Q
q 1 0 0 -1 0 541.91217 cm
117.148 498.914 m 138.098 488.969 154.668 454.375 153.379 433.969 c S Q
q 1 0 0 -1 0 541.91217 cm
153.379 434.652 m 155.246 423.07 156.113 398.426 158.848 386.805 c S Q
q 1 0 0 -1 0 541.91217 cm
157.48 407.309 m 171.703 408.621 161.551 433.449 154.062 438.074 c S Q
q 1 0 0 -1 0 541.91217 cm
161.582 417.566 m 159.668 418.75 155.676 421.07 155.43 423.715 c S Q
q 1 0 0 -1 0 541.91217 cm
43.32 454.48 m 43.625 462.855 43.902 479.27 39.902 487.297 c S Q
q 1 0 0 -1 0 541.91217 cm
21.445 407.996 m 4.367 427.258 10.594 473.52 37.168 478.406 c S Q
q 1 0 0 -1 0 541.91217 cm
98.008 315.711 m 99.336 317.949 102.055 322.434 103.473 324.594 c S Q
q 1 0 0 -1 0 541.91217 cm
93.906 322.547 m 95.047 323.641 96.973 326.148 98.008 327.332 c S Q
q 1 0 0 -1 0 541.91217 cm
127.402 328.699 m 129.414 326.266 133.406 321.375 135.609 319.125 c S Q
q 1 0 0 -1 0 541.91217 cm
124.668 328.012 m 127.922 325.328 133.418 319.203 135.609 315.711 c S Q
q 1 0 0 -1 0 541.91217 cm
134.238 327.332 m 134.949 326.48 136.613 325.031 137.656 324.594 c S Q
1 g
153.379 146.904 m 147.801 147.557 136.922 147.775 131.504 146.221 c 132.188
 146.221 l 132.492 144.361 131.918 140.834 130.82 139.385 c 131.504 133.92
 l 134.023 127.94 144.121 128.658 149.277 128.451 c 153.379 129.815 l 155.582
 134.096 156.445 143.197 153.379 146.904 c f
97.324 140.068 m 96.406 141.459 94.965 144.447 95.273 146.221 c 86.504 
146.522 68.863 152.232 59.727 149.643 c 61.777 149.643 l 61.23 145.619 62.68
 137.822 63.828 133.92 c 63.828 135.283 l 65.723 126.904 78.539 127.111 
85.02 127.08 c 87.754 127.08 l 90.648 127.065 94.445 130.397 95.957 132.549
 c f
0 g
q 1 0 0 -1 0 541.91217 cm
129.453 394.324 m 130.129 393.484 130.148 391.062 130.82 390.223 c S Q
q 1 0 0 -1 0 541.91217 cm
129.453 394.324 m 137.332 391.934 151.352 384.82 159.531 388.855 c S Q
q 1 0 0 -1 0 541.91217 cm
130.137 390.902 m 138.57 389.836 151.305 381.047 158.848 387.484 c S Q
q 1 0 0 -1 0 541.91217 cm
132.188 395.691 m 132.492 397.551 131.918 401.078 130.82 402.527 c S Q
q 1 0 0 -1 0 541.91217 cm
153.379 395.008 m 156.445 398.715 155.582 407.816 153.379 412.098 c S Q
q 1 0 0 -1 0 541.91217 cm
131.504 395.691 m 136.922 394.137 147.801 394.355 153.379 395.008 c S Q
q 1 0 0 -1 0 541.91217 cm
59.727 392.27 m 68.863 389.68 86.504 395.391 95.273 395.691 c 94.965 397.469
 96.406 400.453 97.324 401.844 c S Q
q 1 0 0 -1 0 541.91217 cm
61.777 392.27 m 61.23 396.297 62.68 404.09 63.828 407.996 c S Q
q 1 0 0 -1 0 541.91217 cm
63.828 406.629 m 65.723 415.008 78.539 414.801 85.02 414.832 c S Q
q 1 0 0 -1 0 541.91217 cm
144.492 396.375 m 141.117 403.312 143.852 415.871 152.012 406.629 c 153.559
 404.875 151.84 397.172 148.594 395.691 c S Q
q 1 0 0 -1 0 541.91217 cm
85.02 394.324 m 75.836 399.75 83.648 413.25 92.539 407.309 c 95.609 405.262
 93.781 397.598 91.172 394.324 c S Q
q 1 0 0 -1 0 541.91217 cm
119.883 328.699 m 119.699 321.801 129.047 313.434 134.918 310.238 c S Q
q 1 0 0 -1 0 541.91217 cm
117.832 319.809 m 120.73 312.816 130.211 303.617 137.656 302.039 c S Q
q 1 0 0 -1 0 541.91217 cm
137.656 302.039 m 165.004 318.355 186.469 365.469 180.039 397.738 c S Q
q 1 0 0 -1 0 541.91217 cm
165.684 369.715 m 171.215 375.168 179.953 387.102 180.723 395.691 c S Q
q 1 0 0 -1 0 541.91217 cm
169.785 373.133 m 178.77 386.262 175.938 414.426 171.84 428.5 c S Q
q 1 0 0 -1 0 541.91217 cm
164.316 393.641 m 169.648 400.883 173.957 417.645 173.887 426.453 c S Q
q 1 0 0 -1 0 541.91217 cm
169.785 407.996 m 174.195 423.504 169.941 453.312 164.316 467.469 c S Q
q 1 0 0 -1 0 541.91217 cm
154.746 357.41 m 159.43 384.867 167.281 439.922 164.316 467.469 c S Q
q 1 0 0 -1 0 541.91217 cm
154.746 353.309 m 155.301 366.508 153.52 391.832 148.594 403.891 c S Q
q 1 0 0 -1 0 541.91217 cm
130.82 312.293 m 148.801 329.391 149.738 377.922 149.277 401.16 c S Q
q 1 0 0 -1 0 541.91217 cm
101.426 388.168 m 101.918 390.441 101.215 394.758 98.688 395.691 c S Q
q 1 0 0 -1 0 541.91217 cm
98.008 395.008 m 87.215 389.465 63.734 380.273 50.156 382.016 c S Q
q 1 0 0 -1 0 541.91217 cm
49.473 382.016 m 64.102 371.348 87.117 391.086 100.742 388.855 c S Q
q 1 0 0 -1 0 541.91217 cm
117.148 319.125 m 118.363 298.438 143.141 272.66 157.48 261.707 c S Q
q 1 0 0 -1 0 541.91217 cm
157.48 261.023 m 135.641 268.996 111.746 292.918 117.148 321.18 c S Q
q 1 0 0 -1 0 541.91217 cm
100.742 310.238 m 90.883 326.102 76.727 360.234 80.234 381.332 c S Q
q 1 0 0 -1 0 541.91217 cm
100.742 310.238 m 105.676 313.324 110.039 322.969 109.629 328.699 c S Q
q 1 0 0 -1 0 541.91217 cm
80.918 382.699 m 75.383 371.434 71.844 348.016 72.711 336.215 c S Q
q 1 0 0 -1 0 541.91217 cm
72.027 337.586 m 61.703 377.898 47.609 456.188 53.574 497.547 c S Q
q 1 0 0 -1 0 541.91217 cm
40.582 401.16 m 42.902 424.871 50.355 471.234 54.258 494.129 c S Q
q 1 0 0 -1 0 541.91217 cm
41.266 401.16 m 36.809 411.262 33.203 432.965 34.434 444.223 c S Q
q 1 0 0 -1 0 541.91217 cm
36.488 351.254 m 32.438 374.074 29.711 418.688 34.434 440.809 c S Q
q 1 0 0 -1 0 541.91217 cm
111.68 318.441 m 110.855 312.77 104.879 303.668 98.688 302.723 c S Q
q 1 0 0 -1 0 541.91217 cm
100.742 304.086 m 78.738 313.105 31.711 334.066 26.914 360.145 c S Q
q 1 0 0 -1 0 541.91217 cm
35.797 351.254 m 32.824 352.875 27.25 356.637 26.234 360.145 c S Q
1 0 0 rg
0.613395 w
q 1 0 0 -1 0 541.91217 cm
327.578 465.539 m 319.152 468.945 305.332 482.637 323.219 483.457 c 406.84
 267.938 m 386.766 259 350.457 266.445 341.113 287.668 c 341.797 287.188
 m 331.227 299.105 318.598 329.238 313.41 356.918 c 314.102 354.938 m 310.5
 365.336 316.188 380.516 315.422 387.168 c 407.324 269.312 m 421.504 267.402
 441.777 274.465 444.117 289.703 c 321.98 441.418 m 307.551 451.555 315.688
 465.18 333.262 470.32 c 390.852 418.137 m 393.402 422.266 391.766 430.688
 390.156 434.363 c 390.828 419.574 m 397.473 425.945 399.289 434.121 389.547
 435.703 c 402.406 456.117 m 386.738 443.312 373.559 448.465 369.34 455.719
 c 379.141 426.145 m 379.148 426.484 379.164 427.172 379.18 427.512 c 379.18
 427.512 m 379.457 427.527 380.031 427.555 380.32 427.566 c 369.922 477.191
 m 382.871 478.793 403.234 480.324 409.012 483.605 c 370.438 477.242 m 357.535
 468.176 337.406 442.559 332.512 416.281 c 328.305 379.535 m 308.613 377.75
 316.305 410.867 328.797 415.324 c 323.727 388.797 m 326.828 385.656 329.438
 394.148 332.848 402.172 c 409.457 484.02 m 426.922 480.277 447.086 447.68
 447.918 420.395 c 448.898 420.164 m 446.23 408.809 445.062 385.535 455.742
 379.906 c 445.27 391.156 m 463.074 389.031 461.336 412.43 453.59 419.57
 c 452.688 398.215 m 452.172 402.008 446.484 406.957 446.895 409.223 c 335.699
 431.125 m 339.805 443.086 340.375 456.977 337.926 462.164 c 318.137 383.781
 m 304.59 407.543 314.348 447.562 335.766 454.953 c 395.449 296.098 m 395.629
 298.406 395.895 303.066 396.059 305.344 c 389.094 302.504 m 389.52 303.684
 389.918 306.344 390.203 307.609 c 417.434 310.723 m 420.688 308.246 426.895
 303.211 430.004 300.879 c 414.773 309.941 m 419.492 307.238 427.723 300.941
 431.195 297.316 c 425.504 309.426 m 426.598 308.555 428.914 307.055 430.18
 306.613 c 411.363 374.434 m 412.277 372.891 412.848 370.301 414.004 369.219
 c 411.363 374.434 m 421.805 369.367 444.406 371.977 455.969 381.898 c 412.875
 370.152 m 424.633 367.793 445.953 370.664 455.637 380.848 c 414.207 374.613
 m 413.887 377.012 411.73 381.594 409.883 383.434 c 440.898 380.352 m 445.781
 386.141 440.457 390.758 436.574 394.125 c 413.379 374.879 m 420.234 371.801
 431.434 376.406 440.898 380.352 c 338.898 372.238 m 343.297 367.816 355.969
 373.434 364.414 371.762 c 364.414 371.762 m 363.703 374.375 364.914 377.648
 365.988 379.215 c 339.855 371.766 m 340.145 375.738 341.312 382.246 342.625
 385.664 c 342.363 384.449 m 347.211 393.09 357.859 394.277 363.715 395.129
 c 425.348 378.215 m 420.012 385.25 426.406 399.781 431.625 385.297 c 431.625
 385.297 m 433.84 386.125 434.723 380.629 430.82 378.496 c 354.867 371.938
 m 348.648 377.75 359.738 392.363 361.617 385.125 c 361.617 385.125 m 364.57
 383.195 362.5 374.957 360.586 371.273 c 409.387 310.477 m 412.566 303.383
 425.367 294.934 432.242 291.664 c 411.641 301.273 m 417.402 294.191 429.367
 284.922 436.844 283.395 c 436.844 283.395 m 458.223 301.008 478.711 344.758
 469.371 380.539 c 459.949 344.953 m 465.34 350.918 471.797 367.227 469.754
 378.602 c 464 347.684 m 470.922 366.047 468.133 394.59 468.047 408.004 
c 458.324 382.637 m 460.875 384.578 467.16 396.895 469.102 406.117 c 461.254
 388.367 m 468.773 402.863 463.133 440.23 455.949 457.395 c 447.148 341.832
 m 456.223 376.477 463.734 422.918 455.949 457.395 c 446.098 337.113 m 450.41
 354.133 443.961 378.535 426.906 387.332 c 427.523 293.766 m 440.457 311.723
 444.336 368.105 427.758 384.285 c 375.75 363.949 m 374.32 364.93 371.215
 368.773 368.145 370.719 c 367.598 369.891 m 358.535 365.035 343.531 358.508
 333.941 362.051 c 333.742 362.258 m 353.344 349.656 357.598 367.207 374.203
 363.906 c 411.289 300.555 m 419.305 279.625 442.891 255.195 453.711 245.402
 c 453.641 244.742 m 436.266 251.309 414.207 274.023 410.332 302.652 c 399.902
 290.867 m 385.098 305.719 364.145 339.117 359.883 359.516 c 399.902 290.867
 m 403.098 294.184 402.684 304.137 399.441 309.91 c 358.719 360.184 m 363.281
 351.699 362.461 325.074 367.25 313.324 c 366.223 314.566 m 346.066 355.93
 342.223 438.996 348.066 473.117 c 329.477 379.48 m 335.332 405.457 344.371
 451.598 348.062 470.484 c 329.848 379.52 m 329.328 391.488 326.34 407.633
 321.48 411.48 c 334.305 322.566 m 326.809 352.805 324.887 396.895 322.969
 410.191 c 406.375 299.629 m 408.043 293.855 405.672 284.539 400.418 283.348
 c 401.863 284.789 m 380.496 291.984 336.84 304.156 326.188 327.469 c 333.859
 322.559 m 331.785 324.043 327.297 325.52 325.633 327.113 c S Q
1.0373 w
q 1 0 0 -1 0 541.91217 cm
535.457 505.379 m 521.172 511.129 497.73 534.223 528.07 535.609 c 669.852
 172.125 m 635.812 157.055 574.246 169.613 558.41 205.398 c 559.566 204.59
 m 541.641 224.695 520.227 275.512 511.434 322.188 c 512.602 318.855 m 506.5
 336.398 516.137 362 514.836 373.215 c 670.672 174.441 m 694.719 171.219
 729.102 183.137 733.062 208.836 c 525.965 464.703 m 501.492 481.801 515.297
 504.785 545.094 513.445 c 642.742 425.441 m 647.07 432.406 644.293 446.609
 641.562 452.812 c 642.699 427.867 m 653.98 438.613 657.047 452.398 640.539
 455.066 c 662.332 489.492 m 635.766 467.902 613.418 476.582 606.266 488.824
 c 622.887 438.941 m 622.898 439.52 622.926 440.676 622.953 441.25 c 622.953
 441.25 m 623.422 441.277 624.387 441.316 624.887 441.348 c 607.258 525.043
 m 629.215 527.734 663.738 530.328 673.539 535.855 c 608.129 525.125 m 586.246
 509.836 552.121 466.633 543.82 422.312 c 536.684 360.336 m 503.289 357.328
 516.344 413.18 537.523 420.699 c 528.922 375.957 m 534.184 370.656 538.609
 384.98 544.395 398.512 c 674.289 536.551 m 703.898 530.242 738.09 475.266
 739.5 429.254 c 741.172 428.859 m 736.648 409.707 734.664 370.465 752.773
 360.961 c 735.012 379.934 m 765.211 376.352 762.262 415.812 749.125 427.852
 c 747.598 391.84 m 746.723 398.242 737.078 406.586 737.77 410.402 c 549.23
 447.34 m 556.195 467.52 557.148 490.945 552.996 499.699 c 519.441 367.504
 m 496.477 407.574 513.016 475.066 549.336 487.539 c 650.543 219.613 m 650.844
 223.508 651.285 231.375 651.578 235.207 c 639.766 230.426 m 640.484 232.418
 641.164 236.898 641.641 239.035 c 687.816 244.277 m 693.336 240.102 703.855
 231.609 709.129 227.68 c 683.309 242.965 m 691.305 238.41 705.262 227.793
 711.148 221.676 c 701.504 242.098 m 703.355 240.625 707.289 238.098 709.434
 237.352 c 677.523 351.73 m 679.074 349.137 680.043 344.762 682.004 342.945
 c 677.523 351.73 m 695.223 343.191 733.551 347.59 753.152 364.32 c 680.086
 344.52 m 700.027 340.531 736.172 345.375 752.598 362.555 c 682.344 352.035
 m 681.801 356.082 678.148 363.809 675.016 366.91 c 727.605 361.711 m 735.887
 371.477 726.852 379.27 720.277 384.945 c 680.945 352.488 m 692.566 347.293
 711.547 355.062 727.605 361.711 c 554.652 348.031 m 562.105 340.566 583.602
 350.047 597.91 347.234 c 597.91 347.234 m 596.707 351.637 598.762 357.16
 600.586 359.797 c 556.273 347.234 m 556.762 353.93 558.746 364.902 560.965
 370.68 c 560.52 368.625 m 568.742 383.199 586.801 385.195 596.73 386.637
 c 701.234 358.113 m 692.188 369.98 703.027 394.484 711.883 370.051 c 711.883
 370.051 m 715.641 371.445 717.137 362.184 710.516 358.59 c 581.73 347.523
 m 571.184 357.328 589.98 381.973 593.176 369.77 c 593.176 369.77 m 598.18
 366.512 594.672 352.621 591.422 346.398 c 674.168 243.867 m 679.566 231.906
 701.273 217.656 712.926 212.137 c 678 228.348 m 687.758 216.402 708.047
 200.77 720.727 198.195 c 720.727 198.195 m 756.98 227.887 791.719 301.684
 775.887 362.027 c 759.906 302.016 m 769.047 312.07 779.992 339.578 776.535
 358.762 c 766.781 306.621 m 778.52 337.59 773.781 385.719 773.641 408.355
 c 757.152 365.57 m 761.48 368.848 772.137 389.613 775.434 405.164 c 762.125
 375.23 m 774.871 399.68 765.305 462.699 753.129 491.648 c 738.207 296.754
 m 753.586 355.176 766.328 433.5 753.129 491.648 c 736.422 288.793 m 743.738
 317.492 732.793 358.648 703.883 373.484 c 704.922 215.684 m 726.859 245.973
 733.43 341.062 705.324 368.348 c 617.137 334.051 m 614.711 335.711 609.449
 342.188 604.242 345.465 c 603.316 344.07 m 587.949 335.879 562.504 324.867
 546.246 330.844 c 545.91 331.195 m 579.145 309.938 586.352 339.547 614.516
 333.977 c 677.398 227.125 m 690.988 191.836 730.977 150.637 749.332 134.121
 c 749.207 133.008 m 719.746 144.078 682.348 182.391 675.773 230.672 c 658.094
 210.797 m 632.984 235.836 597.457 292.172 590.23 326.578 c 658.094 210.797
 m 663.504 216.391 662.809 233.18 657.305 242.914 c 588.258 327.703 m 595.992
 313.395 594.605 268.492 602.723 248.676 c 600.984 250.766 m 566.805 320.523
 560.281 460.621 570.195 518.168 c 538.672 360.246 m 548.609 404.051 563.934
 481.867 570.188 513.734 c 539.305 360.305 m 538.422 380.496 533.352 407.723
 525.113 414.223 c 546.859 264.258 m 534.148 315.258 530.895 389.613 527.633
 412.035 c 669.062 225.574 m 671.895 215.832 667.871 200.121 658.965 198.117
 c 661.414 200.543 m 625.188 212.684 551.16 233.207 533.09 272.523 c 546.102
 264.242 m 542.59 266.746 534.98 269.242 532.156 271.934 c S Q
0 g
q 1 0 0 -1 0 541.91217 cm
534.336 512.445 m 516.074 526.988 528.562 538.25 546.812 541.414 c S Q
q 1 0 0 -1 0 541.91217 cm
528.094 465.895 m 511.215 491.195 527.242 517.23 556.176 522.789 c S Q
q 1 0 0 -1 0 541.91217 cm
516.652 384.168 m 495.723 418.797 517.203 475.812 554.098 490.719 c S Q
q 1 0 0 -1 0 541.91217 cm
572.816 485.547 m 573 494.531 576.297 511.98 578.02 520.723 c S Q
q 1 0 0 -1 0 541.91217 cm
539.531 391.402 m 541.293 405.125 548.422 432.285 550.977 446.234 c S Q
q 1 0 0 -1 0 541.91217 cm
631.059 447.27 m 627.676 441.578 625.887 429.094 630.023 423.473 c S Q
q 1 0 0 -1 0 541.91217 cm
628.98 423.473 m 622.117 430.602 622.152 442.312 631.059 446.234 c S Q
q 1 0 0 -1 0 541.91217 cm
650.82 443.129 m 650.07 443.977 649.5 446.43 648.742 447.27 c S Q
q 1 0 0 -1 0 541.91217 cm
650.82 444.168 m 650.82 448.305 l S Q
q 1 0 0 -1 0 541.91217 cm
613.383 474.168 m 626.156 471.715 651.285 475.105 663.301 481.406 c S Q
q 1 0 0 -1 0 541.91217 cm
739.234 434.855 m 768.797 413.621 769.094 356.176 729.875 381.062 c S Q
q 1 0 0 -1 0 541.91217 cm
751.715 389.336 m 743.488 382.715 734.383 391.965 730.91 399.68 c S Q
q 1 0 0 -1 0 541.91217 cm
533.293 355.199 m 490.742 355.973 522.285 402.168 538.496 420.371 c S Q
q 1 0 0 -1 0 541.91217 cm
686.188 241.398 m 691.77 236.922 702.715 227.531 709.07 223.816 c S Q
q 1 0 0 -1 0 541.91217 cm
692.43 244.504 m 696.586 239.453 706.441 230.559 712.191 226.918 c S Q
q 1 0 0 -1 0 541.91217 cm
708.027 240.367 m 709.57 238.312 713.527 235.293 716.348 235.195 c S Q
q 1 0 0 -1 0 541.91217 cm
642.504 215.539 m 645.137 218.508 647.086 226.102 647.707 230.023 c S Q
q 1 0 0 -1 0 541.91217 cm
516.652 368.645 m 523.582 372.805 538.965 375.91 536.414 386.23 c S Q
q 1 0 0 -1 0 541.91217 cm
633.145 224.852 m 636.98 228.176 642.391 236.383 643.539 241.398 c S Q
q 1 0 0 -1 0 541.91217 cm
666.426 173.129 m 691.559 170.734 730.75 186.691 735.07 213.473 c S Q
q 1 0 0 -1 0 541.91217 cm
559.293 213.473 m 536.789 232.668 525.41 283.902 523.934 309.676 c S Q
q 1 0 0 -1 0 541.91217 cm
523.934 309.676 m 520.758 322.449 521.297 347.828 524.973 360.371 c S Q
q 1 0 0 -1 0 541.91217 cm
675.785 353.125 m 685.84 339.012 719.984 341.836 734.031 348.988 c S Q
q 1 0 0 -1 0 541.91217 cm
677.871 351.059 m 675.945 351.559 672.559 350.738 671.625 348.988 c S Q
q 1 0 0 -1 0 541.91217 cm
672.668 350.027 m 685.59 329.91 718.332 334.203 734.031 346.922 c S Q
q 1 0 0 -1 0 541.91217 cm
669.547 242.438 m 674.062 228.285 695.711 214.828 709.07 212.434 c S Q
q 1 0 0 -1 0 541.91217 cm
701.789 216.574 m 734.695 247.496 717.715 331.379 710.113 370.715 c S Q
q 1 0 0 -1 0 541.91217 cm
673.703 223.816 m 684.328 215.777 706.723 202.855 719.473 202.09 c S Q
q 1 0 0 -1 0 541.91217 cm
758.996 391.402 m 763.453 415.52 762.91 463.957 754.832 487.613 c S Q
q 1 0 0 -1 0 541.91217 cm
711.148 366.578 m 724.555 348.207 734.855 306.184 735.07 283.812 c S Q
q 1 0 0 -1 0 541.91217 cm
739.234 288.992 m 742.051 335.625 728.23 428.984 737.152 475.199 c S Q
q 1 0 0 -1 0 541.91217 cm
736.109 479.34 m 744.254 467.086 749.992 440.297 748.594 426.578 c S Q
q 1 0 0 -1 0 541.91217 cm
747.551 441.062 m 752.496 451.105 758.195 470.977 754.832 481.406 c S Q
q 1 0 0 -1 0 541.91217 cm
719.473 201.055 m 758.965 226.656 788.707 311.578 773.555 356.23 c S Q
q 1 0 0 -1 0 541.91217 cm
764.195 300.371 m 776.867 330.344 763.918 399.156 762.117 432.785 c S Q
q 1 0 0 -1 0 541.91217 cm
763.152 301.402 m 770.984 313.105 775.961 340.688 773.555 355.199 c S Q
q 1 0 0 -1 0 541.91217 cm
549.934 433.824 m 549.648 468.742 591.887 507.41 613.383 528.996 c S Q
q 1 0 0 -1 0 541.91217 cm
614.418 528.996 m 627.344 531.047 653.312 535.672 666.426 534.168 c S Q
q 1 0 0 -1 0 541.91217 cm
663.301 535.207 m 696.102 521.289 736.648 474.586 739.234 433.824 c S Q
q 1 0 0 -1 0 541.91217 cm
674.746 359.332 m 673.055 360.566 671.668 364.391 671.625 366.578 c S Q
q 1 0 0 -1 0 541.91217 cm
674.746 359.332 m 688.52 358.16 716.332 358.625 728.832 363.473 c S Q
q 1 0 0 -1 0 541.91217 cm
728.832 363.473 m 725.664 368.941 719.914 380.305 717.395 386.23 c S Q
q 1 0 0 -1 0 541.91217 cm
607.141 351.059 m 609.402 353.012 614.066 356.957 614.418 360.371 c S Q
q 1 0 0 -1 0 541.91217 cm
605.062 351.059 m 594.152 349.66 573.301 344.559 562.414 343.82 c S Q
q 1 0 0 -1 0 541.91217 cm
562.414 341.746 m 558.926 349.562 561.195 365.297 564.492 372.785 c S Q
q 1 0 0 -1 0 541.91217 cm
566.578 376.922 m 570.273 380.039 579.371 382.617 584.254 382.094 c S Q
q 1 0 0 -1 0 541.91217 cm
691.387 363.473 m 681.07 376.082 705.137 394.379 712.191 374.852 c 713.438
 371.398 711.203 362.32 706.992 361.406 c S Q
q 1 0 0 -1 0 541.91217 cm
706.992 360.371 m 702.809 358.332 695.664 359.043 693.465 363.473 c S Q
q 1 0 0 -1 0 541.91217 cm
582.176 351.059 m 573.953 380.883 595.562 373.93 596.738 365.543 c 597.59
 359.5 593.492 346.906 585.301 350.027 c S Q
q 1 0 0 -1 0 541.91217 cm
553.055 328.301 m 569.777 325.27 597.988 337.359 612.34 342.785 c S Q
q 1 0 0 -1 0 541.91217 cm
612.34 341.746 m 614.699 341.891 617.465 339.191 618.578 337.609 c S Q
q 1 0 0 -1 0 541.91217 cm
618.578 338.645 m 597.707 337.816 559.723 313.418 545.773 332.441 c S Q
q 1 0 0 -1 0 541.91217 cm
675.785 173.129 m 635.738 162.582 568.516 170.516 559.293 218.645 c S Q
q 1 0 0 -1 0 541.91217 cm
652.906 241.398 m 657.785 233.656 655.012 219.027 648.742 212.434 c S Q
q 1 0 0 -1 0 541.91217 cm
646.664 209.332 m 616.422 232.105 598.672 293.406 596.738 324.16 c S Q
q 1 0 0 -1 0 541.91217 cm
601.938 242.438 m 597.594 261.02 592.359 296.371 596.738 314.855 c S Q
q 1 0 0 -1 0 541.91217 cm
598.816 253.816 m 570.41 312.703 555.395 438.852 563.457 506.238 c S Q
q 1 0 0 -1 0 541.91217 cm
662.266 230.023 m 661.867 219.727 655.398 200.336 644.586 195.883 c S Q
q 1 0 0 -1 0 541.91217 cm
648.742 197.953 m 613.379 209.129 551.262 244.035 532.25 275.539 c S Q
q 1 0 0 -1 0 541.91217 cm
534.336 271.406 m 533.555 272.695 534.074 273.215 534.336 273.473 c 537.113
 270.504 543.207 265.078 546.812 263.129 c S Q
q 1 0 0 -1 0 541.91217 cm
547.855 265.195 m 527.469 301.051 515.527 379.211 527.051 419.34 c S Q
q 1 0 0 -1 0 541.91217 cm
536.414 359.332 m 530.988 371.863 525.316 398.012 528.094 412.094 c S Q
q 1 0 0 -1 0 541.91217 cm
535.371 361.406 m 530.191 400.379 547.129 472.477 562.414 506.238 c S Q
q 1 0 0 -1 0 541.91217 cm
667.469 227.953 m 671.883 190.621 722.961 143.898 757.953 131.742 c S Q
q 1 0 0 -1 0 541.91217 cm
670.582 225.883 m 677.34 194.133 730.703 154.004 754.832 131.742 c S Q
0.470588 0.666667 1 rg
0.621613 w
q 1 0 0 -1 0 541.91217 cm
325.504 131.781 m 354.945 141.531 414.816 146.102 444.855 144.832 c 398.23
 69.617 m 379.801 102.152 379.801 175.637 382.074 212.59 c 330.473 93.242
 m 360.09 100.59 418.305 104.973 447.34 106.914 c 454.176 122.457 m 451.52
 153.922 431.207 213.18 401.961 227.512 c 321.773 120.59 m 325.684 149.48
 338.418 204.926 366.531 221.289 c 336.07 28.594 m 360.328 7.082 418.281
 -3.258 441.121 27.352 c 309.34 143.59 m 307.523 166.059 315.289 209.172
 322.395 230.617 c 354.098 115.617 m 354.098 128.668 l 423.715 122.457 m
 422.75 125.016 423.395 130.492 422.477 133.023 c 322.395 118.727 m 307.828
 124.633 304.16 141.414 319.906 148.562 c 442.367 132.402 m 466.625 125.031
 461.445 157.73 444.234 165.969 c 331.094 101.32 m 340.895 101.707 360.422
 104.09 369.02 108.16 c 441.121 113.758 m 431.395 107.266 413.875 108.453
 406.312 116.238 c 427.445 126.188 m 428.07 125.566 l 428.777 128.324 427.285
 133.145 424.961 134.887 c 457.906 85.785 m 465.559 92.27 468.184 109.777
 467.23 118.727 c 329.855 63.402 m 327.277 64.098 322.57 66.203 320.527 
67.754 c 415.016 228.133 m 418.648 237.707 401.715 241.887 395.125 244.914
 c S Q
0.697054 w
q 1 0 0 -1 0 541.91217 cm
34.938 130.375 m 64.387 133.938 123.27 131.5 152.738 134.562 c 107.438 
60.676 m 112.656 96.676 102.125 167.57 94.191 203.566 c 33.547 91.34 m 61.641
 92.969 117.727 88.027 145.77 91.34 c 145.078 91.34 m 157.766 124.293 131.219
 187.348 108.129 214.719 c 18.207 96.918 m 11.648 137.816 38.098 198.867
 73.973 217.512 c 16.816 30.703 m 43.266 -2.074 105.926 -11.715 134.617 
18.848 c 0.785 130.375 m 1.699 158.496 -3.914 215.246 9.148 241.91 c 76.766
 110.863 m 76.852 114.359 77.152 121.426 76.062 124.797 c 136.012 112.254
 m 136.742 114.832 136.879 120.078 136.711 122.707 c 23.09 117.129 m -6.895
 120.309 4.465 153.836 27.969 163.84 c 146.473 122.016 m 163.555 135.02 
143.219 147.594 140.895 158.957 c 44.699 96.223 m 56.535 96.289 79.613 103.234
 90.008 108.07 c 140.195 100.402 m 134.754 103.711 122.609 107.312 116.496
 108.77 c 141.586 117.129 m 141.426 119.617 139.211 123.84 138.801 126.199
 c 155.531 85.766 m 163.031 89.324 167.031 103.234 170.168 109.469 c 23.09
 65.551 m 18.637 65.461 12.652 70.137 11.941 74.609 c 94.191 226.574 m 96.504
 239.223 80.656 247.348 69.793 245.391 c S Q
0 g
0.897133 w
4 M q 1 0 0 -1 0 541.91217 cm
198.352 387.66 m 198.352 370.262 l 258.82 370.262 l 258.82 352.859 l 299.605
 387.66 l 258.82 422.469 l 258.82 405.062 l 198.352 405.062 l h
S Q
q 1 0 0 -1 0 541.91217 cm
187.508 148.902 m 187.508 131.5 l 247.973 131.5 l 247.973 114.098 l 288.762
 148.902 l 247.973 183.707 l 247.973 166.305 l 187.508 166.305 l h
S Q
Q Q
showpage
%%Trailer
end restore
%%EOF
