%!PS-Adobe-3.0 EPSF-3.0
%%BoundingBox: 152 -5 372 442.061
0.470588 0.666667 1 setrgbcolor
171 274 moveto
215.558 297.649 311.322 305.153 360 305 curveto
stroke
210 372 moveto
200.476 307.529 232.112 174.653 246 114 curveto
246.966 109.782 253.719 101.934 253 97 curveto
stroke
0.705882 0.705882 0.705882 setrgbcolor
225.634 294.406 moveto
214.373 296.035 201.882 298.644 202.079 288.641 curveto
stroke
202.079 288.641 moveto
201.882 298.644 214.373 296.035 225.634 294.406 curveto
stroke
203.523 291.686 moveto
203.568 275.854 206 242.51 206.829 225.824 curveto
stroke
206.829 225.824 moveto
206 242.51 203.568 275.854 203.523 291.686 curveto
stroke
205.99 214.286 moveto
209.578 211.258 215.38 201.642 219.344 199.391 curveto
stroke
219.344 199.391 moveto
215.38 201.642 209.578 211.258 205.99 214.286 curveto
stroke
219.344 199.391 moveto
219.937 203.428 223.737 207.022 226.268 207.513 curveto
stroke
226.268 207.513 moveto
223.737 207.022 219.937 203.428 219.344 199.391 curveto
stroke
217.971 210.913 moveto
219.588 215.147 225.045 216.526 228.889 215.46 curveto
stroke
228.889 215.46 moveto
225.045 216.526 219.588 215.147 217.971 210.913 curveto
stroke
222.472 236.315 moveto
225.867 230.712 234.133 219.957 238.346 214.803 curveto
stroke
238.346 214.803 moveto
234.133 219.957 225.867 230.712 222.472 236.315 curveto
stroke
238.346 214.803 moveto
236.604 213.974 234.891 210.826 233.824 209.448 curveto
stroke
233.824 209.448 moveto
234.891 210.826 236.604 213.974 238.346 214.803 curveto
stroke
205.774 231.582 moveto
204.169 223.592 201.619 210.356 207.972 205.075 curveto
stroke
207.972 205.075 moveto
201.619 210.356 204.169 223.592 205.774 231.582 curveto
stroke
212.864 250.084 moveto
213.493 244.414 216.57 234.907 219.712 232.836 curveto
stroke
219.712 232.836 moveto
216.57 234.907 213.493 244.414 212.864 250.084 curveto
stroke
203.522 296.62 moveto
202.926 298.403 200.983 301.123 199.905 302.331 curveto
stroke
199.905 302.331 moveto
200.983 301.123 202.926 298.403 203.522 296.62 curveto
stroke
198.459 303.233 moveto
198.71 308.026 201.353 317.156 201.344 322.152 curveto
stroke
201.344 322.152 moveto
201.353 317.156 198.71 308.026 198.459 303.233 curveto
stroke
199.899 319.107 moveto
196.594 318.766 193.087 310.963 189.782 310.622 curveto
stroke
189.782 310.622 moveto
193.087 310.963 196.594 318.766 199.899 319.107 curveto
stroke
189.782 310.622 moveto
184.549 301.363 170.353 311.155 163.757 313.053 curveto
stroke
163.757 313.053 moveto
170.353 311.155 184.549 301.363 189.782 310.622 curveto
stroke
199.18 307.223 moveto
196.553 303.177 189.762 297.768 186.173 295.609 curveto
stroke
186.173 295.609 moveto
189.762 297.768 196.553 303.177 199.18 307.223 curveto
stroke
186.895 296.638 moveto
181.474 296.322 170.631 295.69 165.209 295.374 curveto
stroke
165.209 295.374 moveto
170.631 295.69 181.474 296.322 186.895 296.638 curveto
stroke
163.033 315.971 moveto
160.371 309.331 156.18 295.049 154.369 287.834 curveto
stroke
154.369 287.834 moveto
156.18 295.049 160.371 309.331 163.033 315.971 curveto
stroke
154.368 288.82 moveto
155.009 290.53 155.996 292.632 156.536 291.907 curveto
stroke
156.536 291.907 moveto
155.996 292.632 155.009 290.53 154.368 288.82 curveto
stroke
156.536 291.907 moveto
157.38 293.804 159.67 296.747 160.871 298.081 curveto
stroke
160.871 298.081 moveto
159.67 296.747 157.38 293.804 156.536 291.907 curveto
stroke
160.871 297.094 moveto
160.774 293.854 160.488 287.235 161.599 284.308 curveto
stroke
161.599 284.308 moveto
160.488 287.235 160.774 293.854 160.871 297.094 curveto
stroke
161.599 284.308 moveto
161.501 286.541 163.385 289.271 164.488 290.397 curveto
stroke
164.488 290.397 moveto
163.385 289.271 161.501 286.541 161.599 284.308 curveto
stroke
164.487 292.371 moveto
165.379 290.164 165.36 285.079 165.214 282.545 curveto
stroke
165.214 282.545 moveto
165.36 285.079 165.379 290.164 164.487 292.371 curveto
stroke
166.656 293.484 moveto
165.56 286.214 169.773 272.365 170.835 263.62 curveto
stroke
170.835 263.62 moveto
169.773 272.365 165.56 286.214 166.656 293.484 curveto
stroke
171.318 268.236 moveto
170.27 259.721 169.35 242.428 169.539 233.628 curveto
stroke
169.539 233.628 moveto
169.35 242.428 170.27 259.721 171.318 268.236 curveto
stroke
169.412 235.934 moveto
169.58 236.223 169.917 236.802 170.085 237.092 curveto
stroke
170.085 237.092 moveto
169.917 236.802 169.58 236.223 169.412 235.934 curveto
stroke
170.085 237.092 moveto
174.787 224.444 181.906 198.331 184.735 185.304 curveto
stroke
184.735 185.304 moveto
181.906 198.331 174.787 224.444 170.085 237.092 curveto
stroke
182.016 194.51 moveto
182.945 184.88 185.844 165.976 187.06 156.491 curveto
stroke
187.06 156.491 moveto
185.844 165.976 182.945 184.88 182.016 194.51 curveto
stroke
197.74 291.349 moveto
196.833 287.843 200.577 284.436 202.915 283.455 curveto
stroke
202.915 283.455 moveto
200.577 284.436 196.833 287.843 197.74 291.349 curveto
stroke
198.463 293.365 moveto
194.069 292.016 186.953 284.761 182.563 283.556 curveto
stroke
182.563 283.556 moveto
186.953 284.761 194.069 292.016 198.463 293.365 curveto
stroke
183.285 284.585 moveto
183.67 281.353 182.63 275.072 180.643 272.916 curveto
stroke
180.643 272.916 moveto
182.63 275.072 183.67 281.353 183.285 284.585 curveto
stroke
181.99 275.232 moveto
186.956 276.182 196.763 279.923 201.441 283.444 curveto
stroke
201.441 283.444 moveto
196.763 279.923 186.956 276.182 181.99 275.232 curveto
stroke
187.622 284.838 moveto
188.022 275.763 195.441 277.623 195.574 284.314 curveto
stroke
195.574 284.314 moveto
195.441 277.623 188.022 275.763 187.622 284.838 curveto
stroke
195.574 284.314 moveto
195.635 285.186 192.731 288.095 191.236 288.009 curveto
stroke
191.236 288.009 moveto
192.731 288.095 195.635 285.186 195.574 284.314 curveto
stroke
235.209 292.982 moveto
243.946 288.781 259.838 278.925 269.272 276.151 curveto
stroke
269.272 276.151 moveto
259.838 278.925 243.946 288.781 235.209 292.982 curveto
stroke
269.178 275.024 moveto
272.616 278.761 281.525 283.364 287.492 282.823 curveto
stroke
287.492 282.823 moveto
281.525 283.364 272.616 278.761 269.178 275.024 curveto
stroke
203.805 267.317 moveto
197.104 253.87 187.075 257.274 179.487 267.142 curveto
stroke
179.487 267.142 moveto
187.075 257.274 197.104 253.87 203.805 267.317 curveto
stroke
254.502 303.924 moveto
256.536 301.374 254.614 296.301 253.03 294.136 curveto
stroke
253.03 294.136 moveto
254.614 296.301 256.536 301.374 254.502 303.924 curveto
stroke
251.743 302.079 moveto
257.78 301.644 269.496 302.662 275.052 303.967 curveto
stroke
275.052 303.967 moveto
269.496 302.662 257.78 301.644 251.743 302.079 curveto
stroke
276.431 304.89 moveto
282.024 303.345 292.686 299.519 298.264 297.949 curveto
stroke
298.264 297.949 moveto
292.686 299.519 282.024 303.345 276.431 304.89 curveto
stroke
254.373 293.059 moveto
265.144 293.433 285.432 296.398 295.54 298.1 curveto
stroke
295.54 298.1 moveto
285.432 296.398 265.144 293.433 254.373 293.059 curveto
stroke
262.707 302.562 moveto
260.148 294.393 273.02 291.923 276.36 297.994 curveto
stroke
276.36 297.994 moveto
273.02 291.923 260.148 294.393 262.707 302.562 curveto
stroke
276.36 297.994 moveto
277.381 299.861 273.004 303.36 269.564 303.233 curveto
stroke
269.564 303.233 moveto
273.004 303.36 277.381 299.861 276.36 297.994 curveto
stroke
216.54 342.132 moveto
216.879 341.87 217.559 341.346 217.899 341.084 curveto
stroke
217.899 341.084 moveto
217.559 341.346 216.879 341.87 216.54 342.132 curveto
stroke
217.899 341.084 moveto
213.712 334.914 209.685 324.109 219.063 321.319 curveto
stroke
219.063 321.319 moveto
209.685 324.109 213.712 334.914 217.899 341.084 curveto
stroke
227.32 324.883 moveto
245.209 317.946 276.511 328.694 289.113 338.804 curveto
stroke
289.113 338.804 moveto
276.511 328.694 245.209 317.946 227.32 324.883 curveto
stroke
289.113 338.804 moveto
294.572 336.543 305.178 331.78 310.94 329.918 curveto
stroke
310.94 329.918 moveto
305.178 331.78 294.572 336.543 289.113 338.804 curveto
stroke
228.69 324.82 moveto
231.726 322.218 237.588 316.846 240.911 314.403 curveto
stroke
240.911 314.403 moveto
237.588 316.846 231.726 322.218 228.69 324.82 curveto
stroke
240.921 315.388 moveto
251.535 315.552 270.653 319.613 279.364 323.482 curveto
stroke
279.364 323.482 moveto
270.653 319.613 251.535 315.552 240.921 315.388 curveto
stroke
279.364 323.482 moveto
279.709 323.712 280.399 324.173 280.744 324.404 curveto
stroke
280.744 324.404 moveto
280.399 324.173 279.709 323.712 279.364 323.482 curveto
stroke
280.744 324.404 moveto
286.015 322.138 297.982 320.588 303.991 320.381 curveto
stroke
303.991 320.381 moveto
297.982 320.588 286.015 322.138 280.744 324.404 curveto
stroke
310.961 331.889 moveto
310.955 331.396 310.945 330.411 310.94 329.918 curveto
stroke
310.94 329.918 moveto
310.945 330.411 310.955 331.396 310.961 331.889 curveto
stroke
310.94 329.918 moveto
312.309 329.856 315.048 329.73 316.417 329.667 curveto
stroke
316.417 329.667 moveto
315.048 329.73 312.309 329.856 310.94 329.918 curveto
stroke
320.515 328.494 moveto
316.842 328.009 310.083 326.138 306.781 325.181 curveto
stroke
306.781 325.181 moveto
310.083 326.138 316.842 328.009 320.515 328.494 curveto
stroke
305.412 325.244 moveto
308.039 323.839 314.74 322.838 317.705 321.723 curveto
stroke
317.705 321.723 moveto
314.74 322.838 308.039 323.839 305.412 325.244 curveto
stroke
319.074 321.661 moveto
314.932 320.245 305.891 319.808 301.253 320.507 curveto
stroke
301.253 320.507 moveto
305.891 319.808 314.932 320.245 319.074 321.661 curveto
stroke
301.263 321.492 moveto
303.619 319.889 308.613 316.882 310.787 315.142 curveto
stroke
310.787 315.142 moveto
308.613 316.882 303.619 319.889 301.263 321.492 curveto
stroke
288.929 321.072 moveto
295.012 320.382 304.088 315.114 309.397 313.234 curveto
stroke
309.397 313.234 moveto
304.088 315.114 295.012 320.382 288.929 321.072 curveto
stroke
321.618 302.818 moveto
327.462 305.58 335.428 313.835 340.942 316.716 curveto
stroke
340.942 316.716 moveto
335.428 313.835 327.462 305.58 321.618 302.818 curveto
stroke
343.681 316.59 moveto
370.469 312.112 361.1 293.946 346.057 284.425 curveto
stroke
346.057 284.425 moveto
361.1 293.946 370.469 312.112 343.681 316.59 curveto
stroke
349.041 287.62 moveto
356.463 271.431 333.86 255.979 329.169 244.78 curveto
stroke
329.169 244.78 moveto
333.86 255.979 356.463 271.431 349.041 287.62 curveto
stroke
336.768 254.456 moveto
337.148 245.969 332.631 229.277 333.953 220.637 curveto
stroke
333.953 220.637 moveto
332.631 229.277 337.148 245.969 336.768 254.456 curveto
stroke
333.953 220.637 moveto
326.955 220.869 315.923 227.164 310.291 230.217 curveto
stroke
310.291 230.217 moveto
315.923 227.164 326.955 220.869 333.953 220.637 curveto
stroke
311.511 244.872 moveto
313.823 240.209 313.598 230.407 312.618 225.52 curveto
stroke
312.618 225.52 moveto
313.598 230.407 313.823 240.209 311.511 244.872 curveto
stroke
312.899 228.902 moveto
312.274 215.501 319.399 189.967 329.13 179.019 curveto
stroke
329.13 179.019 moveto
319.399 189.967 312.274 215.501 312.899 228.902 curveto
stroke
330.481 178.926 moveto
324.062 168.841 302.47 156.805 291.469 151.021 curveto
stroke
291.469 151.021 moveto
302.47 156.805 324.062 168.841 330.481 178.926 curveto
stroke
234.012 211.703 moveto
238.311 200.072 265.623 184.851 272.892 172.72 curveto
stroke
272.892 172.72 moveto
265.623 184.851 238.311 200.072 234.012 211.703 curveto
stroke
270.753 179.672 moveto
278.039 174.347 291.649 162.596 300.232 158.349 curveto
stroke
300.232 158.349 moveto
291.649 162.596 278.039 174.347 270.753 179.672 curveto
stroke
210.12 206.244 moveto
208.975 189.004 193.291 166.719 187.251 153.033 curveto
stroke
187.251 153.033 moveto
193.291 166.719 208.975 189.004 210.12 206.244 curveto
stroke
187.924 154.191 moveto
185.571 144.235 185.994 123.903 188.674 113.835 curveto
stroke
188.674 113.835 moveto
185.994 123.903 185.571 144.235 187.924 154.191 curveto
stroke
189.83 119.609 moveto
190.853 101.489 182.003 70.2463 180.187 53.8086 curveto
stroke
180.187 53.8086 moveto
182.003 70.2463 190.853 101.489 189.83 119.609 curveto
stroke
182.207 57.2827 moveto
177.69 48.2121 163.548 38.976 161.015 27.1475 curveto
stroke
161.015 27.1475 moveto
163.548 38.976 177.69 48.2121 182.207 57.2827 curveto
stroke
161.269 22.5366 moveto
162.276 30.1772 170.433 35.9716 174.381 38.7755 curveto
stroke
174.381 38.7755 moveto
170.433 35.9716 162.276 30.1772 161.269 22.5366 curveto
stroke
174.381 38.7755 moveto
170.596 33.195 165.104 19.7456 163.315 12.1727 curveto
stroke
163.315 12.1727 moveto
165.104 19.7456 170.596 33.195 174.381 38.7755 curveto
stroke
163.988 13.3307 moveto
172.246 16.5352 187.746 27.8181 194.468 35.4604 curveto
stroke
194.468 35.4604 moveto
187.746 27.8181 172.246 16.5352 163.988 13.3307 curveto
stroke
197.352 36.6343 moveto
194.6 32.5286 191.966 21.6076 191.126 15.8323 curveto
stroke
191.126 15.8323 moveto
191.966 21.6076 194.6 32.5286 197.352 36.6343 curveto
stroke
192.537 16.9956 moveto
192.707 19.4408 193.461 19.9051 193.883 19.3117 curveto
stroke
193.883 19.3117 moveto
193.461 19.9051 192.707 19.4408 192.537 16.9956 curveto
stroke
193.883 19.3117 moveto
199.833 30.1648 216.053 44.5272 221.326 56.4109 curveto
stroke
221.326 56.4109 moveto
216.053 44.5272 199.833 30.1648 193.883 19.3117 curveto
stroke
220.653 55.2528 moveto
229.71 85.6356 267.273 133.103 295.897 155.249 curveto
stroke
295.897 155.249 moveto
267.273 133.103 229.71 85.6356 220.653 55.2528 curveto
stroke
218.569 186.7 moveto
226.505 189.084 247.496 178.002 262.083 173.471 curveto
stroke
262.083 173.471 moveto
247.496 178.002 226.505 189.084 218.569 186.7 curveto
stroke
218.632 185.548 moveto
217.576 184.299 215.823 181.224 216.066 178.61 curveto
stroke
216.066 178.61 moveto
215.823 181.224 217.576 184.299 218.632 185.548 curveto
stroke
216.066 178.61 moveto
214.53 178.122 214.304 176.9 214.719 176.294 curveto
stroke
214.719 176.294 moveto
214.304 176.9 214.53 178.122 216.066 178.61 curveto
stroke
214.719 176.294 moveto
212.348 170.97 206.282 162.539 202.344 160.061 curveto
stroke
202.344 160.061 moveto
206.282 162.539 212.348 170.97 214.719 176.294 curveto
stroke
203.081 160.066 moveto
206.58 159.011 212.711 153.773 216.053 152.087 curveto
stroke
216.053 152.087 moveto
212.711 153.773 206.58 159.011 203.081 160.066 curveto
stroke
220.195 170.568 moveto
223.29 173.197 230.502 173.454 234.005 174.126 curveto
stroke
234.005 174.126 moveto
230.502 173.454 223.29 173.197 220.195 170.568 curveto
stroke
223.079 171.742 moveto
224.709 164.927 219.467 155.168 217.654 149.792 curveto
stroke
217.654 149.792 moveto
219.467 155.168 224.709 164.927 223.079 171.742 curveto
stroke
229.584 174.095 moveto
230.075 169.174 232.518 158.791 235.695 156.841 curveto
stroke
235.695 156.841 moveto
232.518 158.791 230.075 169.174 229.584 174.095 curveto
stroke
235.022 155.683 moveto
240.084 158.317 257.964 164.057 261.989 172.343 curveto
stroke
261.989 172.343 moveto
257.964 164.057 240.084 158.317 235.022 155.683 curveto
stroke
162.309 318.889 moveto
162.49 318.653 162.851 318.181 163.032 317.945 curveto
stroke
163.032 317.945 moveto
162.851 318.181 162.49 318.653 162.309 318.889 curveto
stroke
163.032 317.945 moveto
162.398 330.524 161.661 355.584 161.568 368.19 curveto
stroke
161.568 368.19 moveto
161.661 355.584 162.398 330.524 163.032 317.945 curveto
stroke
161.569 367.203 moveto
164.745 400.021 193.638 435.487 225.727 435.343 curveto
stroke
225.727 435.343 moveto
193.638 435.487 164.745 400.021 161.569 367.203 curveto
stroke
222.989 435.468 moveto
292.121 432.869 366.648 393.024 350.783 340.904 curveto
stroke
350.783 340.904 moveto
366.648 393.024 292.121 432.869 222.989 435.468 curveto
stroke
350.783 340.904 moveto
349.312 336.07 353.421 321.637 353.256 315.165 curveto
stroke
353.256 315.165 moveto
353.421 321.637 349.312 336.07 350.783 340.904 curveto
stroke
333.071 226.367 moveto
336.24 198.68 351.191 145.883 363.713 121.06 curveto
stroke
363.713 121.06 moveto
351.191 145.883 336.24 198.68 333.071 226.367 curveto
stroke
294.959 374.018 moveto
294.784 363.228 306.661 343.241 313.72 333.733 curveto
stroke
313.72 333.733 moveto
306.661 343.241 294.784 363.228 294.959 374.018 curveto
stroke
205.681 321.418 moveto
207.266 319.679 207.023 314.062 207.853 311.676 curveto
stroke
207.853 311.676 moveto
207.023 314.062 207.266 319.679 205.681 321.418 curveto
stroke
304.322 142.191 moveto
302.779 131.843 294.196 111.982 292.744 101.043 curveto
stroke
292.744 101.043 moveto
294.196 111.982 302.779 131.843 304.322 142.191 curveto
stroke
349.097 310.428 moveto
338.703 306.562 316.703 293.377 326.955 283.484 curveto
stroke
326.955 283.484 moveto
316.703 293.377 338.703 306.562 349.097 310.428 curveto
stroke
347.717 309.506 moveto
354.705 310.354 355.041 305.863 354.502 304.248 curveto
stroke
354.502 304.248 moveto
355.041 305.863 354.705 310.354 347.717 309.506 curveto
stroke
333.952 303.238 moveto
340.002 301.579 342.084 292.557 342.286 288.089 curveto
stroke
342.286 288.089 moveto
342.084 292.557 340.002 301.579 333.952 303.238 curveto
stroke
320.8 274.841 moveto
332.467 269.579 323.973 260.463 317.76 254.643 curveto
stroke
317.76 254.643 moveto
323.973 260.463 332.467 269.579 320.8 274.841 curveto
stroke
319.111 254.549 moveto
329.034 246.633 333.651 262.684 337.895 267.984 curveto
stroke
337.895 267.984 moveto
333.651 262.684 329.034 246.633 319.111 254.549 curveto
stroke
194.123 300.02 moveto
195.17 300.33 196.597 299.245 197.015 298.215 curveto
stroke
197.015 298.215 moveto
196.597 299.245 195.17 300.33 194.123 300.02 curveto
stroke
197.737 300.23 moveto
193.451 299.117 186.9 291.808 184.007 287.588 curveto
stroke
184.007 287.588 moveto
186.9 291.808 193.451 299.117 197.737 300.23 curveto
stroke
247.676 306.208 moveto
248.93 307.761 251.549 310.956 251.855 312.916 curveto
stroke
251.855 312.916 moveto
251.549 310.956 248.93 307.761 247.676 306.208 curveto
stroke
244.978 310.274 moveto
251.371 313.997 267.099 315.474 275.164 314.804 curveto
stroke
275.164 314.804 moveto
267.099 315.474 251.371 313.997 244.978 310.274 curveto
stroke
177.504 279.314 moveto
175.545 279.632 174.04 277.16 173.168 276.1 curveto
stroke
173.168 276.1 moveto
174.04 277.16 175.545 279.632 177.504 279.314 curveto
stroke
295.581 302.04 moveto
297.824 302.693 302.619 303.51 305.187 303.571 curveto
stroke
305.187 303.571 moveto
302.619 303.51 297.824 302.693 295.581 302.04 curveto
stroke
298.901 272.96 moveto
294.039 264.269 282.537 248.02 278.428 239.232 curveto
stroke
278.428 239.232 moveto
282.537 248.02 294.039 264.269 298.901 272.96 curveto
stroke
280.061 242.52 moveto
277.276 233.462 273.621 214.922 271.56 205.694 curveto
stroke
271.56 205.694 moveto
273.621 214.922 277.276 233.462 280.061 242.52 curveto
stroke
309.991 275.591 moveto
304.814 274.65 300.166 267.562 298.151 263.941 curveto
stroke
298.151 263.941 moveto
300.166 267.562 304.814 274.65 309.991 275.591 curveto
stroke
0 0 0 setrgbcolor
220 291 moveto
219.586 293.119 218.528 293.517 218 293 curveto
216.196 294.473 211.804 294.473 210 293 curveto
stroke
211 295 moveto
194.994 281.414 209.614 245.914 204 230 curveto
stroke
207 233 moveto
206.096 227.405 202.745 216.639 202 211 curveto
stroke
201 212 moveto
206.833 209.616 218.008 203.455 224 201 curveto
stroke
222 210 moveto
225.712 212.833 234.732 212.711 239 213 curveto
stroke
238 210 moveto
243.199 216.969 238.771 224.237 231 223 curveto
stroke
220 240 moveto
220.87 236.752 220.372 229.62 223 227 curveto
stroke
220 192 moveto
230.576 185.911 254.772 179.918 267 176 curveto
stroke
222 193 moveto
215.704 188.125 215.699 174.028 213 168 curveto
stroke
210 169 moveto
215.588 167.716 221.089 159.284 222 154 curveto
stroke
220 175 moveto
226.556 174.575 239.492 176.491 246 177 curveto
stroke
224 172 moveto
225.848 168.056 224.876 159.846 223 156 curveto
stroke
236 177 moveto
236.638 172.16 239.884 163.215 242 159 curveto
stroke
241 162 moveto
250.012 161.136 262.27 171.237 268 177 curveto
stroke
211 207 moveto
202.976 189.522 189.806 154.817 203 140 curveto
stroke
235 213 moveto
243.871 200.757 270.246 188.18 277 175 curveto
stroke
274 180 moveto
280.364 174.059 295.435 165.305 303 161 curveto
stroke
311 242 moveto
303.728 224.802 318.183 193.809 328 180 curveto
stroke
329 179 moveto
322.945 173.287 309.485 163.748 302 160 curveto
stroke
302 163 moveto
273.101 140.171 243.02 88.1054 230 54 curveto
226.96 46.0366 206.523 28.8875 199 21 curveto
stroke
195 17 moveto
201.886 21.3683 208.648 35.1675 210 43 curveto
stroke
209 42 moveto
199.007 28.2979 171.618 9.72738 157 0 curveto
stroke
161 5 moveto
164.38 9.54717 171.944 18.1598 173 24 curveto
stroke
174 23 moveto
171.016 20.2348 164.826 14.9339 162 12 curveto
stroke
161 14 moveto
164.972 19.3366 170.024 31.3341 173 37 curveto
stroke
173 39 moveto
170.188 34.1554 164.249 24.5636 161 20 curveto
stroke
161 23 moveto
164.541 32.7874 176.505 50.0935 182 59 curveto
stroke
180 56 moveto
186.189 71.1132 192.165 103.266 193 120 curveto
stroke
200 146 moveto
194.278 141.023 186.817 129.591 191 122 curveto
stroke
183 264 moveto
185.26 257.898 183.87 245.863 182 240 curveto
stroke
183 243 moveto
176.277 225.613 200.971 203.651 196 190 curveto
stroke
194 202 moveto
194.727 193.514 196.746 176.282 199 168 curveto
stroke
185 264 moveto
178.176 269.839 177.297 282.761 177 290 curveto
stroke
199 309 moveto
197.294 308.966 194.706 307.034 193 307 curveto
192.88 303.449 186.112 300.876 186 297 curveto
stroke
191 300 moveto
186.758 295.503 175.748 295.507 170 295 curveto
stroke
199 317 moveto
187.384 311.819 176.058 303.403 165 314 curveto
stroke
166 316 moveto
164.6 310.367 163.302 298.803 163 293 curveto
stroke
164 291 moveto
164.5 291.5 165.5 292.5 166 293 curveto
stroke
168 292 moveto
168.707 288.459 170.944 281.67 171 278 curveto
172.685 278.901 173.48 282.15 173 284 curveto
stroke
175 288 moveto
174.84 288.953 175.278 290.563 176 291 curveto
175.913 288.852 174.087 285.148 174 283 curveto
stroke
180 274 moveto
184.923 274.524 193.998 278.367 198 281 curveto
stroke
179 279 moveto
179.357 279.842 180.324 281.379 181 282 curveto
stroke
180 282 moveto
183.898 283.908 191.099 288.74 194 292 curveto
194.25 291.75 194.75 291.25 195 291 curveto
stroke
194 291 moveto
195.789 288.996 198.659 284.31 201 283 curveto
stroke
186 283 moveto
186 281.5 186 278.5 186 277 curveto
196.632 273.289 197.426 288.965 189 288 curveto
188.759 287.972 188.274 287.226 188 287 curveto
stroke
181 281 moveto
181 280 181 278 181 277 curveto
stroke
201 326 moveto
203.025 320.74 200.605 310.17 199 305 curveto
202.297 304.66 206.115 300.177 208 298 curveto
stroke
207 317 moveto
208.37 314.52 211.012 309.576 212 307 curveto
stroke
221 347 moveto
221.25 347.25 221.75 347.75 222 348 curveto
221.057 342.422 218.123 331.533 217 326 curveto
stroke
217 329 moveto
218.927 326.184 224.256 321.614 225 318 curveto
stroke
242 314 moveto
254.65 315.818 277.766 322.676 288 329 curveto
stroke
287 328 moveto
286.75 327.75 286.25 327.25 286 327 curveto
292.71 326.509 303.52 317.998 310 316 curveto
stroke
243 316 moveto
243.25 315.75 243.75 315.25 244 315 curveto
240.972 316.187 235.25 319.478 232 320 curveto
stroke
233 321 moveto
249.414 322.4 277.285 335.968 288 351 curveto
stroke
289 349 moveto
296.275 344.095 312.13 336.238 319 331 curveto
stroke
292 389 moveto
295.761 377.417 297.16 353.2 309 345 curveto
stroke
320 328 moveto
317.185 326.782 310.815 327.218 308 326 curveto
stroke
308 326 moveto
308.25 326.25 308.75 326.75 309 327 curveto
312.409 326.23 318.516 323.291 321 321 curveto
stroke
320 321 moveto
317.976 321.367 313.896 322.762 313 322 curveto
312.194 323.209 309.806 323.209 309 322 curveto
310.855 320.098 314.145 315.902 316 314 curveto
stroke
315 316 moveto
312.919 315.781 308.781 315.905 307 317 curveto
stroke
250 302 moveto
250.437 302.722 252.047 303.16 253 303 curveto
252.616 300.698 251.191 296.351 251 294 curveto
stroke
248 302 moveto
255.28 299.73 270.11 301.761 277 305 curveto
stroke
276 304 moveto
280.39 303.068 287.919 298.56 292 297 curveto
stroke
263 301 moveto
260.551 295.17 267.996 293.984 272 295 curveto
stroke
272 302 moveto
277.065 301.463 277.705 295.929 274 294 curveto
stroke
250 294 moveto
260.842 296.165 282.881 296.083 294 297 curveto
stroke
236 292 moveto
249.155 294.917 261.784 272.966 274 273 curveto
273.452 274.868 275.247 276.589 277 276 curveto
278.323 279.676 284.256 284.61 288 286 curveto
stroke
298 279 moveto
294.317 270.589 287.444 253.511 283 245 curveto
stroke
283 248 moveto
282.783 237.416 278.498 216.939 275 207 curveto
stroke
309 232 moveto
313.568 226.783 325.82 222.239 332 223 curveto
stroke
330 224 moveto
335.192 228.81 336.986 242.378 338 249 curveto
stroke
333 249 moveto
332.75 248.75 332.25 248.25 332 248 curveto
341.787 255.353 349.564 275.309 348 287 curveto
stroke
349 285 moveto
361.532 301.921 364.715 322.082 337 318 curveto
stroke
336 316 moveto
336.25 316.25 336.75 316.75 337 317 curveto
331.71 314.166 325.874 304.15 322 300 curveto
stroke
353 309 moveto
341.198 311.556 329.213 296.379 325 287 curveto
stroke
324 290 moveto
323.404 287.154 324.149 281.718 327 280 curveto
stroke
338 302 moveto
338.5 302 339.5 302 340 302 curveto
340.523 299.647 342.798 295.5 343 293 curveto
stroke
321 278 moveto
330.04 273.009 328.426 262.597 322 256 curveto
322.25 255.75 322.75 255.25 323 255 curveto
stroke
324 256 moveto
331.703 254.288 337.219 264.841 339 271 curveto
stroke
167 314 moveto
167.996 331.422 162.869 365.26 165 382 curveto
stroke
163 378 moveto
171.114 404.44 206.618 437.061 235 434 curveto
stroke
236 434 moveto
269.337 428.034 334.202 418.93 347 382 curveto
stroke
345 385 moveto
357.416 363.029 359.303 314.931 357 290 curveto
stroke
357 295 moveto
356.619 281.353 347.051 256.331 344 243 curveto
stroke
344 244 moveto
338.349 237.695 344.531 228.755 348 224 curveto
stroke
349 227 moveto
347.195 222.572 341.764 214.845 339 211 curveto
stroke
341 215 moveto
341.324 187.936 356.596 137.061 367 113 curveto
stroke
314 154 moveto
311.881 153.586 311.483 152.528 312 152 curveto
302.359 141.619 292.856 115.693 295 101 curveto
stroke
186 269 moveto
189.738 267.979 196.737 264.729 199 266 curveto
stroke
199 266 moveto
200 267 202 269 203 270 curveto
stroke
187 286 moveto
187.612 282.541 184.643 276.219 190 277 curveto
stroke
191 288 moveto
193.537 288.269 196.269 285.537 196 283 curveto
stroke
348 376 moveto
351.109 364.115 358.855 338.926 355 325 curveto
stroke
357 337 moveto
355.827 326.545 358.304 304.842 359 294 curveto
stroke
360 305 moveto
355.024 289.972 346.96 258.624 345 242 curveto
stroke
347 248 moveto
343.621 243.482 341.712 233.204 344 228 curveto
stroke
220 189 moveto
216.563 184.244 210.259 174.123 209 168 curveto
209.25 168.25 209.75 168.75 210 169 curveto
stroke
218 184 moveto
215.672 180.476 211.828 172.895 210 169 curveto
stroke
214 168 moveto
214.991 163.952 219.628 158.595 222 156 curveto
stroke
225 172 moveto
223.503 167.482 220.697 158.367 219 154 curveto
stroke
224 166 moveto
224.25 163.195 223.626 157.712 223 155 curveto
stroke
254 310 moveto
254.25 310.25 254.75 310.75 255 311 curveto
252 310.618 248.173 306.587 246 305 curveto
stroke
249 311 moveto
256.019 311.675 269.98 313.52 277 313 curveto
stroke
199 300 moveto
195.659 297.505 188.461 293.356 186 290 curveto
stroke
196 300 moveto
195.75 299.75 195.25 299.25 195 299 curveto
195.813 298.021 197.801 296.477 199 296 curveto
stroke
311 274 moveto
307.455 271.559 299.937 267.096 297 264 curveto
stroke
207 40 moveto
193.172 34.6806 173.068 12.0428 160 5 curveto
stroke
