%!PS-Adobe-3.0 EPSF-3.0
%%BoundingBox: 122 -5 343 394.579
0 0 0 setrgbcolor
226 246 moveto
217.768 247.129 202.733 250.148 203 240 curveto
stroke
205 243 moveto
204.317 228.404 205.124 199.475 205 185 curveto
stroke
203 175 moveto
207.64 172.352 214.791 163.976 220 162 curveto
221.107 165.497 226.53 168.59 230 169 curveto
stroke
219 172 moveto
221.509 175.661 229.015 176.823 233 176 curveto
stroke
227 194 moveto
229.842 189.267 236.584 180.287 240 176 curveto
238.769 175.162 237.701 172.28 237 171 curveto
stroke
204 190 moveto
201.225 183.081 196.776 171.619 205 167 curveto
stroke
215 206 moveto
215.43 201.079 218.893 192.816 223 191 curveto
stroke
205 248 moveto
204.177 249.842 201.491 252.712 200 254 curveto
stroke
198 255 moveto
198.349 259.842 202.011 268.937 202 274 curveto
stroke
200 271 moveto
195.427 270.85 190.573 263.15 186 263 curveto
178.757 253.926 159.123 264.687 150 267 curveto
stroke
199 259 moveto
195.364 255.055 185.966 249.975 181 248 curveto
stroke
182 249 moveto
174.5 249 159.5 249 152 249 curveto
stroke
149 270 moveto
145.314 263.429 139.509 249.204 137 242 curveto
stroke
137 243 moveto
137.888 244.695 139.254 246.767 140 246 curveto
141.169 247.872 144.338 250.719 146 252 curveto
stroke
146 251 moveto
145.865 247.723 145.465 241.032 147 238 curveto
146.866 240.268 149.474 242.924 151 244 curveto
stroke
151 246 moveto
152.233 243.711 152.204 238.56 152 236 curveto
stroke
154 247 moveto
152.48 239.697 158.213 225.59 159 218 curveto
stroke
160 222 moveto
157.942 214.622 155.401 199.632 155 192 curveto
stroke
155 194 moveto
155.25 194.25 155.75 194.75 156 195 curveto
161.432 184.003 169.137 161.315 172 150 curveto
stroke
169 158 moveto
169.54 149.644 172.06 133.233 173 125 curveto
stroke
197 243 moveto
195.743 239.501 200.902 235.865 204 235 curveto
stroke
198 245 moveto
191.921 243.893 182.075 236.962 176 236 curveto
stroke
177 237 moveto
177.531 233.702 175.856 227.857 173 226 curveto
stroke
175 228 moveto
181.807 228.793 195.39 231.976 202 235 curveto
stroke
183 237 moveto
183.222 228.422 193.426 229.989 194 236 curveto
194.084 236.88 190.068 239.999 188 240 curveto
stroke
233 245 moveto
239.589 241.588 251.888 233.869 259 232 curveto
stroke
259 231 moveto
261.301 234.507 267.575 239.112 272 239 curveto
stroke
204 221 moveto
193.905 209.381 180.555 212.396 171 221 curveto
stroke
247 257 moveto
248.504 254.508 247.139 249.27 246 247 curveto
stroke
245 255 moveto
249.41 254.839 257.955 256.417 262 258 curveto
stroke
263 259 moveto
267.094 257.693 274.906 254.307 279 253 curveto
stroke
247 246 moveto
254.904 246.99 269.652 250.847 277 253 curveto
stroke
253 256 moveto
251.193 247.592 260.792 246.14 263 252 curveto
263.731 253.942 260.51 257.289 258 257 curveto
stroke
219 294 moveto
219.25 293.75 219.75 293.25 220 293 curveto
216.991 286.545 213.541 275.49 221 273 curveto
stroke
227 277 moveto
240.11 270.795 262.877 283.156 272 294 curveto
276.002 291.96 283.78 287.621 288 286 curveto
stroke
228 277 moveto
230.236 274.502 234.556 269.323 237 267 curveto
stroke
237 268 moveto
244.746 268.66 258.671 273.669 265 278 curveto
stroke
265 278 moveto
265.25 278.25 265.75 278.75 266 279 curveto
269.865 276.947 278.612 275.931 283 276 curveto
stroke
288 288 moveto
288 287.5 288 286.5 288 286 curveto
289 286 291 286 292 286 curveto
stroke
295 285 moveto
292.322 284.337 287.403 282.124 285 281 curveto
stroke
284 281 moveto
285.928 279.697 290.828 278.993 293 278 curveto
stroke
294 278 moveto
290.987 276.371 284.391 275.507 281 276 curveto
stroke
281 277 moveto
282.732 275.484 286.4 272.665 288 271 curveto
stroke
272 276 moveto
276.446 275.583 283.11 270.66 287 269 curveto
stroke
296 259 moveto
300.245 262.075 305.997 270.82 310 274 curveto
stroke
312 274 moveto
331.588 270.703 325.487 253.318 315 244 curveto
stroke
317 247 moveto
323.453 233.177 307.767 218.164 305 208 curveto
stroke
310 217 moveto
310.799 209.538 308.498 194.539 310 187 curveto
304.836 186.776 296.332 191.653 292 194 curveto
stroke
292 207 moveto
293.987 203.029 294.422 194.37 294 190 curveto
stroke
294 193 moveto
294.361 181.143 301.168 159.06 309 150 curveto
stroke
310 150 moveto
305.894 140.713 290.742 128.775 283 123 curveto
stroke
237 173 moveto
240.877 163.006 261.908 151.254 268 141 curveto
stroke
266 147 moveto
271.688 142.75 282.424 133.22 289 130 curveto
stroke
208 168 moveto
205.159 153.057 182.217 133.831 173 122 curveto
stroke
174 123 moveto
170.064 114.381 169.117 96.7472 172 88 curveto
stroke
174 93 moveto
174.033 77.2802 159.692 50.2429 156 36 curveto
stroke
159 39 moveto
152.195 31.1625 132.321 23.2414 128 13 curveto
stroke
128 9 moveto
129.938 15.6193 141.435 20.5932 147 23 curveto
stroke
147 23 moveto
141.448 18.1844 132.994 6.55578 130 0 curveto
stroke
131 1 moveto
142.441 3.7273 164.31 13.4148 174 20 curveto
stroke
178 21 moveto
173.96 17.4568 169.57 8.00293 168 3 curveto
stroke
170 4 moveto
170.414 6.11928 171.472 6.51724 172 6 curveto
180.882 15.3744 203.959 27.7278 212 38 curveto
stroke
211 37 moveto
225.558 63.2904 266.292 105.715 286 127 curveto
stroke
218 151 moveto
228.944 153.017 248.987 144.103 260 141 curveto
stroke
218 150 moveto
216.474 148.924 213.866 146.268 214 144 curveto
211.881 143.586 211.483 142.528 212 142 curveto
208.386 137.398 199.527 130.125 194 128 curveto
stroke
195 128 moveto
199.667 127.063 207.593 122.483 212 121 curveto
stroke
219 137 moveto
223.395 139.26 233.197 139.439 238 140 curveto
stroke
223 138 moveto
224.701 132.08 216.862 123.651 214 119 curveto
stroke
232 140 moveto
232.298 135.73 234.836 126.711 239 125 curveto
stroke
238 124 moveto
244.739 126.288 257.545 132.445 260 140 curveto
stroke
148 273 moveto
148.25 272.75 148.75 272.25 149 272 curveto
148.13 284.784 147.122 310.221 147 323 curveto
stroke
147 322 moveto
151.411 355.067 191.398 389.298 225 389 curveto
stroke
223 389 moveto
273.483 389.579 328.186 352.619 317 299 curveto
315.963 294.027 319.071 279.574 319 273 curveto
stroke
309 192 moveto
313.028 167.775 327.265 122.126 338 101 curveto
stroke
276 330 moveto
275.954 319.044 284.775 299.318 290 290 curveto
stroke
208 273 moveto
210.192 271.145 209.853 265.467 211 263 curveto
stroke
293 116 moveto
292.498 106.778 287.398 88.7369 287 79 curveto
stroke
316 268 moveto
308.443 263.594 292.85 250.098 301 242 curveto
stroke
315 267 moveto
320.094 268.186 320.373 263.645 320 262 curveto
stroke
305 260 moveto
309.493 258.758 311.578 250.928 312 247 curveto
stroke
297 234 moveto
305.908 230.074 300.216 221.514 296 216 curveto
stroke
297 216 moveto
304.787 209.627 307.202 224.065 310 229 curveto
stroke
192 252 moveto
193.449 252.252 195.422 251.069 196 250 curveto
stroke
197 252 moveto
191.07 251.125 182.004 244.106 178 240 curveto
stroke
242 259 moveto
242.904 260.634 244.791 263.997 245 266 curveto
stroke
240 263 moveto
244.639 267.074 256.108 269.305 262 269 curveto
stroke
169 232 moveto
166.29 232.439 164.207 230.022 163 229 curveto
stroke
277 257 moveto
278.632 257.767 282.127 258.818 284 259 curveto
stroke
281 231 moveto
277.954 223.037 270.485 208.003 268 200 curveto
stroke
269 203 moveto
267.505 194.84 265.951 178.265 265 170 curveto
stroke
289 234 moveto
285.248 232.853 282.262 226.317 281 223 curveto
stroke
182 241 moveto
183.156 239.626 183.989 236.023 183 235 curveto
183.509 233.437 184.792 230.381 187 231 curveto
stroke
188 241 moveto
193.686 242.398 195.978 236.007 193 232 curveto
stroke
227 189 moveto
227 189 227 189 227 189 curveto
stroke
227 191 moveto
230.783 187.989 237.857 181.538 240 177 curveto
stroke
239 177 moveto
239.317 173.637 235.71 169.4 233 168 curveto
stroke
127 13 moveto
131.087 15.8899 139.84 20.8505 145 21 curveto
stroke
146 22 moveto
143.309 19.1637 138.515 12.9869 136 10 curveto
stroke
130 2 moveto
133.05 5.20903 139.199 11.6143 143 14 curveto
stroke
133 1 moveto
138.84 7.30957 154.627 12.6596 163 14 curveto
stroke
147 3 moveto
152.684 11.0042 170.383 18.5884 178 24 curveto
stroke
316 332 moveto
317.362 322.993 316.133 304.902 314 296 curveto
stroke
318 303 moveto
315.787 295.64 316.642 280.758 320 274 curveto
stroke
226 139 moveto
220.232 136.298 219.236 124.008 215 120 curveto
stroke
219 147 moveto
212.381 145.796 206.841 133.714 202 131 curveto
stroke
202 131 moveto
202.286 122.814 203.305 126.338 203 126 curveto
206.83 126.331 213.356 123.48 216 121 curveto
stroke
200 129 moveto
203.601 126.281 210.909 121.168 214 118 curveto
stroke
