%!PS-Adobe-3.0 EPSF-3.0
%%BoundingBox: 126.636 -5 346.185 397.998
0 0 0 setrgbcolor
225.316 249.652 moveto
217.545 250.862 204.062 253.485 204.078 244.315 curveto
stroke
205.947 247.206 moveto
203.02 232.694 205.775 203.055 204.82 188.414 curveto
stroke
204.387 193.225 moveto
201.862 186.422 197.525 175.005 204.5 170.282 curveto
stroke
202.585 177.611 moveto
207.442 174.983 215.254 166.805 220.62 164.776 curveto
stroke
238.968 179.514 moveto
238.869 176.425 234.614 172.609 231.574 171.09 curveto
stroke
227.321 193.184 moveto
231.394 190.612 238.288 184.035 239.825 179.2 curveto
stroke
226.194 193.011 moveto
226.297 192.693 226.172 191.994 226.537 191.736 curveto
stroke
218.312 153.952 moveto
229.245 155.178 249.429 146.571 260.634 143.356 curveto
stroke
219.137 139.631 moveto
223.871 141.631 233.996 142.004 238.687 142.603 curveto
stroke
232.659 142.54 moveto
233.027 138.203 235.604 129.181 239.413 127.23 curveto
stroke
238.453 126.618 moveto
245.049 128.654 257.914 135.165 260.704 142.56 curveto
stroke
208.37 170.79 moveto
204.709 155.573 182.85 134.788 176.792 122.628 curveto
stroke
236.744 175.902 moveto
241.06 165.693 262.693 153.813 268.879 143.243 curveto
stroke
266.802 149.149 moveto
272.593 144.713 283.755 135.243 290.467 131.897 curveto
stroke
295.859 196.747 moveto
295.568 184.301 303.067 161.335 311.135 151.782 curveto
stroke
312.149 151.679 moveto
307.791 142.741 292.599 131.09 284.782 125.537 curveto
stroke
213.431 37.3666 moveto
227.985 64.4741 266.854 107.964 287.572 129.414 curveto
stroke
175.193 6.10836 moveto
183.957 15.3555 206.909 28.2025 214.288 38.2711 curveto
stroke
182.048 21.8201 moveto
178.329 17.8484 173.509 7.95199 171.145 3.00484 curveto
stroke
133.495 1.61135 moveto
136.542 4.79957 142.753 11.1086 146.475 13.5363 curveto
stroke
149.827 23.0467 moveto
144.59 18.1372 136.539 6.4483 133.376 0 curveto
stroke
131.638 8.72266 moveto
133.778 15.1526 144.608 20.5911 149.842 23.2427 curveto
stroke
161.561 39.6668 moveto
154.868 31.709 135.89 22.8497 131.636 12.6325 curveto
stroke
176.226 94.4599 moveto
176.107 78.6103 162.79 51.0149 158.676 36.6606 curveto
stroke
177.254 124.123 moveto
173.038 115.845 171.155 98.7884 174.253 90.1362 curveto
stroke
162.936 225.182 moveto
161.492 217.912 159.101 203.182 158.486 195.709 curveto
stroke
159.498 198.715 moveto
163.142 187.077 173.385 164.404 175.098 152.843 curveto
stroke
172.255 161.25 moveto
172.817 152.865 175.262 136.341 176.394 128.086 curveto
stroke
199.854 273.681 moveto
195.661 273.535 191.093 266.479 186.899 266.332 curveto
stroke
198.099 262.836 moveto
194.949 258.921 185.844 254.123 181.549 251.914 curveto
stroke
183.156 253.114 moveto
176.062 252.602 161.499 252.604 154.181 252.55 curveto
stroke
187.794 267.422 moveto
179.823 258.823 161.221 267.413 151.714 270.683 curveto
stroke
151.001 273.561 moveto
147.617 267.088 142.422 253.146 140.216 246.09 curveto
stroke
148.98 242.351 moveto
148.939 244.417 151.335 246.891 152.724 247.906 curveto
stroke
153.022 249.557 moveto
154.189 247.129 154.498 241.78 154.33 239.094 curveto
stroke
169.274 236.277 moveto
167.011 236.444 165.098 233.93 163.807 232.927 curveto
stroke
175.476 231.595 moveto
182.07 232.364 195.127 235.62 201.416 238.612 curveto
stroke
197.387 248.713 moveto
191.717 247.356 182.161 240.662 176.347 239.591 curveto
stroke
196.525 246.822 moveto
195.709 243.475 200.582 239.722 203.596 238.807 curveto
stroke
183.272 238.81 moveto
183.71 237.256 184.822 234.19 186.712 234.604 curveto
stroke
182.857 244.676 moveto
183.817 243.459 184.463 240.184 183.57 239.248 curveto
stroke
177.358 240.365 moveto
177.815 237.327 176.389 231.863 173.932 230.08 curveto
stroke
198.132 259.022 moveto
198.672 263.892 202.187 273.155 201.876 278.252 curveto
stroke
205.503 251.998 moveto
204.513 253.885 201.63 256.948 199.855 258.142 curveto
stroke
207.939 276.342 moveto
210.031 274.418 210.117 268.808 211.191 266.338 curveto
stroke
219.1 298.383 moveto
219.352 298.189 219.856 297.801 220.108 297.607 curveto
stroke
220.108 297.607 moveto
217.241 291.265 213.878 280.224 220.607 277.353 curveto
stroke
237.528 271.581 moveto
245.763 272.382 260.6 277.619 267.321 282.181 curveto
stroke
267.154 281.947 moveto
267.406 282.197 267.911 282.696 268.164 282.945 curveto
stroke
273.629 280.129 moveto
278.31 279.707 285.391 274.388 289.537 272.696 curveto
stroke
228.36 280.253 moveto
230.702 277.978 235.179 273.012 237.695 270.815 curveto
stroke
227.518 280.376 moveto
241.028 275.021 264.452 287.505 273.798 298.813 curveto
stroke
273.884 298.592 moveto
278.203 296.238 286.741 291.528 291.229 289.506 curveto
stroke
277.845 335.031 moveto
278.118 324.022 286.397 303.743 292.229 294.573 curveto
stroke
297.792 288.242 moveto
295.077 287.52 289.984 285.607 287.522 284.474 curveto
stroke
290.389 290.784 moveto
290.368 290.311 290.325 289.365 290.304 288.892 curveto
stroke
286.681 284.597 moveto
288.752 283.358 293.803 282.4 296.024 281.259 curveto
stroke
283.739 279.931 moveto
285.492 278.46 289.233 275.941 290.887 274.488 curveto
stroke
247.707 260.57 moveto
249.066 258.088 247.681 252.953 246.61 250.68 curveto
stroke
245.433 258.672 moveto
250.13 258.28 259.29 259.924 263.614 261.7 curveto
stroke
264.457 262.464 moveto
268.616 261.194 276.479 257.668 280.614 256.329 curveto
stroke
254.104 259.466 moveto
252.222 251.349 261.711 249.868 264.12 255.224 curveto
stroke
264.296 255.136 moveto
265.278 257.07 262.243 260.68 259.492 260.476 curveto
stroke
247.448 249.779 moveto
255.671 250.891 271.19 254.328 278.934 256.356 curveto
stroke
233.313 248.691 moveto
240.491 245.97 252.972 236.761 260.562 235.088 curveto
stroke
260.79 234.503 moveto
263.038 238.017 269.35 242.636 273.745 242.655 curveto
stroke
282.876 234.724 moveto
279.727 226.716 272.209 211.492 269.513 203.427 curveto
stroke
270.446 206.421 moveto
269.035 198.025 267.206 181.035 266.013 172.584 curveto
stroke
312.481 189.428 moveto
307.189 189.161 298.311 194.013 293.912 196.661 curveto
stroke
313.112 219.094 moveto
313.735 211.695 311.4 196.835 312.305 189.515 curveto
stroke
320.475 249.912 moveto
326.511 236.238 311.344 220.819 307.907 210.891 curveto
stroke
314.955 277.327 moveto
335.415 274.866 329.432 257.095 318.698 247.034 curveto
stroke
298.885 262.031 moveto
303.136 265.208 308.953 274.087 313.105 277.227 curveto
stroke
320.008 271.038 moveto
312.012 267.409 296.546 253.748 303.696 245.414 curveto
stroke
308.733 263.17 moveto
312.939 261.794 315.01 254.318 315.396 250.525 curveto
stroke
299.642 237.32 moveto
308.632 233.257 303.221 224.548 298.77 218.921 curveto
stroke
299.864 218.924 moveto
307.662 212.983 310.431 227.059 313.175 232.105 curveto
stroke
151.15 275.105 moveto
150.549 288.401 148.918 314.809 149.131 328.021 curveto
stroke
148.833 326.695 moveto
153.842 358.989 193.58 392.998 225.865 392.508 curveto
stroke
224.099 392.525 moveto
273.634 392.207 329.7 358.342 320.403 306.731 curveto
stroke
312.418 193.203 moveto
316.104 168.638 330.436 122.388 341.185 100.914 curveto
stroke
294.852 118.399 moveto
293.546 109 288.017 90.1476 287.83 79.9256 curveto
stroke
203.266 224.487 moveto
194.287 213.856 181.749 216.896 172.91 224.772 curveto
stroke
194.238 239.686 moveto
194.351 240.75 190.484 243.825 188.324 243.802 curveto
stroke
319.6 335.351 moveto
321.123 326.027 320.641 307.181 318.343 297.709 curveto
stroke
218.848 149.554 moveto
212.778 148.118 207.454 136.453 202.998 133.617 curveto
stroke
204.47 128.997 moveto
207.887 128.901 214.176 125.799 216.801 123.303 curveto
stroke
225.874 141.146 moveto
220.662 138.258 219.402 126.257 215.491 122.204 curveto
stroke
242.49 262.569 moveto
243.51 264.202 245.58 267.646 246.029 269.479 curveto
stroke
240.892 266.82 moveto
245.781 270.515 257.574 272.695 263.619 272.362 curveto
stroke
197.27 255.793 moveto
191.664 254.73 182.781 248.038 178.964 244.014 curveto
stroke
192.366 255.683 moveto
193.652 255.939 195.426 254.951 195.962 254.031 curveto
stroke
291.428 236.936 moveto
287.665 235.673 284.234 229.319 282.807 226.015 curveto
stroke
134.02 0.0231862 moveto
145.84 3.17666 167.759 14.1513 178.141 20.6219 curveto
stroke
