%!PS-Adobe-3.0 EPSF-3.0
%%BoundingBox: 130.279 -5 349.38 402.698
0 0 0 setrgbcolor
224.58 254.295 moveto
217.335 255.576 205.311 257.818 205.081 249.622 curveto
stroke
206.824 252.403 moveto
201.789 237.981 206.388 207.628 204.657 192.823 curveto
stroke
204.761 197.437 moveto
202.476 190.757 198.253 179.393 204.042 174.564 curveto
stroke
202.219 181.196 moveto
207.271 178.589 215.691 170.621 221.197 168.54 curveto
stroke
238.945 182.997 moveto
238.406 180.199 233.515 176.82 230.199 175.173 curveto
stroke
227.673 196.309 moveto
232.074 194.185 238.76 187.491 239.638 182.365 curveto
stroke
225.395 198.035 moveto
225.6 197.387 225.366 195.966 226.078 195.441 curveto
stroke
218.601 157.903 moveto
229.516 158.311 249.92 150.015 261.304 146.694 curveto
stroke
219.267 143.258 moveto
224.316 144.989 234.769 145.555 239.424 146.182 curveto
stroke
233.264 146.07 moveto
233.694 141.667 236.319 132.645 239.805 130.445 curveto
stroke
238.876 130.235 moveto
245.428 131.995 258.323 138.88 261.454 146.106 curveto
stroke
208.731 174.564 moveto
204.311 159.07 183.535 136.687 180.469 124.198 curveto
stroke
236.497 179.788 moveto
241.281 169.355 263.514 157.356 269.788 146.468 curveto
stroke
267.626 152.277 moveto
273.513 147.653 285.114 138.25 291.957 134.78 curveto
stroke
297.726 201.517 moveto
296.734 188.481 304.964 164.606 313.263 154.55 curveto
stroke
314.289 154.343 moveto
309.687 145.765 294.513 134.395 286.646 129.066 curveto
stroke
215.782 38.712 moveto
230.29 66.6494 267.464 111.205 289.195 132.822 curveto
stroke
178.337 7.2046 moveto
186.976 16.3149 209.762 29.6655 216.503 39.5171 curveto
stroke
185.973 23.6447 moveto
182.568 19.2323 177.36 8.88335 174.254 3.99567 curveto
stroke
137.006 2.19595 moveto
140.044 5.36093 146.303 11.5671 149.942 14.0369 curveto
stroke
152.67 24.0689 moveto
147.739 19.0655 140.087 7.32103 136.77 0.987202 curveto
stroke
135.284 9.41852 moveto
137.611 15.6493 147.786 21.5645 152.696 24.4674 curveto
stroke
164.121 41.3208 moveto
157.548 33.243 139.462 23.4193 135.279 13.233 curveto
stroke
178.423 96.9032 moveto
178.166 80.9281 165.85 52.7719 161.35 38.3099 curveto
stroke
180.416 126.202 moveto
175.94 118.281 173.175 101.83 176.471 93.2811 curveto
stroke
165.776 229.334 moveto
164.913 222.18 162.667 207.727 161.85 200.422 curveto
stroke
162.872 203.433 moveto
164.838 191.137 177.455 168.495 178.088 156.684 curveto
stroke
175.391 165.508 moveto
175.975 157.098 178.35 140.466 179.662 132.194 curveto
stroke
199.717 277.346 moveto
195.888 277.206 191.598 270.792 187.768 270.652 curveto
stroke
197.257 267.645 moveto
194.568 263.763 185.757 259.247 182.1 256.809 curveto
stroke
184.272 258.215 moveto
177.574 257.194 163.45 257.198 156.317 257.088 curveto
stroke
189.5 272.836 moveto
180.863 264.702 163.264 271.13 153.416 275.349 curveto
stroke
152.974 278.108 moveto
149.88 271.734 145.268 258.078 143.35 251.173 curveto
stroke
150.937 247.684 moveto
150.984 249.55 153.176 251.842 154.434 252.795 curveto
stroke
155.01 254.101 moveto
156.114 251.533 156.738 245.991 156.605 243.179 curveto
stroke
169.591 241.528 moveto
167.751 241.428 166.002 238.818 164.634 237.831 curveto
stroke
175.973 236.168 moveto
182.353 236.911 194.89 240.239 200.867 243.198 curveto
stroke
196.815 253.402 moveto
191.541 251.798 182.277 245.339 176.719 244.16 curveto
stroke
196.085 251.62 moveto
195.684 248.429 200.28 244.559 203.209 243.595 curveto
stroke
183.559 243.599 moveto
183.931 242.054 184.878 238.982 186.469 239.183 curveto
stroke
183.695 249.337 moveto
184.469 248.276 184.937 245.325 184.136 244.477 curveto
stroke
177.737 244.708 moveto
178.125 241.93 176.932 236.86 174.853 235.155 curveto
stroke
198.258 264.025 moveto
198.976 268.927 202.347 278.356 201.755 283.483 curveto
stroke
205.964 256.984 moveto
204.819 258.915 201.757 262.167 199.718 263.264 curveto
stroke
207.865 280.67 moveto
209.86 278.676 210.347 273.138 211.362 270.662 curveto
stroke
219.23 303.741 moveto
219.483 303.603 219.99 303.327 220.244 303.188 curveto
stroke
220.244 303.188 moveto
217.542 296.956 214.258 285.93 220.201 282.689 curveto
stroke
238.063 276.143 moveto
246.801 277.081 262.578 282.54 269.701 287.332 curveto
stroke
269.352 286.867 moveto
269.607 287.116 270.116 287.615 270.37 287.864 curveto
stroke
275.24 285.24 moveto
280.159 284.813 287.668 279.098 292.079 277.372 curveto
stroke
228.741 284.486 moveto
231.19 282.433 235.824 277.679 238.411 275.609 curveto
stroke
228.073 284.729 moveto
241.976 280.223 266.034 292.832 275.592 304.604 curveto
stroke
275.77 304.163 moveto
280.418 301.494 289.75 296.407 294.511 293.983 curveto
stroke
279.674 341.041 moveto
280.292 329.975 287.958 309.156 294.428 300.128 curveto
stroke
300.58 292.466 moveto
297.833 291.684 292.57 290.069 290.053 288.927 curveto
stroke
292.765 294.554 moveto
292.72 294.108 292.631 293.217 292.587 292.771 curveto
stroke
289.386 289.171 moveto
291.606 287.994 296.804 286.784 299.069 285.496 curveto
stroke
286.516 283.839 moveto
288.285 282.413 292.094 280.194 293.802 278.952 curveto
stroke
248.405 265.123 moveto
249.601 262.654 248.199 257.621 247.206 255.343 curveto
stroke
245.841 263.33 moveto
250.834 262.706 260.628 264.412 265.241 266.378 curveto
stroke
265.91 266.91 moveto
270.126 265.678 278.021 262.016 282.185 260.646 curveto
stroke
255.211 263.914 moveto
253.253 256.086 262.601 254.592 265.21 259.434 curveto
stroke
265.573 259.253 moveto
266.827 261.18 264.002 265.049 260.999 264.932 curveto
stroke
247.867 254.544 moveto
256.411 255.781 272.711 258.794 280.857 260.694 curveto
stroke
233.631 253.364 moveto
241.433 251.335 254.061 240.615 262.151 239.141 curveto
stroke
262.633 238.978 moveto
264.814 242.502 271.144 247.141 275.499 247.301 curveto
stroke
284.755 239.449 moveto
281.511 231.394 273.972 215.971 271.064 207.846 curveto
stroke
271.919 210.835 moveto
270.607 202.195 268.495 184.785 267.051 176.148 curveto
stroke
314.953 192.847 moveto
309.536 192.532 300.274 197.358 295.818 200.31 curveto
stroke
316.224 222.151 moveto
316.664 214.823 314.318 200.107 314.589 193.027 curveto
stroke
323.943 253.806 moveto
329.53 240.303 314.972 224.441 310.837 214.769 curveto
stroke
317.866 281.643 moveto
339.205 280.015 333.393 261.876 322.415 251.046 curveto
stroke
301.771 266.041 moveto
306.016 269.324 311.884 278.339 316.184 281.44 curveto
stroke
324.042 275.054 moveto
315.599 272.201 300.328 258.369 306.385 249.823 curveto
stroke
312.504 267.312 moveto
316.385 265.805 318.452 258.696 318.804 255.045 curveto
stroke
302.291 241.631 moveto
311.345 237.435 306.259 228.563 301.57 222.822 curveto
stroke
302.761 222.827 moveto
310.566 217.339 313.686 231.036 316.362 236.199 curveto
stroke
153.263 279.199 moveto
152.915 293.008 150.702 320.377 151.229 334.023 curveto
stroke
150.651 332.37 moveto
156.212 363.899 195.64 397.698 226.791 396.987 curveto
stroke
225.284 397.016 moveto
273.632 395.845 331.003 365.075 323.789 315.433 curveto
stroke
315.87 195.343 moveto
319.197 170.444 333.629 123.598 344.38 101.781 curveto
stroke
296.768 121.797 moveto
294.605 112.232 288.633 92.5528 288.675 81.8292 curveto
stroke
202.576 228.951 moveto
194.652 219.347 182.898 222.414 174.759 229.533 curveto
stroke
194.472 244.354 moveto
194.612 245.602 190.893 248.633 188.651 248.585 curveto
stroke
323.19 339.686 moveto
324.881 330.042 325.208 310.433 322.738 300.394 curveto
stroke
218.706 153.096 moveto
213.166 151.421 208.053 140.194 203.968 137.233 curveto
stroke
205.878 133.009 moveto
208.908 132.472 214.965 129.112 217.568 126.601 curveto
stroke
225.752 144.27 moveto
221.075 141.193 219.566 129.496 215.97 125.4 curveto
stroke
242.969 267.121 moveto
244.112 268.752 246.373 272.276 247.078 273.936 curveto
stroke
241.811 271.616 moveto
246.954 274.933 259.059 277.064 265.25 276.704 curveto
stroke
197.528 260.569 moveto
192.236 259.321 183.543 252.953 179.91 249.012 curveto
stroke
192.725 260.349 moveto
193.854 260.608 195.439 259.813 195.933 259.041 curveto
stroke
293.86 240.848 moveto
290.095 239.461 286.205 233.302 284.607 230.013 curveto
stroke
137.091 0 moveto
149.24 3.59299 171.147 15.8927 182.164 22.2423 curveto
stroke
