%!PS-Adobe-3.0 EPSF-3.0
%%BoundingBox: 133.93 -5 352.583 407.468
0 0 0 setrgbcolor
223.794 258.998 moveto
217.137 260.339 206.479 262.215 206.009 254.991 curveto
stroke
207.63 257.661 moveto
200.622 243.337 206.963 212.264 204.512 197.296 curveto
stroke
205.121 201.705 moveto
203.065 195.156 198.959 183.854 203.625 178.915 curveto
stroke
201.9 184.823 moveto
207.127 182.241 216.102 174.494 221.729 172.361 curveto
stroke
238.929 186.521 moveto
237.927 184.03 232.412 181.104 228.875 179.317 curveto
stroke
228.056 199.446 moveto
232.823 197.776 239.272 190.974 239.44 185.565 curveto
stroke
224.603 203.14 moveto
224.908 202.152 224.584 199.986 225.625 199.186 curveto
stroke
218.868 161.923 moveto
229.758 161.485 250.462 153.505 262.01 150.082 curveto
stroke
219.392 146.951 moveto
224.73 148.402 235.518 149.162 240.212 149.805 curveto
stroke
233.816 149.662 moveto
234.299 145.193 236.983 136.174 240.178 133.715 curveto
stroke
239.269 133.921 moveto
245.876 135.38 258.77 142.661 262.251 149.708 curveto
stroke
209.082 178.392 moveto
203.965 162.62 184.273 138.597 184.031 125.778 curveto
stroke
236.258 183.728 moveto
241.539 173.062 264.37 160.953 270.728 149.745 curveto
stroke
268.472 155.451 moveto
274.448 150.641 286.502 141.31 293.468 137.717 curveto
stroke
299.6 206.379 moveto
297.858 192.751 306.859 167.941 315.386 157.374 curveto
stroke
316.419 157.06 moveto
311.583 148.854 296.483 137.761 288.593 132.656 curveto
stroke
218.053 40.1059 moveto
232.474 68.886 268.123 114.51 290.87 136.295 curveto
stroke
181.433 8.3583 moveto
189.938 17.3224 212.515 31.1863 218.647 40.8077 curveto
stroke
189.774 25.5431 moveto
186.679 20.6782 181.124 9.86658 177.326 5.04206 curveto
stroke
140.531 2.82336 moveto
143.556 5.96267 149.847 12.0594 153.402 14.5713 curveto
stroke
155.528 25.1362 moveto
150.897 20.0386 143.636 8.24352 140.18 2.03116 curveto
stroke
138.937 10.1571 moveto
141.438 16.179 150.97 22.5831 155.561 25.7438 curveto
stroke
166.679 43.0315 moveto
160.236 34.8342 143.037 24.02 138.93 13.871 curveto
stroke
180.591 99.3993 moveto
180.21 83.303 168.871 54.5835 164.022 40.0175 curveto
stroke
183.487 128.307 moveto
178.772 120.76 175.177 104.941 178.653 96.5043 curveto
stroke
168.522 233.524 moveto
168.205 226.496 166.098 212.336 165.093 205.21 curveto
stroke
166.121 208.223 moveto
166.518 195.252 181.347 172.658 180.97 160.594 curveto
stroke
178.407 169.844 moveto
179.013 161.412 181.323 144.678 182.804 136.392 curveto
stroke
199.589 281.064 moveto
196.108 280.932 192.088 275.161 188.607 275.029 curveto
stroke
196.473 272.496 moveto
194.223 268.651 185.704 264.415 182.652 261.755 curveto
stroke
185.35 263.371 moveto
179.036 261.844 165.352 261.85 158.408 261.685 curveto
stroke
191.119 278.313 moveto
181.875 270.633 165.254 274.91 155.106 280.068 curveto
stroke
154.919 282.71 moveto
152.103 276.438 148.047 263.07 146.403 256.317 curveto
stroke
152.872 253.07 moveto
153 254.736 154.996 256.846 156.129 257.736 curveto
stroke
156.966 258.701 moveto
158.007 255.994 158.926 250.262 158.826 247.326 curveto
stroke
169.95 246.822 moveto
168.511 246.459 166.918 243.753 165.482 242.783 curveto
stroke
176.489 240.788 moveto
182.657 241.504 194.681 244.905 200.353 247.825 curveto
stroke
196.286 258.136 moveto
191.394 256.287 182.422 250.064 177.115 248.778 curveto
stroke
195.681 256.463 moveto
195.67 253.432 199.995 249.445 202.841 248.431 curveto
stroke
183.862 248.437 moveto
184.17 246.9 184.961 243.826 186.27 243.807 curveto
stroke
184.512 254.052 moveto
185.111 253.145 185.412 250.517 184.699 249.756 curveto
stroke
178.138 249.101 moveto
178.46 246.581 177.484 241.915 175.763 240.294 curveto
stroke
198.38 269.08 moveto
199.263 274.014 202.492 283.609 201.638 288.764 curveto
stroke
206.382 262.027 moveto
205.095 263.999 201.872 267.437 199.59 268.435 curveto
stroke
207.779 285.052 moveto
209.678 282.989 210.544 277.525 211.512 275.042 curveto
stroke
219.391 309.144 moveto
219.645 309.061 220.154 308.896 220.409 308.813 curveto
stroke
220.409 308.813 moveto
217.893 302.686 214.681 291.676 219.783 288.076 curveto
stroke
238.604 280.755 moveto
247.86 281.828 264.604 287.504 272.139 292.522 curveto
stroke
271.596 291.829 moveto
271.852 292.078 272.363 292.576 272.618 292.825 curveto
stroke
276.832 290.404 moveto
281.995 289.97 289.943 283.858 294.626 282.097 curveto
stroke
229.143 288.767 moveto
231.701 286.936 236.492 282.393 239.147 280.449 curveto
stroke
228.666 289.128 moveto
242.952 285.47 267.621 298.207 277.38 310.443 curveto
stroke
277.656 309.78 moveto
282.645 306.795 292.805 301.328 297.848 298.502 curveto
stroke
281.486 347.1 moveto
282.474 335.973 289.457 314.628 296.598 305.736 curveto
stroke
303.365 296.742 moveto
300.592 295.9 295.161 294.582 292.592 293.43 curveto
stroke
295.126 298.379 moveto
295.057 297.961 294.919 297.124 294.85 296.705 curveto
stroke
292.115 293.791 moveto
294.489 292.676 299.83 291.215 302.137 289.78 curveto
stroke
289.33 287.793 moveto
291.112 286.413 294.983 284.493 296.746 283.462 curveto
stroke
249.092 269.73 moveto
250.111 267.277 248.695 262.344 247.789 260.06 curveto
stroke
246.225 268.043 moveto
251.52 267.186 261.971 268.95 266.881 271.105 curveto
stroke
267.361 271.408 moveto
271.625 270.216 279.531 266.421 283.714 265.022 curveto
stroke
256.318 268.413 moveto
254.287 260.873 263.46 259.38 266.269 263.701 curveto
stroke
266.832 263.421 moveto
268.377 265.343 265.788 269.465 262.523 269.436 curveto
stroke
248.258 259.367 moveto
257.125 260.73 274.216 263.314 282.769 265.082 curveto
stroke
233.954 258.087 moveto
242.415 256.755 255.153 244.499 263.765 243.229 curveto
stroke
264.528 243.496 moveto
266.628 247.032 272.958 251.697 277.26 252.005 curveto
stroke
286.637 244.245 moveto
283.306 236.141 275.776 220.51 272.653 212.326 curveto
stroke
273.42 215.311 moveto
272.221 206.419 269.82 188.585 268.114 179.761 curveto
stroke
317.416 196.327 moveto
311.879 195.961 302.221 200.756 297.718 204.018 curveto
stroke
319.335 225.242 moveto
319.586 217.992 317.252 203.425 316.853 196.607 curveto
stroke
327.403 257.751 moveto
332.509 244.44 318.65 228.1 313.79 218.703 curveto
stroke
320.732 286.017 moveto
342.959 285.217 337.368 266.731 326.153 255.107 curveto
stroke
304.658 270.1 moveto
308.885 273.494 314.79 282.647 319.236 285.709 curveto
stroke
328.101 279.118 moveto
319.203 277.039 304.196 263.032 309.067 254.296 curveto
stroke
316.315 271.497 moveto
319.832 269.861 321.903 263.133 322.225 259.629 curveto
stroke
304.945 246.002 moveto
314.048 241.678 309.329 232.628 304.399 226.771 curveto
stroke
305.693 226.777 moveto
313.498 221.764 316.969 235.064 319.561 240.351 curveto
stroke
155.338 283.351 moveto
155.229 297.674 152.475 325.995 153.294 340.078 curveto
stroke
152.456 338.095 moveto
158.522 368.869 197.577 402.468 227.779 401.507 curveto
stroke
226.555 401.545 moveto
273.477 399.561 332.095 371.887 327.158 324.176 curveto
stroke
319.356 197.488 moveto
322.308 172.262 336.845 124.825 347.583 102.671 curveto
stroke
298.749 125.262 moveto
295.677 115.545 289.246 95.0219 289.535 83.7804 curveto
stroke
201.931 233.461 moveto
195 224.926 184.005 228.019 176.547 234.351 curveto
stroke
194.702 249.074 moveto
194.866 250.507 191.293 253.494 188.98 253.418 curveto
stroke
326.768 344.072 moveto
328.636 334.11 329.835 313.729 327.187 303.126 curveto
stroke
218.575 156.694 moveto
213.547 154.775 208.637 144.007 204.912 140.919 curveto
stroke
207.224 137.107 moveto
209.89 136.113 215.724 132.489 218.302 129.963 curveto
stroke
225.634 147.442 moveto
221.471 144.172 219.73 132.795 216.437 128.658 curveto
stroke
243.436 271.727 moveto
244.708 273.355 247.168 276.956 248.148 278.442 curveto
stroke
242.757 276.459 moveto
248.157 279.397 260.562 281.482 266.893 281.095 curveto
stroke
197.774 265.398 moveto
192.788 263.967 184.29 257.922 180.837 254.063 curveto
stroke
193.075 265.067 moveto
194.056 265.329 195.459 264.724 195.914 264.1 curveto
stroke
296.296 244.804 moveto
292.537 243.287 288.173 237.334 286.4 234.065 curveto
stroke
140.212 0 moveto
152.641 4.04582 174.475 17.7085 186.068 23.9305 curveto
stroke
