%!PS-Adobe-3.0 EPSF-3.0
%%BoundingBox: 137.589 -5 355.796 412.285
0 0 0 setrgbcolor
222.956 263.739 moveto
216.95 265.129 207.567 266.654 206.861 260.397 curveto
stroke
208.367 262.957 moveto
199.521 248.738 207.5 216.94 204.384 201.81 curveto
stroke
205.467 206.006 moveto
203.63 199.596 199.644 188.363 203.25 183.313 curveto
stroke
201.63 188.47 moveto
207.01 185.915 216.485 178.402 222.217 176.216 curveto
stroke
238.921 190.06 moveto
237.433 187.894 231.304 185.436 227.602 183.501 curveto
stroke
228.469 202.569 moveto
233.642 201.364 239.825 194.462 239.23 188.776 curveto
stroke
223.818 208.304 moveto
224.221 206.965 223.824 204.031 225.175 202.948 curveto
stroke
219.113 165.989 moveto
229.969 164.677 251.055 157.018 262.752 153.499 curveto
stroke
219.509 150.687 moveto
225.113 151.848 236.242 152.801 241.05 153.45 curveto
stroke
234.314 153.291 moveto
234.843 148.758 237.596 139.745 240.531 137.017 curveto
stroke
239.632 137.653 moveto
246.392 138.787 259.256 146.485 263.093 153.342 curveto
stroke
209.425 182.25 moveto
203.67 166.199 185.064 140.496 187.479 127.346 curveto
stroke
236.027 187.698 moveto
241.835 176.791 265.262 164.581 271.698 153.05 curveto
stroke
269.339 158.649 moveto
275.397 153.651 287.919 144.401 295.002 140.685 curveto
stroke
301.481 211.31 moveto
298.941 197.09 308.752 171.316 317.503 160.231 curveto
stroke
318.54 159.807 moveto
313.478 151.987 298.51 141.165 290.622 136.285 curveto
stroke
220.244 41.5251 moveto
234.536 71.1606 268.831 117.854 292.596 139.809 curveto
stroke
184.482 9.54626 moveto
192.843 18.3546 215.169 32.7416 220.719 42.1197 curveto
stroke
193.453 27.4924 moveto
190.662 22.1629 184.802 10.8785 180.363 6.1208 curveto
stroke
144.072 3.4704 moveto
147.077 6.58158 153.387 12.5622 156.854 15.1162 curveto
stroke
158.401 26.2254 moveto
154.064 21.0335 147.187 9.19259 143.608 3.1087 curveto
stroke
142.596 10.9153 moveto
145.257 16.7185 154.159 23.6236 158.438 27.0487 curveto
stroke
169.236 44.7757 moveto
162.93 36.4593 146.614 24.6284 142.589 14.5233 curveto
stroke
182.731 101.925 moveto
182.24 85.7119 171.853 56.4266 166.691 41.7601 curveto
stroke
186.467 130.415 moveto
181.533 123.257 177.161 108.099 180.8 99.7826 curveto
stroke
171.172 237.73 moveto
171.369 230.835 169.396 216.987 168.214 210.048 curveto
stroke
169.246 213.063 moveto
168.182 199.399 185.062 176.87 183.745 164.549 curveto
stroke
181.304 174.234 moveto
181.931 165.784 184.181 148.954 185.819 140.658 curveto
stroke
199.469 284.812 moveto
196.322 284.691 192.563 279.561 189.415 279.44 curveto
stroke
195.748 277.366 moveto
193.912 273.561 185.686 269.604 183.206 266.728 curveto
stroke
186.389 268.561 moveto
180.448 266.531 167.206 266.538 160.453 266.316 curveto
stroke
192.651 283.829 moveto
182.861 276.592 167.189 278.728 156.784 284.817 curveto
stroke
156.836 287.344 moveto
154.286 281.175 150.758 268.099 149.373 261.501 curveto
stroke
154.784 258.485 moveto
154.988 259.953 156.797 261.88 157.81 262.707 curveto
stroke
158.888 263.335 moveto
159.869 260.488 161.061 254.57 160.992 251.51 curveto
stroke
170.352 252.135 moveto
169.291 251.514 167.847 248.714 166.351 247.758 curveto
stroke
177.024 245.431 moveto
182.983 246.118 194.499 249.592 199.874 252.473 curveto
stroke
195.8 262.892 moveto
191.274 260.801 182.596 254.812 177.535 253.42 curveto
stroke
195.313 261.33 moveto
195.665 258.461 199.728 254.357 202.49 253.294 curveto
stroke
184.18 253.3 moveto
184.428 251.771 185.069 248.699 186.115 248.452 curveto
stroke
185.31 258.799 moveto
185.743 258.043 185.888 255.735 185.258 255.062 curveto
stroke
178.561 253.52 moveto
178.82 251.256 178.046 247.006 176.662 245.475 curveto
stroke
198.496 274.163 moveto
199.532 279.132 202.62 288.891 201.524 294.072 curveto
stroke
206.757 267.104 moveto
205.34 269.115 201.974 272.736 199.47 273.631 curveto
stroke
207.68 289.465 moveto
209.486 287.332 210.706 281.947 211.643 279.454 curveto
stroke
219.582 314.567 moveto
219.837 314.54 220.347 314.486 220.602 314.459 curveto
stroke
220.602 314.459 moveto
218.294 308.433 215.147 297.441 219.351 293.492 curveto
stroke
239.153 285.395 moveto
248.94 286.599 266.677 292.486 274.636 297.729 curveto
stroke
273.884 296.81 moveto
274.141 297.059 274.653 297.556 274.909 297.805 curveto
stroke
278.406 295.597 moveto
283.816 295.155 292.214 288.646 297.177 286.849 curveto
stroke
229.566 293.075 moveto
232.235 291.464 237.183 287.131 239.904 285.314 curveto
stroke
229.295 293.55 moveto
243.956 290.738 269.216 303.606 279.163 316.307 curveto
stroke
279.544 315.423 moveto
284.885 312.121 295.908 306.267 301.238 303.039 curveto
stroke
283.28 353.185 moveto
284.666 341.993 290.895 320.135 298.738 311.374 curveto
stroke
306.146 301.046 moveto
303.352 300.144 297.757 299.121 295.139 297.96 curveto
stroke
297.473 302.236 moveto
297.378 301.845 297.188 301.064 297.092 300.673 curveto
stroke
294.869 298.435 moveto
297.402 297.38 302.881 295.669 305.226 294.089 curveto
stroke
292.181 291.77 moveto
293.973 290.436 297.901 288.816 299.717 287.994 curveto
stroke
249.769 274.367 moveto
250.594 271.932 249.168 267.099 248.358 264.808 curveto
stroke
246.583 272.788 moveto
252.189 271.698 263.318 273.517 268.535 275.858 curveto
stroke
268.808 275.935 moveto
273.113 274.783 281.009 270.859 285.201 269.431 curveto
stroke
257.428 272.941 moveto
255.324 265.688 264.29 264.21 267.299 268.001 curveto
stroke
268.073 267.616 moveto
269.928 269.535 267.6 273.905 264.062 273.966 curveto
stroke
248.62 264.222 moveto
257.811 265.714 275.703 267.865 284.669 269.499 curveto
stroke
234.282 262.837 moveto
243.438 262.205 256.249 248.391 265.406 247.328 curveto
stroke
266.475 248.033 moveto
268.481 251.585 274.792 256.281 279.03 256.747 curveto
stroke
288.523 249.086 moveto
285.113 240.934 277.62 225.085 274.281 216.844 curveto
stroke
274.948 219.828 moveto
273.876 210.674 271.179 192.411 269.2 183.401 curveto
stroke
319.869 199.844 moveto
314.216 199.423 304.152 204.185 299.613 207.76 curveto
stroke
322.447 228.343 moveto
322.503 221.178 320.202 206.766 319.096 200.229 curveto
stroke
330.855 261.723 moveto
335.449 248.627 322.38 231.774 316.767 222.67 curveto
stroke
323.554 290.427 moveto
346.676 290.451 341.358 271.636 329.911 259.193 curveto
stroke
307.546 274.185 moveto
311.744 277.694 317.672 286.987 322.262 290.01 curveto
stroke
332.187 283.205 moveto
322.825 281.9 308.15 267.712 311.741 258.811 curveto
stroke
320.165 275.7 moveto
323.279 273.938 325.362 267.606 325.657 264.255 curveto
stroke
307.606 250.409 moveto
316.74 245.962 312.431 236.721 307.259 230.745 curveto
stroke
308.659 230.752 moveto
316.46 226.236 320.277 239.122 322.771 244.538 curveto
stroke
157.375 287.539 moveto
157.489 302.376 154.236 331.64 155.327 346.16 curveto
stroke
154.248 343.846 moveto
160.771 373.875 199.391 407.285 228.829 406.045 curveto
stroke
227.913 406.087 moveto
273.169 403.334 332.975 378.754 330.509 332.937 curveto
stroke
322.877 199.616 moveto
325.435 174.069 340.082 126.046 350.796 103.561 curveto
stroke
300.795 128.773 moveto
296.761 118.915 289.855 97.5319 290.409 85.756 curveto
stroke
201.331 237.993 moveto
195.331 230.567 185.069 233.687 178.274 239.205 curveto
stroke
194.928 253.823 moveto
195.115 255.44 191.686 258.384 189.311 258.28 curveto
stroke
330.334 348.487 moveto
332.389 338.206 334.522 317.044 331.69 305.88 curveto
stroke
218.453 160.327 moveto
213.921 158.157 209.205 147.867 205.828 144.65 curveto
stroke
208.508 141.268 moveto
210.834 139.801 216.452 135.906 219.003 133.366 curveto
stroke
225.519 150.64 moveto
221.851 147.171 219.893 136.131 216.893 131.953 curveto
stroke
243.892 276.364 moveto
245.298 277.988 247.966 281.664 249.238 282.972 curveto
stroke
243.73 281.325 moveto
249.391 283.885 262.085 285.925 268.548 285.513 curveto
stroke
198.008 270.257 moveto
193.319 268.644 185.022 262.92 181.745 259.144 curveto
stroke
193.416 269.816 moveto
194.257 270.078 195.488 269.662 195.904 269.186 curveto
stroke
298.736 248.782 moveto
294.992 247.129 290.139 241.394 288.185 238.146 curveto
stroke
143.384 0 moveto
156.043 4.51199 177.742 19.5757 189.854 25.6635 curveto
stroke
