%!PS-Adobe-3.0 EPSF-3.0
%%BoundingBox: 141.255 -5 359.019 417.147
0 0 0 setrgbcolor
222.067 268.517 moveto
216.776 269.945 208.575 271.135 207.639 265.842 curveto
stroke
209.034 268.29 moveto
198.485 254.184 207.999 221.655 204.273 206.366 curveto
stroke
205.801 210.339 moveto
204.171 204.076 200.307 192.921 202.917 187.758 curveto
stroke
201.407 192.137 moveto
206.92 189.611 216.843 182.344 222.662 180.105 curveto
stroke
238.921 193.615 moveto
236.924 191.791 230.193 189.818 226.38 187.723 curveto
stroke
228.914 205.68 moveto
234.529 204.947 240.418 197.954 239.007 191.998 curveto
stroke
223.04 213.526 moveto
223.54 211.827 223.088 208.1 224.731 206.726 curveto
stroke
219.335 170.1 moveto
230.15 167.888 251.698 160.553 263.53 156.943 curveto
stroke
219.62 154.464 moveto
225.464 155.328 236.942 156.474 241.939 157.117 curveto
stroke
234.759 156.958 moveto
235.325 152.361 238.157 143.356 240.865 140.35 curveto
stroke
239.965 141.431 moveto
246.978 142.214 259.781 150.35 263.982 157.009 curveto
stroke
209.758 186.139 moveto
203.428 169.806 185.907 142.384 190.812 128.902 curveto
stroke
235.805 191.698 moveto
242.168 180.541 266.188 168.24 272.698 156.383 curveto
stroke
270.228 161.871 moveto
276.361 156.686 289.365 147.522 296.557 143.685 curveto
stroke
303.37 216.31 moveto
299.981 201.496 310.642 174.733 319.614 163.119 curveto
stroke
320.651 162.585 moveto
315.372 155.161 300.592 144.607 292.733 139.951 curveto
stroke
222.355 42.9695 moveto
236.476 73.4734 269.588 121.238 294.374 143.365 curveto
stroke
187.482 10.7685 moveto
195.692 19.4116 217.725 34.3314 222.719 43.453 curveto
stroke
197.009 29.4924 moveto
194.516 23.6863 188.392 11.9191 183.363 7.23191 curveto
stroke
147.627 4.13707 moveto
150.608 7.21768 156.922 13.0756 160.299 15.6718 curveto
stroke
161.29 27.3365 moveto
157.239 22.0501 150.74 10.1682 147.052 4.21981 curveto
stroke
146.263 11.6931 moveto
149.07 17.2679 157.354 24.6861 161.327 28.3821 curveto
stroke
171.791 46.5535 moveto
165.631 38.1183 150.194 25.2446 146.255 15.19 curveto
stroke
184.842 104.481 moveto
184.255 88.1547 174.797 58.3011 169.357 43.5379 curveto
stroke
189.356 132.526 moveto
184.224 125.773 179.128 111.304 182.911 103.116 curveto
stroke
173.728 241.953 moveto
174.404 235.2 172.559 221.679 171.214 214.937 curveto
stroke
172.246 217.951 moveto
169.832 203.578 188.599 181.129 186.412 168.549 curveto
stroke
184.082 178.679 moveto
184.729 170.214 186.924 153.293 188.708 144.991 curveto
stroke
199.358 288.589 moveto
196.529 288.481 193.022 283.992 190.193 283.884 curveto
stroke
195.082 282.254 moveto
193.636 278.494 185.702 274.815 183.762 271.728 curveto
stroke
187.389 273.783 moveto
181.81 271.253 169.011 271.261 162.453 270.983 curveto
stroke
194.096 289.385 moveto
183.819 282.58 169.071 282.586 158.451 289.594 curveto
stroke
158.725 292.011 moveto
156.429 285.946 153.402 273.166 152.262 266.723 curveto
stroke
156.673 263.93 moveto
156.947 265.201 158.578 266.944 159.477 267.707 curveto
stroke
160.777 268.002 moveto
161.7 265.015 163.143 258.916 163.103 255.732 curveto
stroke
170.796 257.468 moveto
170.09 256.593 168.789 253.701 167.239 252.758 curveto
stroke
177.58 250.097 moveto
183.329 250.755 194.344 254.303 199.43 257.139 curveto
stroke
195.355 267.67 moveto
191.183 265.339 182.798 259.583 177.979 258.086 curveto
stroke
194.979 266.218 moveto
195.67 263.516 199.479 259.296 202.156 258.183 curveto
stroke
184.513 258.189 moveto
184.704 256.667 185.203 253.601 186.003 253.119 curveto
stroke
186.088 263.576 moveto
186.365 262.97 186.364 260.979 185.814 260.395 curveto
stroke
179.005 257.964 moveto
179.205 255.956 178.617 252.133 177.551 250.697 curveto
stroke
198.607 279.274 moveto
199.782 284.28 202.733 294.202 201.412 299.405 curveto
stroke
207.091 272.215 moveto
205.556 274.263 202.063 278.063 199.359 278.854 curveto
stroke
207.569 293.909 moveto
209.284 291.707 210.835 286.404 211.755 283.898 curveto
stroke
219.805 320.012 moveto
220.06 320.04 220.57 320.097 220.825 320.126 curveto
stroke
220.825 320.126 moveto
218.746 314.197 215.656 303.223 218.907 298.936 curveto
stroke
239.708 290.061 moveto
250.04 291.394 268.799 297.487 277.192 302.951 curveto
stroke
276.218 301.81 moveto
276.474 302.059 276.986 302.556 277.243 302.805 curveto
stroke
279.962 300.819 moveto
285.624 300.369 294.481 293.461 299.732 291.626 curveto
stroke
230.011 297.408 moveto
232.792 296.017 237.896 291.894 240.682 290.203 curveto
stroke
229.962 297.994 moveto
244.99 296.027 270.817 309.029 280.94 322.196 curveto
stroke
281.433 321.089 moveto
287.137 317.469 299.058 311.224 304.683 307.595 curveto
stroke
285.058 359.296 moveto
286.866 348.034 292.271 325.678 300.849 317.04 curveto
stroke
308.924 305.38 moveto
306.115 304.415 300.359 303.687 297.695 302.515 curveto
stroke
299.807 306.125 moveto
299.684 305.762 299.438 305.036 299.314 304.673 curveto
stroke
297.646 303.102 moveto
300.344 302.106 305.957 300.147 308.337 298.423 curveto
stroke
295.07 295.77 moveto
296.867 294.483 300.848 293.163 302.717 292.55 curveto
stroke
250.435 279.033 moveto
251.051 276.62 249.618 271.886 248.913 269.586 curveto
stroke
246.916 277.566 moveto
252.841 276.242 264.668 278.111 270.201 280.636 curveto
stroke
270.253 280.49 moveto
274.59 279.38 282.455 275.332 286.645 273.876 curveto
stroke
258.539 277.496 moveto
256.364 270.53 265.091 269.082 268.299 272.334 curveto
stroke
269.295 271.838 moveto
271.48 273.756 269.44 278.368 265.618 278.522 curveto
stroke
248.954 269.111 moveto
258.471 270.734 277.172 272.447 286.558 273.943 curveto
stroke
234.616 267.615 moveto
244.5 267.686 257.349 252.291 267.073 251.44 curveto
stroke
268.475 252.588 moveto
270.372 256.159 276.646 260.892 280.808 261.525 curveto
stroke
290.412 253.975 moveto
286.931 245.773 279.504 229.697 275.948 221.399 curveto
stroke
276.503 224.383 moveto
275.574 214.96 272.573 196.264 270.311 187.068 curveto
stroke
322.314 203.4 moveto
316.547 202.919 306.067 207.644 301.502 211.538 curveto
stroke
325.558 231.454 moveto
325.412 224.383 323.168 210.129 321.318 203.896 curveto
stroke
334.299 265.723 moveto
338.351 252.864 326.16 235.461 319.767 226.67 curveto
stroke
326.332 294.871 moveto
350.357 295.715 345.363 276.592 333.688 263.304 curveto
stroke
310.435 278.296 moveto
314.592 281.925 320.529 291.358 325.262 294.343 curveto
stroke
336.298 287.316 moveto
326.464 286.785 312.19 272.41 314.408 263.366 curveto
stroke
324.054 279.922 moveto
326.727 278.037 328.831 272.114 329.101 268.922 curveto
stroke
310.272 254.854 moveto
319.421 250.289 315.565 240.842 310.147 234.745 curveto
stroke
311.659 234.752 moveto
319.451 230.754 323.613 243.208 325.993 248.761 curveto
stroke
159.375 291.761 moveto
159.696 307.114 155.986 337.311 157.327 352.271 curveto
stroke
156.026 349.624 moveto
162.96 378.916 201.082 412.147 229.94 410.6 curveto
stroke
229.357 410.643 moveto
272.708 407.162 333.643 385.678 333.842 341.714 curveto
stroke
326.433 201.727 moveto
328.579 175.864 343.341 127.261 354.019 104.45 curveto
stroke
302.907 132.329 moveto
297.856 122.341 290.461 100.083 291.298 87.756 curveto
stroke
200.775 242.549 moveto
195.646 236.273 186.089 239.418 179.941 244.094 curveto
stroke
195.151 258.6 moveto
195.358 260.402 192.072 263.303 189.644 263.168 curveto
stroke
333.89 352.932 moveto
336.139 342.331 339.269 320.38 336.245 308.658 curveto
stroke
218.342 163.994 moveto
214.286 161.566 209.76 151.776 206.717 148.428 curveto
stroke
209.73 145.49 moveto
211.741 143.537 217.148 139.363 219.669 136.811 curveto
stroke
225.408 153.862 moveto
222.215 150.192 220.055 139.505 217.338 135.286 curveto
stroke
244.336 281.03 moveto
245.884 282.649 248.767 286.4 250.349 287.528 curveto
stroke
244.73 286.214 moveto
250.655 288.396 263.626 290.393 270.214 289.957 curveto
stroke
198.231 275.146 moveto
193.828 273.353 185.739 267.948 182.633 264.255 curveto
stroke
193.75 274.593 moveto
194.457 274.856 195.524 274.626 195.904 274.297 curveto
stroke
301.181 252.782 moveto
297.459 250.985 292.103 245.481 289.963 242.257 curveto
stroke
146.606 0 moveto
159.446 4.99149 180.949 21.4941 193.52 27.4413 curveto
stroke
