%!PS-Adobe-3.0 EPSF-3.0
%%BoundingBox: 144.879 -5 362.25 422.056
0 0 0 setrgbcolor
221.127 273.332 moveto
216.613 274.787 209.502 275.657 208.342 271.324 curveto
stroke
209.63 273.661 moveto
197.515 259.674 208.46 226.411 204.179 210.963 curveto
stroke
206.121 214.705 moveto
204.688 208.597 200.949 197.527 202.625 192.249 curveto
stroke
201.233 195.823 moveto
206.858 193.329 217.174 186.32 223.062 184.028 curveto
stroke
238.929 197.187 moveto
236.399 195.722 229.079 194.248 225.209 191.984 curveto
stroke
229.389 208.779 moveto
235.486 208.526 241.053 201.451 238.773 195.231 curveto
stroke
222.27 218.807 moveto
222.865 216.736 222.374 212.193 224.291 210.52 curveto
stroke
219.535 174.257 moveto
230.302 171.116 252.391 164.11 264.344 160.416 curveto
stroke
219.725 158.285 moveto
225.784 158.84 237.616 160.179 242.879 160.805 curveto
stroke
235.15 160.662 moveto
235.745 156.003 238.666 147.009 241.178 143.715 curveto
stroke
240.269 145.254 moveto
247.633 145.663 260.345 154.258 264.917 160.708 curveto
stroke
210.082 190.058 moveto
203.237 173.442 186.803 144.26 194.031 130.445 curveto
stroke
235.591 195.728 moveto
242.538 184.313 267.15 171.929 273.728 159.745 curveto
stroke
271.138 165.117 moveto
277.34 159.744 290.839 150.672 298.135 146.717 curveto
stroke
305.266 221.379 moveto
300.981 205.971 312.531 178.19 321.72 166.041 curveto
stroke
322.753 165.393 moveto
317.266 158.379 302.731 148.086 294.926 143.656 curveto
stroke
224.386 44.4393 moveto
238.294 75.8243 270.393 124.662 296.203 146.962 curveto
stroke
190.433 12.025 moveto
198.485 20.4934 220.182 35.9558 224.647 44.8077 curveto
stroke
200.441 31.5431 moveto
198.242 25.2485 191.896 12.9884 186.326 8.37539 curveto
stroke
151.198 4.82336 moveto
154.148 7.87096 160.453 13.5996 163.735 16.2379 curveto
stroke
164.194 28.4696 moveto
160.423 23.0885 154.295 11.1704 150.514 5.3645 curveto
stroke
149.937 12.4905 moveto
152.875 17.8271 160.554 25.7705 164.228 29.7438 curveto
stroke
174.345 48.3648 moveto
168.339 39.8112 153.777 25.8686 149.93 15.871 curveto
stroke
186.924 107.066 moveto
186.255 90.6315 177.703 60.207 172.022 45.3508 curveto
stroke
192.154 134.64 moveto
186.843 128.307 181.077 114.556 184.987 106.504 curveto
stroke
176.188 246.191 moveto
177.311 239.588 175.588 226.413 174.093 219.877 curveto
stroke
175.121 222.89 moveto
171.466 207.789 191.959 185.437 188.97 172.594 curveto
stroke
186.741 183.178 moveto
187.408 174.702 189.552 157.695 191.47 149.392 curveto
stroke
199.256 292.397 moveto
196.73 292.304 193.466 288.455 190.94 288.362 curveto
stroke
194.473 287.162 moveto
193.395 283.449 185.753 280.048 184.319 276.755 curveto
stroke
188.35 279.038 moveto
183.122 276.012 170.768 276.019 164.408 275.685 curveto
stroke
195.453 294.98 moveto
184.751 288.597 170.899 286.482 160.106 294.402 curveto
stroke
160.586 296.71 moveto
158.532 290.751 155.978 278.269 155.069 271.984 curveto
stroke
158.539 269.403 moveto
158.878 270.48 160.338 272.038 161.129 272.736 curveto
stroke
162.633 272.701 moveto
163.499 269.576 165.173 263.299 165.159 259.993 curveto
stroke
171.284 262.822 moveto
170.908 261.696 169.744 258.713 168.149 257.783 curveto
stroke
178.155 254.788 moveto
183.696 255.414 194.217 259.035 199.02 261.825 curveto
stroke
194.953 272.47 moveto
191.119 269.902 183.03 264.379 178.448 262.778 curveto
stroke
194.681 271.13 moveto
195.685 268.597 199.248 264.26 201.841 263.098 curveto
stroke
184.862 263.104 moveto
185 261.588 185.363 258.532 185.936 257.807 curveto
stroke
186.846 268.385 moveto
186.978 267.927 186.84 266.251 186.366 265.756 curveto
stroke
179.472 262.435 moveto
179.616 260.68 179.199 257.296 178.429 255.961 curveto
stroke
198.713 284.413 moveto
200.015 289.457 202.83 299.543 201.304 304.764 curveto
stroke
207.382 277.361 moveto
205.741 279.444 202.141 283.419 199.257 284.102 curveto
stroke
207.445 298.385 moveto
209.071 296.114 210.93 290.895 211.846 288.375 curveto
stroke
220.057 325.477 moveto
220.312 325.561 220.821 325.729 221.076 325.813 curveto
stroke
221.076 325.813 moveto
219.248 319.978 216.208 309.024 218.449 304.409 curveto
stroke
240.271 294.755 moveto
251.162 296.214 270.969 302.506 279.806 308.189 curveto
stroke
278.596 306.829 moveto
278.852 307.078 279.363 307.576 279.618 307.825 curveto
stroke
281.499 306.071 moveto
287.416 305.612 296.746 298.304 302.292 296.43 curveto
stroke
230.476 301.767 moveto
233.372 300.595 238.631 296.681 241.48 295.116 curveto
stroke
230.666 302.461 moveto
246.053 301.338 272.424 314.477 282.713 328.11 curveto
stroke
283.323 326.78 moveto
289.403 322.841 302.256 316.2 308.181 312.169 curveto
stroke
286.819 365.433 moveto
289.076 354.098 293.585 331.256 302.931 322.736 curveto
stroke
311.698 309.742 moveto
308.879 308.715 302.965 308.28 300.259 307.097 curveto
stroke
302.126 310.046 moveto
301.974 309.711 301.669 309.041 301.516 308.705 curveto
stroke
300.448 307.791 moveto
303.316 306.854 309.059 304.648 311.47 302.78 curveto
stroke
297.997 299.793 moveto
299.795 298.553 303.823 297.532 305.746 297.128 curveto
stroke
251.092 283.73 moveto
251.482 281.34 250.046 276.704 249.455 274.394 curveto
stroke
247.225 282.376 moveto
253.477 280.817 266.023 282.732 271.881 285.439 curveto
stroke
271.694 285.075 moveto
276.057 284.007 283.869 279.838 288.047 278.355 curveto
stroke
259.652 282.08 moveto
257.407 275.399 265.861 273.995 269.269 276.701 curveto
stroke
270.499 276.088 moveto
273.034 278.005 271.306 282.856 267.189 283.103 curveto
stroke
249.258 274.033 moveto
259.104 275.789 278.625 277.06 288.436 278.416 curveto
stroke
234.954 272.42 moveto
245.604 273.198 258.452 256.198 268.765 255.562 curveto
stroke
270.528 257.163 moveto
272.302 260.755 278.519 265.53 282.594 266.339 curveto
stroke
292.304 258.911 moveto
288.76 250.658 281.428 234.346 277.653 225.993 curveto
stroke
278.086 228.978 moveto
277.313 219.277 274.002 200.143 271.447 190.761 curveto
stroke
324.749 206.993 moveto
318.873 206.448 307.966 211.133 303.385 215.351 curveto
stroke
328.669 234.575 moveto
328.315 227.605 326.15 213.515 323.52 207.607 curveto
stroke
337.736 269.751 moveto
341.213 257.151 329.99 239.163 322.79 230.703 curveto
stroke
329.065 299.351 moveto
354.001 301.011 349.383 281.598 337.486 267.44 curveto
stroke
313.325 282.433 moveto
317.428 286.186 323.362 295.762 328.236 298.709 curveto
stroke
340.435 291.451 moveto
330.121 291.693 316.317 277.125 317.067 267.963 curveto
stroke
327.982 284.163 moveto
330.175 282.157 332.309 276.657 332.558 273.629 curveto
stroke
312.945 259.335 moveto
322.092 254.656 318.732 244.989 313.066 238.771 curveto
stroke
314.693 238.777 moveto
322.47 235.318 326.974 247.323 329.227 253.018 curveto
stroke
161.338 296.018 moveto
161.851 311.887 157.724 343.008 159.294 358.411 curveto
stroke
157.79 355.428 moveto
165.089 383.993 202.651 417.056 231.112 415.173 curveto
stroke
230.888 415.212 moveto
272.095 411.046 334.1 392.657 337.158 350.51 curveto
stroke
330.023 203.821 moveto
331.74 177.649 346.622 128.47 357.25 105.338 curveto
stroke
305.083 135.929 moveto
298.964 125.825 291.065 102.674 292.202 89.7804 curveto
stroke
200.264 247.127 moveto
195.944 242.042 187.066 245.213 181.547 249.018 curveto
stroke
195.369 263.407 moveto
195.595 265.393 192.45 268.251 189.98 268.085 curveto
stroke
337.434 357.405 moveto
339.885 346.484 344.075 323.737 340.854 311.459 curveto
stroke
218.241 167.694 moveto
214.644 165.002 210.299 155.734 207.578 152.252 curveto
stroke
210.891 149.774 moveto
212.61 147.32 217.815 142.861 220.302 140.296 curveto
stroke
225.3 157.109 moveto
222.562 153.233 220.217 142.915 217.771 138.658 curveto
stroke
244.769 285.727 moveto
246.464 287.34 249.571 291.163 251.481 292.108 curveto
stroke
245.757 291.126 moveto
251.95 292.931 265.187 294.887 271.893 294.428 curveto
stroke
198.441 280.065 moveto
194.317 278.093 186.442 273.005 183.503 269.396 curveto
stroke
194.075 279.401 moveto
194.656 279.662 195.569 279.618 195.914 279.434 curveto
stroke
303.629 256.804 moveto
299.939 254.856 294.065 249.594 291.733 246.398 curveto
stroke
149.879 0 moveto
162.85 5.48432 184.095 23.4638 197.068 29.2639 curveto
stroke
