%!PS-Adobe-3.0 EPSF-3.0
%%BoundingBox: 148.202 -5 365.491 427.012
0 0 0 setrgbcolor
220.136 278.184 moveto
216.462 279.656 210.35 280.221 208.97 276.845 curveto
stroke
210.157 279.07 moveto
196.609 265.209 208.883 231.205 204.102 215.601 curveto
stroke
206.427 219.104 moveto
205.182 213.159 201.569 202.182 202.375 196.786 curveto
stroke
201.107 199.529 moveto
206.822 197.069 217.478 190.331 223.419 187.985 curveto
stroke
238.945 200.775 moveto
235.859 199.685 227.96 198.728 224.088 196.284 curveto
stroke
229.895 211.865 moveto
236.512 212.1 241.728 204.952 238.527 198.476 curveto
stroke
221.506 224.146 moveto
222.195 221.693 221.684 216.311 223.856 214.33 curveto
stroke
219.712 178.459 moveto
230.423 174.363 253.134 167.69 265.193 163.916 curveto
stroke
219.823 162.147 moveto
226.073 162.385 238.266 163.917 243.868 164.515 curveto
stroke
235.487 164.404 moveto
236.104 159.684 239.124 150.703 241.472 147.112 curveto
stroke
240.542 149.124 moveto
248.357 149.133 260.948 158.209 265.899 164.44 curveto
stroke
210.397 194.008 moveto
203.098 177.107 187.751 146.124 197.135 131.976 curveto
stroke
235.386 199.788 moveto
242.945 188.106 268.146 175.649 274.788 163.135 curveto
stroke
272.071 168.388 moveto
278.333 162.825 292.342 153.853 299.734 149.78 curveto
stroke
307.17 226.517 moveto
301.938 210.513 314.417 181.689 323.819 168.995 curveto
stroke
324.845 168.232 moveto
319.16 161.639 304.926 151.602 297.202 147.399 curveto
stroke
226.338 45.9342 moveto
239.991 78.2132 271.247 128.125 298.084 150.6 curveto
stroke
193.337 13.3157 moveto
201.221 21.6 222.54 37.6149 226.503 46.1838 curveto
stroke
203.75 33.6447 moveto
201.839 26.8494 195.313 14.0863 189.254 9.55123 curveto
stroke
154.784 5.52928 moveto
157.698 8.54143 163.979 14.1341 167.165 16.8147 curveto
stroke
167.114 29.6245 moveto
163.615 24.1486 157.852 12.1992 153.992 6.54276 curveto
stroke
153.617 13.3074 moveto
156.673 18.3961 163.76 26.8769 167.14 31.1341 curveto
stroke
176.898 50.2097 moveto
171.054 41.538 157.362 26.5004 153.612 16.5663 curveto
stroke
188.978 109.681 moveto
188.24 93.1423 180.57 62.1443 174.683 47.1988 curveto
stroke
194.86 136.757 moveto
189.392 130.861 183.008 117.854 187.027 109.948 curveto
stroke
178.554 250.445 moveto
180.089 244 178.483 231.188 176.85 224.867 curveto
stroke
177.872 227.877 moveto
173.085 212.032 195.14 189.793 191.421 176.684 curveto
stroke
189.28 187.731 moveto
189.967 179.248 192.065 162.161 194.107 153.861 curveto
stroke
199.162 296.235 moveto
196.924 296.159 193.895 292.95 191.657 292.874 curveto
stroke
193.924 292.089 moveto
193.189 288.426 185.838 285.303 184.878 281.809 curveto
stroke
189.272 284.326 moveto
184.384 280.806 172.476 280.813 166.317 280.421 curveto
stroke
196.722 300.614 moveto
185.656 294.642 172.672 290.417 161.749 299.238 curveto
stroke
162.419 301.441 moveto
160.594 295.589 158.487 283.41 157.795 277.284 curveto
stroke
160.382 274.906 moveto
160.78 275.789 162.079 277.162 162.767 277.795 curveto
stroke
164.455 277.434 moveto
165.266 274.17 167.149 267.719 167.161 264.29 curveto
stroke
171.813 268.195 moveto
171.746 266.823 170.712 263.75 169.079 262.831 curveto
stroke
178.75 259.502 moveto
184.084 260.095 194.116 263.79 198.645 266.531 curveto
stroke
194.593 277.291 moveto
191.084 274.49 183.29 269.198 178.941 267.494 curveto
stroke
194.419 276.064 moveto
195.71 273.704 199.034 269.25 201.543 268.039 curveto
stroke
185.226 268.044 moveto
185.315 266.533 185.549 263.493 185.914 262.516 curveto
stroke
187.584 273.226 moveto
187.581 272.913 187.318 271.549 186.914 271.143 curveto
stroke
179.959 266.931 moveto
180.052 265.429 179.789 262.495 179.297 261.266 curveto
stroke
198.814 289.581 moveto
200.23 294.665 202.911 304.913 201.2 310.15 curveto
stroke
207.63 282.54 moveto
205.895 284.656 202.205 288.804 199.162 289.375 curveto
stroke
207.309 302.892 moveto
208.848 300.551 210.991 295.42 211.917 292.884 curveto
stroke
220.341 330.964 moveto
220.595 331.103 221.102 331.382 221.355 331.522 curveto
stroke
221.355 331.522 moveto
219.801 325.776 216.803 314.842 217.979 309.911 curveto
stroke
240.84 299.476 moveto
252.304 301.058 273.186 307.544 282.479 313.443 curveto
stroke
281.019 311.867 moveto
281.273 312.116 281.782 312.615 282.037 312.864 curveto
stroke
283.018 311.351 moveto
289.195 310.883 299.007 303.174 304.857 301.261 curveto
stroke
230.963 306.152 moveto
233.975 305.198 239.389 301.492 242.299 300.053 curveto
stroke
231.407 306.951 moveto
247.144 306.671 274.038 319.95 284.48 334.049 curveto
stroke
285.214 332.496 moveto
291.681 328.236 305.5 321.194 311.733 316.761 curveto
stroke
288.563 371.596 moveto
291.296 360.182 294.839 336.868 304.983 328.462 curveto
stroke
314.469 314.132 moveto
311.646 313.043 305.577 312.899 302.831 311.705 curveto
stroke
304.431 313.999 moveto
304.248 313.692 303.881 313.078 303.698 312.771 curveto
stroke
303.275 312.504 moveto
306.318 311.624 312.186 309.172 314.625 307.162 curveto
stroke
300.96 303.839 moveto
302.757 302.647 306.826 301.925 308.802 301.729 curveto
stroke
251.738 288.457 moveto
251.886 286.093 250.45 281.555 249.984 279.232 curveto
stroke
247.508 287.219 moveto
254.095 285.423 267.381 287.381 273.574 290.267 curveto
stroke
273.132 289.688 moveto
277.512 288.665 285.251 284.378 289.407 282.869 curveto
stroke
260.766 286.692 moveto
258.452 280.295 266.602 278.95 270.21 281.101 curveto
stroke
271.684 280.364 moveto
274.59 282.284 273.199 287.368 268.777 287.71 curveto
stroke
249.534 278.989 moveto
259.71 280.879 280.061 281.703 290.302 282.916 curveto
stroke
235.298 277.253 moveto
246.747 278.74 259.559 260.113 270.484 259.697 curveto
stroke
272.633 261.756 moveto
274.27 265.373 280.412 270.196 284.388 271.189 curveto
stroke
294.199 263.894 moveto
290.601 255.589 283.393 239.031 279.397 230.624 curveto
stroke
279.697 233.613 moveto
279.094 223.626 275.466 204.048 272.607 194.481 curveto
stroke
327.175 210.624 moveto
321.194 210.011 309.849 214.653 305.262 219.199 curveto
stroke
331.779 237.707 moveto
331.212 230.845 329.148 216.924 325.7 211.361 curveto
stroke
341.165 273.806 moveto
344.036 261.487 333.872 242.879 325.837 234.769 curveto
stroke
331.754 303.865 moveto
357.609 306.337 353.418 286.655 341.304 271.602 curveto
stroke
316.215 286.596 moveto
320.254 290.477 326.169 300.198 331.184 303.107 curveto
stroke
344.597 295.61 moveto
333.796 296.624 320.529 281.859 319.719 272.601 curveto
stroke
331.949 288.423 moveto
333.624 286.299 335.797 281.236 336.027 278.378 curveto
stroke
315.624 263.853 moveto
324.752 259.066 321.931 249.165 316.014 242.822 curveto
stroke
317.761 242.827 moveto
325.519 239.928 330.363 251.467 332.473 257.31 curveto
stroke
163.263 300.31 moveto
163.952 316.696 159.45 348.732 161.229 364.579 curveto
stroke
159.54 361.259 moveto
167.158 389.106 204.096 422.012 232.347 419.765 curveto
stroke
232.506 419.794 moveto
271.328 414.986 334.346 399.692 340.456 359.322 curveto
stroke
333.647 205.898 moveto
334.917 179.422 349.925 129.673 360.491 106.226 curveto
stroke
307.323 139.574 moveto
300.084 129.366 291.665 105.306 293.12 91.8292 curveto
stroke
199.798 251.729 moveto
196.225 247.874 188 251.071 183.092 253.977 curveto
stroke
195.583 268.242 moveto
195.825 270.412 192.82 273.228 190.318 273.029 curveto
stroke
340.967 361.908 moveto
343.629 350.665 348.942 327.113 345.516 314.283 curveto
stroke
218.151 171.429 moveto
214.994 168.466 210.823 159.739 208.413 156.122 curveto
stroke
211.989 154.121 moveto
213.442 151.15 218.45 146.398 220.902 143.823 curveto
stroke
225.197 160.381 moveto
222.892 156.295 220.378 146.362 218.192 142.067 curveto
stroke
245.191 290.455 moveto
247.039 292.06 250.377 295.954 252.634 296.714 curveto
stroke
246.811 296.061 moveto
253.276 297.489 266.766 299.406 273.583 298.926 curveto
stroke
198.639 285.013 moveto
194.785 282.866 187.13 278.092 184.354 274.567 curveto
stroke
194.391 284.238 moveto
194.855 284.496 195.621 284.635 195.933 284.597 curveto
stroke
306.082 260.848 moveto
302.432 258.742 296.025 253.735 293.496 250.569 curveto
stroke
153.202 0 moveto
166.255 5.99047 187.181 25.4848 200.498 31.1311 curveto
stroke
