%!PS-Adobe-3.0 EPSF-3.0
%%BoundingBox: 151.576 -5 368.741 432.013
0 0 0 setrgbcolor
219.094 283.073 moveto
216.323 284.551 211.117 284.826 209.522 282.403 curveto
stroke
210.614 284.516 moveto
195.769 270.789 209.267 236.04 204.042 220.28 curveto
stroke
206.72 223.536 moveto
205.651 217.762 202.168 206.886 202.167 201.37 curveto
stroke
201.03 203.255 moveto
206.814 200.831 217.756 194.376 223.731 191.975 curveto
stroke
238.968 204.38 moveto
235.303 203.682 226.838 203.256 223.019 200.623 curveto
stroke
230.432 214.939 moveto
237.607 215.671 242.443 208.458 238.27 201.733 curveto
stroke
220.749 229.544 moveto
221.53 226.698 221.016 220.453 223.426 218.157 curveto
stroke
219.867 182.707 moveto
230.514 177.628 253.928 171.293 266.079 167.444 curveto
stroke
219.915 166.052 moveto
226.33 165.964 238.891 167.688 244.909 168.247 curveto
stroke
235.77 168.183 moveto
236.402 163.403 239.53 154.439 241.746 150.54 curveto
stroke
240.786 153.039 moveto
249.15 152.624 261.59 162.202 266.926 168.204 curveto
stroke
210.703 197.989 moveto
203.011 180.8 188.752 147.976 200.125 133.494 curveto
stroke
235.189 203.879 moveto
243.39 191.921 269.179 179.399 275.879 166.553 curveto
stroke
273.024 171.682 moveto
279.341 165.93 293.874 157.064 301.356 152.874 curveto
stroke
309.081 231.724 moveto
302.854 215.124 316.301 185.228 325.912 171.981 curveto
stroke
326.927 171.101 moveto
321.053 164.942 307.177 155.156 299.56 151.181 curveto
stroke
228.209 47.4545 moveto
241.566 80.6402 272.15 131.628 300.016 154.279 curveto
stroke
196.193 14.6407 moveto
203.9 22.7313 224.799 39.3084 228.288 47.5812 curveto
stroke
206.937 35.7969 moveto
205.308 28.4891 198.643 15.2129 192.145 10.7594 curveto
stroke
158.384 6.25483 moveto
161.257 9.22909 167.5 14.6792 170.586 17.402 curveto
stroke
170.049 30.8013 moveto
166.815 25.2305 161.411 13.2546 157.488 7.75459 curveto
stroke
157.305 14.1439 moveto
160.465 18.9749 166.971 28.0052 170.064 32.5528 curveto
stroke
179.45 52.0881 moveto
173.776 43.2988 160.95 27.14 157.302 17.276 curveto
stroke
191.003 112.326 moveto
190.21 95.6871 183.399 64.1131 177.343 49.0818 curveto
stroke
197.476 138.877 moveto
191.871 133.433 184.921 121.199 189.031 113.446 curveto
stroke
180.824 254.714 moveto
182.739 248.437 181.244 236.005 179.486 229.908 curveto
stroke
180.498 232.914 moveto
174.688 216.306 198.145 194.198 193.765 180.82 curveto
stroke
191.699 192.338 moveto
192.407 183.852 194.463 166.69 196.617 158.397 curveto
stroke
199.077 300.102 moveto
197.112 300.046 194.308 297.476 192.344 297.42 curveto
stroke
193.433 297.035 moveto
193.017 293.427 185.958 290.579 185.438 286.891 curveto
stroke
190.156 289.646 moveto
185.596 285.636 174.136 285.642 168.181 285.193 curveto
stroke
197.905 306.287 moveto
186.533 300.716 174.392 294.39 163.38 304.104 curveto
stroke
164.223 306.204 moveto
162.617 300.461 160.928 288.588 160.438 282.622 curveto
stroke
162.202 280.439 moveto
162.654 281.129 163.8 282.316 164.391 282.883 curveto
stroke
166.244 282.201 moveto
167.002 278.798 169.073 272.176 169.108 268.626 curveto
stroke
172.385 273.587 moveto
172.603 271.974 171.692 268.813 170.029 267.903 curveto
stroke
179.365 264.239 moveto
184.493 264.799 194.043 268.568 198.305 271.256 curveto
stroke
194.275 282.135 moveto
191.077 279.103 183.58 274.041 179.458 272.234 curveto
stroke
194.192 281.021 moveto
195.745 278.837 198.838 274.267 201.263 273.007 curveto
stroke
185.605 273.009 moveto
185.648 271.504 185.762 268.482 185.935 267.247 curveto
stroke
188.302 278.097 moveto
188.175 277.928 187.795 276.874 187.459 276.558 curveto
stroke
180.469 271.452 moveto
180.513 270.202 180.39 267.729 180.154 266.612 curveto
stroke
198.909 294.776 moveto
200.426 299.903 202.976 310.312 201.098 315.562 curveto
stroke
207.836 287.753 moveto
206.02 289.9 202.257 294.218 199.077 294.675 curveto
stroke
207.161 307.43 moveto
208.614 305.02 211.018 299.981 211.968 297.426 curveto
stroke
220.655 336.471 moveto
220.907 336.666 221.411 337.056 221.663 337.25 curveto
stroke
221.663 337.25 moveto
220.404 331.591 217.442 320.678 217.496 315.441 curveto
stroke
241.417 304.225 moveto
253.467 305.926 275.452 312.601 285.21 318.714 curveto
stroke
283.487 316.924 moveto
283.74 317.173 284.245 317.673 284.497 317.922 curveto
stroke
284.518 316.661 moveto
290.96 316.182 301.265 308.072 307.426 306.117 curveto
stroke
231.471 310.563 moveto
234.601 309.825 240.169 306.328 243.139 305.014 curveto
stroke
232.185 311.464 moveto
248.265 312.025 275.658 325.447 286.243 340.012 curveto
stroke
287.106 338.236 moveto
293.972 333.654 308.792 326.207 315.34 321.371 curveto
stroke
290.29 377.785 moveto
293.524 366.289 296.03 342.517 307.006 334.216 curveto
stroke
317.236 318.552 moveto
314.415 317.398 308.193 317.545 305.411 316.339 curveto
stroke
306.723 317.983 moveto
306.507 317.705 306.075 317.148 305.859 316.869 curveto
stroke
306.125 317.241 moveto
309.349 316.416 315.338 313.72 317.802 311.569 curveto
stroke
303.961 307.908 moveto
305.752 306.764 309.859 306.342 311.887 306.353 curveto
stroke
252.374 293.213 moveto
252.264 290.879 250.832 286.437 250.499 284.101 curveto
stroke
247.767 292.093 moveto
254.696 290.061 268.744 292.057 275.281 295.121 curveto
stroke
274.568 294.329 moveto
278.956 293.352 286.601 288.952 290.725 287.417 curveto
stroke
261.882 291.332 moveto
259.5 285.219 267.314 283.946 271.12 285.534 curveto
stroke
272.851 284.669 moveto
276.147 286.592 275.119 291.904 270.38 292.342 curveto
stroke
249.781 283.978 moveto
260.29 286.004 281.48 286.378 292.157 287.444 curveto
stroke
235.646 282.113 moveto
247.931 284.313 260.669 264.036 272.229 263.842 curveto
stroke
274.79 266.369 moveto
276.278 270.014 282.324 274.889 286.19 276.076 curveto
stroke
296.098 268.923 moveto
292.453 260.566 285.399 243.753 281.179 235.293 curveto
stroke
281.335 238.287 moveto
280.918 228.006 276.965 207.98 273.791 198.227 curveto
stroke
329.592 214.293 moveto
323.51 213.608 311.716 218.203 307.134 223.082 curveto
stroke
334.89 240.848 moveto
334.102 234.102 332.162 220.356 327.861 215.158 curveto
stroke
344.586 277.889 moveto
346.82 265.873 337.804 246.609 328.907 238.868 curveto
stroke
334.399 308.415 moveto
361.18 311.694 357.468 291.763 345.142 275.788 curveto
stroke
319.107 290.785 moveto
323.07 294.798 328.952 304.666 334.105 307.537 curveto
stroke
348.786 299.793 moveto
337.488 301.578 324.828 286.61 322.363 277.28 curveto
stroke
335.955 292.702 moveto
337.073 290.462 339.293 285.85 339.507 283.169 curveto
stroke
318.309 268.408 moveto
327.401 263.517 325.163 253.367 318.992 246.898 curveto
stroke
320.864 246.901 moveto
328.596 244.585 333.777 255.639 335.731 261.638 curveto
stroke
165.15 304.638 moveto
166.001 321.541 161.165 354.483 163.131 370.775 curveto
stroke
161.277 367.116 moveto
169.166 394.255 205.418 427.013 233.643 424.373 curveto
stroke
234.21 424.39 moveto
270.409 418.982 334.38 406.783 343.737 368.152 curveto
stroke
337.306 207.958 moveto
338.112 181.185 353.25 130.87 363.741 107.113 curveto
stroke
309.629 143.265 moveto
301.215 132.964 292.262 107.979 294.053 93.9024 curveto
stroke
199.377 256.353 moveto
196.489 253.77 188.891 256.993 184.576 258.971 curveto
stroke
195.794 273.107 moveto
196.05 275.46 193.182 278.234 190.658 278.001 curveto
stroke
344.489 366.439 moveto
347.371 354.876 353.868 330.51 350.231 317.13 curveto
stroke
218.07 175.198 moveto
215.337 171.957 211.333 163.793 209.22 160.038 curveto
stroke
213.025 158.529 moveto
214.235 155.028 219.055 149.976 221.468 147.391 curveto
stroke
225.096 163.678 moveto
223.206 159.378 220.538 149.846 218.602 145.514 curveto
stroke
245.601 295.212 moveto
247.609 296.809 251.187 300.772 253.806 301.344 curveto
stroke
247.892 301.019 moveto
254.632 302.07 268.364 303.95 275.286 303.45 curveto
stroke
198.826 289.992 moveto
195.233 287.67 187.803 283.209 185.187 279.769 curveto
stroke
194.7 289.104 moveto
195.053 289.359 195.682 289.679 195.962 289.785 curveto
stroke
308.539 264.913 moveto
304.937 262.643 297.982 257.902 295.252 254.769 curveto
stroke
156.576 0 moveto
169.661 6.50996 190.207 27.557 203.808 33.0432 curveto
stroke
