%!PS-Adobe-3.0 EPSF-3.0
%%BoundingBox: 152 -5 372 442.061
0 0 0 setrgbcolor
220 291 moveto
219.586 293.119 218.528 293.517 218 293 curveto
216.196 294.473 211.804 294.473 210 293 curveto
stroke
211 295 moveto
194.994 281.414 209.614 245.914 204 230 curveto
stroke
207 233 moveto
206.096 227.405 202.745 216.639 202 211 curveto
stroke
201 212 moveto
206.833 209.616 218.008 203.455 224 201 curveto
stroke
222 210 moveto
225.712 212.833 234.732 212.711 239 213 curveto
stroke
238 210 moveto
243.199 216.969 238.771 224.237 231 223 curveto
stroke
220 240 moveto
220.87 236.752 220.372 229.62 223 227 curveto
stroke
220 192 moveto
230.576 185.911 254.772 179.918 267 176 curveto
stroke
222 193 moveto
215.704 188.125 215.699 174.028 213 168 curveto
stroke
210 169 moveto
215.588 167.716 221.089 159.284 222 154 curveto
stroke
220 175 moveto
226.556 174.575 239.492 176.491 246 177 curveto
stroke
224 172 moveto
225.848 168.056 224.876 159.846 223 156 curveto
stroke
236 177 moveto
236.638 172.16 239.884 163.215 242 159 curveto
stroke
241 162 moveto
250.012 161.136 262.27 171.237 268 177 curveto
stroke
211 207 moveto
202.976 189.522 189.806 154.817 203 140 curveto
stroke
235 213 moveto
243.871 200.757 270.246 188.18 277 175 curveto
stroke
274 180 moveto
280.364 174.059 295.435 165.305 303 161 curveto
stroke
311 242 moveto
303.728 224.802 318.183 193.809 328 180 curveto
stroke
329 179 moveto
322.945 173.287 309.485 163.748 302 160 curveto
stroke
302 163 moveto
273.101 140.171 243.02 88.1054 230 54 curveto
226.96 46.0366 206.523 28.8875 199 21 curveto
stroke
195 17 moveto
201.886 21.3683 208.648 35.1675 210 43 curveto
stroke
209 42 moveto
199.007 28.2979 171.618 9.72738 157 0 curveto
stroke
161 5 moveto
164.38 9.54717 171.944 18.1598 173 24 curveto
stroke
174 23 moveto
171.016 20.2348 164.826 14.9339 162 12 curveto
stroke
161 14 moveto
164.972 19.3366 170.024 31.3341 173 37 curveto
stroke
173 39 moveto
170.188 34.1554 164.249 24.5636 161 20 curveto
stroke
161 23 moveto
164.541 32.7874 176.505 50.0935 182 59 curveto
stroke
180 56 moveto
186.189 71.1132 192.165 103.266 193 120 curveto
stroke
200 146 moveto
194.278 141.023 186.817 129.591 191 122 curveto
stroke
183 264 moveto
185.26 257.898 183.87 245.863 182 240 curveto
stroke
183 243 moveto
176.277 225.613 200.971 203.651 196 190 curveto
stroke
194 202 moveto
194.727 193.514 196.746 176.282 199 168 curveto
stroke
185 264 moveto
178.176 269.839 177.297 282.761 177 290 curveto
stroke
199 309 moveto
197.294 308.966 194.706 307.034 193 307 curveto
192.88 303.449 186.112 300.876 186 297 curveto
stroke
191 300 moveto
186.758 295.503 175.748 295.507 170 295 curveto
stroke
199 317 moveto
187.384 311.819 176.058 303.403 165 314 curveto
stroke
166 316 moveto
164.6 310.367 163.302 298.803 163 293 curveto
stroke
164 291 moveto
164.5 291.5 165.5 292.5 166 293 curveto
stroke
168 292 moveto
168.707 288.459 170.944 281.67 171 278 curveto
172.685 278.901 173.48 282.15 173 284 curveto
stroke
175 288 moveto
174.84 288.953 175.278 290.563 176 291 curveto
175.913 288.852 174.087 285.148 174 283 curveto
stroke
180 274 moveto
184.923 274.524 193.998 278.367 198 281 curveto
stroke
179 279 moveto
179.357 279.842 180.324 281.379 181 282 curveto
stroke
180 282 moveto
183.898 283.908 191.099 288.74 194 292 curveto
194.25 291.75 194.75 291.25 195 291 curveto
stroke
194 291 moveto
195.789 288.996 198.659 284.31 201 283 curveto
stroke
186 283 moveto
186 281.5 186 278.5 186 277 curveto
196.632 273.289 197.426 288.965 189 288 curveto
188.759 287.972 188.274 287.226 188 287 curveto
stroke
181 281 moveto
181 280 181 278 181 277 curveto
stroke
201 326 moveto
203.025 320.74 200.605 310.17 199 305 curveto
202.297 304.66 206.115 300.177 208 298 curveto
stroke
207 317 moveto
208.37 314.52 211.012 309.576 212 307 curveto
stroke
221 347 moveto
221.25 347.25 221.75 347.75 222 348 curveto
221.057 342.422 218.123 331.533 217 326 curveto
stroke
217 329 moveto
218.927 326.184 224.256 321.614 225 318 curveto
stroke
242 314 moveto
254.65 315.818 277.766 322.676 288 329 curveto
stroke
287 328 moveto
286.75 327.75 286.25 327.25 286 327 curveto
292.71 326.509 303.52 317.998 310 316 curveto
stroke
243 316 moveto
243.25 315.75 243.75 315.25 244 315 curveto
240.972 316.187 235.25 319.478 232 320 curveto
stroke
233 321 moveto
249.414 322.4 277.285 335.968 288 351 curveto
stroke
289 349 moveto
296.275 344.095 312.13 336.238 319 331 curveto
stroke
292 389 moveto
295.761 377.417 297.16 353.2 309 345 curveto
stroke
320 328 moveto
317.185 326.782 310.815 327.218 308 326 curveto
stroke
308 326 moveto
308.25 326.25 308.75 326.75 309 327 curveto
312.409 326.23 318.516 323.291 321 321 curveto
stroke
320 321 moveto
317.976 321.367 313.896 322.762 313 322 curveto
312.194 323.209 309.806 323.209 309 322 curveto
310.855 320.098 314.145 315.902 316 314 curveto
stroke
315 316 moveto
312.919 315.781 308.781 315.905 307 317 curveto
stroke
250 302 moveto
250.437 302.722 252.047 303.16 253 303 curveto
252.616 300.698 251.191 296.351 251 294 curveto
stroke
248 302 moveto
255.28 299.73 270.11 301.761 277 305 curveto
stroke
276 304 moveto
280.39 303.068 287.919 298.56 292 297 curveto
stroke
263 301 moveto
260.551 295.17 267.996 293.984 272 295 curveto
stroke
272 302 moveto
277.065 301.463 277.705 295.929 274 294 curveto
stroke
250 294 moveto
260.842 296.165 282.881 296.083 294 297 curveto
stroke
236 292 moveto
249.155 294.917 261.784 272.966 274 273 curveto
273.452 274.868 275.247 276.589 277 276 curveto
278.323 279.676 284.256 284.61 288 286 curveto
stroke
298 279 moveto
294.317 270.589 287.444 253.511 283 245 curveto
stroke
283 248 moveto
282.783 237.416 278.498 216.939 275 207 curveto
stroke
309 232 moveto
313.568 226.783 325.82 222.239 332 223 curveto
stroke
330 224 moveto
335.192 228.81 336.986 242.378 338 249 curveto
stroke
333 249 moveto
332.75 248.75 332.25 248.25 332 248 curveto
341.787 255.353 349.564 275.309 348 287 curveto
stroke
349 285 moveto
361.532 301.921 364.715 322.082 337 318 curveto
stroke
336 316 moveto
336.25 316.25 336.75 316.75 337 317 curveto
331.71 314.166 325.874 304.15 322 300 curveto
stroke
353 309 moveto
341.198 311.556 329.213 296.379 325 287 curveto
stroke
324 290 moveto
323.404 287.154 324.149 281.718 327 280 curveto
stroke
338 302 moveto
338.5 302 339.5 302 340 302 curveto
340.523 299.647 342.798 295.5 343 293 curveto
stroke
321 278 moveto
330.04 273.009 328.426 262.597 322 256 curveto
322.25 255.75 322.75 255.25 323 255 curveto
stroke
324 256 moveto
331.703 254.288 337.219 264.841 339 271 curveto
stroke
167 314 moveto
167.996 331.422 162.869 365.26 165 382 curveto
stroke
163 378 moveto
171.114 404.44 206.618 437.061 235 434 curveto
stroke
236 434 moveto
269.337 428.034 334.202 418.93 347 382 curveto
stroke
345 385 moveto
357.416 363.029 359.303 314.931 357 290 curveto
stroke
357 295 moveto
356.619 281.353 347.051 256.331 344 243 curveto
stroke
344 244 moveto
338.349 237.695 344.531 228.755 348 224 curveto
stroke
349 227 moveto
347.195 222.572 341.764 214.845 339 211 curveto
stroke
341 215 moveto
341.324 187.936 356.596 137.061 367 113 curveto
stroke
314 154 moveto
311.881 153.586 311.483 152.528 312 152 curveto
302.359 141.619 292.856 115.693 295 101 curveto
stroke
186 269 moveto
189.738 267.979 196.737 264.729 199 266 curveto
stroke
199 266 moveto
200 267 202 269 203 270 curveto
stroke
187 286 moveto
187.612 282.541 184.643 276.219 190 277 curveto
stroke
191 288 moveto
193.537 288.269 196.269 285.537 196 283 curveto
stroke
348 376 moveto
351.109 364.115 358.855 338.926 355 325 curveto
stroke
357 337 moveto
355.827 326.545 358.304 304.842 359 294 curveto
stroke
360 305 moveto
355.024 289.972 346.96 258.624 345 242 curveto
stroke
347 248 moveto
343.621 243.482 341.712 233.204 344 228 curveto
stroke
220 189 moveto
216.563 184.244 210.259 174.123 209 168 curveto
209.25 168.25 209.75 168.75 210 169 curveto
stroke
218 184 moveto
215.672 180.476 211.828 172.895 210 169 curveto
stroke
214 168 moveto
214.991 163.952 219.628 158.595 222 156 curveto
stroke
225 172 moveto
223.503 167.482 220.697 158.367 219 154 curveto
stroke
224 166 moveto
224.25 163.195 223.626 157.712 223 155 curveto
stroke
254 310 moveto
254.25 310.25 254.75 310.75 255 311 curveto
252 310.618 248.173 306.587 246 305 curveto
stroke
249 311 moveto
256.019 311.675 269.98 313.52 277 313 curveto
stroke
199 300 moveto
195.659 297.505 188.461 293.356 186 290 curveto
stroke
196 300 moveto
195.75 299.75 195.25 299.25 195 299 curveto
195.813 298.021 197.801 296.477 199 296 curveto
stroke
311 274 moveto
307.455 271.559 299.937 267.096 297 264 curveto
stroke
207 40 moveto
193.172 34.6806 173.068 12.0428 160 5 curveto
stroke
