%!PS-Adobe-3.0 EPSF-3.0
%%BoundingBox: -1 -5 619 206
74 193 moveto
73.8088 144.878 81.3429 48.3212 78 0 curveto
stroke
4 114 moveto
40.6668 106.993 116.128 104.607 154 111 curveto
stroke
236 127 moveto
269.794 141.511 346.358 155.133 384 145 curveto
stroke
290 201 moveto
331.878 167.71 364.834 74.6836 370 24 curveto
stroke
486 187 moveto
486.45 126.817 537.529 46.0256 596 28 curveto
stroke
493 89 moveto
527.258 78.6377 587.67 96.4572 614 122 curveto
stroke
