25
112 147 
151 215 
156 260 
140 340 
197 299 
238 286 
269 225 
267 260 
276 280 
264 311 
299 279 
298 251 
322 209 
332 226 
334 237 
335 258 
358 227 
352 205 
373 174 
388 188 
382 204 
392 225 
439 177 
450 145 
460 79 
16
114 149 
140 225 
143 276 
118 353 
219 259 
288 282 
350 203 
358 192 
370 171 
371 167 
378 199 
381 217 
370 249 
421 183 
465 152 
464 77 

