252.143 585.219 
225.714 568.791 
211.429 544.505 
199.286 512.362 
192.143 471.648 
191.429 438.791 
195.714 397.362 
200.714 411.648 
210 437.362 
230 425.934 
260 417.362 
290 417.362 
330.714 424.505 
332.143 402.362 
327.143 375.934 
340.714 390.219 
351.429 413.076 
356.429 450.219 
357.857 480.219 
350.714 512.362 
338.571 539.505 
322.857 565.219 
