%!PS-Adobe-3.0 EPSF-3.0
%%BoundingBox: -5 -5 1005 1005
1 1 0.772549 setrgbcolor
224 636  moveto
208.015 627.915 186.965 603.908 215 601  curveto
221 602 lineto
252.138 588.632 255.978 618.881 231 635 curveto
231.25 635.25 231.75 635.75 232 636 curveto
fill
1 1 0.772549 setrgbcolor
403 910  moveto
396.074 932.526 362.575 942.37 340 939  curveto
339 941 lineto
306.026 952.528 248.401 935.052 234 898 curveto
235 899 lineto
223.744 878.699 214.953 832.849 210 810 curveto
211 812 lineto
205.618 799.386 214.74 774.237 215 761 curveto
246 778 lineto
275.035 857.745 298.702 908.079 395 872 curveto
414.574 864.666 429.72 816.685 422 796 curveto
fill
0 0 0 setrgbcolor
224 636  moveto
208.015 627.915 186.965 603.908 215 601  curveto
 stroke
1 1 0.772549 setrgbcolor
219 680  moveto
192.895 659.893 202.988 634.672 235 629  curveto
235 628 lineto
267.857 622.177 243.266 676.397 222 680 curveto
fill
0 0 0 setrgbcolor
339 941  moveto
306.026 952.528 248.401 935.052 234 898  curveto
 stroke
0 0 0 setrgbcolor
235 899  moveto
223.744 878.699 214.953 832.849 210 810  curveto
 stroke
0 0 0 setrgbcolor
211 812  moveto
205.618 799.386 214.74 774.237 215 761  curveto
 stroke
0 0 0 setrgbcolor
340 939  moveto
362.575 942.37 396.074 932.526 403 910  curveto
 stroke
0 0 0 setrgbcolor
219 680  moveto
192.895 659.893 202.988 634.672 235 629  curveto
 stroke
1 1 0.772549 setrgbcolor
230 770  moveto
275.21 766.609 274.292 680.986 246 661  curveto
243 661 lineto
204.125 668.15 195.02 735.817 220 764 curveto
fill
1 0.886275 0.745098 setrgbcolor
337 637  moveto
319.063 653.959 279.959 701.033 253 696  curveto
253.16 695.047 252.722 693.437 252 693  curveto
252 696 lineto
252.447 683.749 252.85 659.738 247 648 curveto
247 645 lineto
266.636 588.865 352.95 562.236 343 629 curveto
fill
1 0.886275 0.745098 setrgbcolor
416 763  moveto
402.887 753.801 396.894 730.69 412 722  curveto
414 720 lineto
424.954 726.762 439.801 763.082 419 765 curveto
fill
1 0.886275 0.745098 setrgbcolor
248 709  moveto
222.822 719.245 202.316 779.307 244 775  curveto
241 772 lineto
254.738 760.314 255.414 728.123 252 713 curveto
fill
1 0.886275 0.745098 setrgbcolor
422 796  moveto
429.72 816.685 414.574 864.666 395 872  curveto
298.702 908.079 275.035 857.745 246 778  curveto
248 715 lineto
247.805 683.503 290.349 645.496 316 631 curveto
315 631 lineto
326.044 629.612 347.991 631.114 359 631 curveto
360 631 lineto
390.644 645.547 414.888 696.158 413 726 curveto
413 725 lineto
415.73 741.948 417.003 777.996 421 795 curveto
fill
0 0 0 setrgbcolor
362 723  moveto
364.605 717.687 362.451 705.482 360 700  curveto
 stroke
0 0 0 setrgbcolor
362 721  moveto
368.272 713.405 368.967 702.838 359 698  curveto
 stroke
0 0 0 setrgbcolor
368 675  moveto
353.738 686.828 330.049 677.854 319 667  curveto
 stroke
0 0 0 setrgbcolor
347 710  moveto
347 709.5 347 708.5 347 708  curveto
347.5 708 348.5 708 349 708  curveto
 stroke
0 0 0 setrgbcolor
315 631  moveto
326.044 629.612 347.991 631.114 359 631  curveto
 stroke
0 0 0 setrgbcolor
316 631  moveto
290.349 645.496 247.805 683.503 248 715  curveto
 stroke
0 0 0 setrgbcolor
244 775  moveto
202.316 779.307 222.822 719.245 248 709  curveto
 stroke
0 0 0 setrgbcolor
229 761  moveto
238.552 765.605 247.673 753.032 247 744  curveto
 stroke
0 0 0 setrgbcolor
360 631  moveto
390.644 645.547 414.888 696.158 413 726  curveto
 stroke
0 0 0 setrgbcolor
413 725  moveto
415.73 741.948 417.003 777.996 421 795  curveto
 stroke
0 0 0 setrgbcolor
419 765  moveto
439.801 763.082 424.954 726.762 414 720  curveto
 stroke
0 0 0 setrgbcolor
425 750  moveto
422.198 748.264 416.36 744.878 416 741  curveto
 stroke
0 0 0 setrgbcolor
252 696  moveto
252.447 683.749 252.85 659.738 247 648  curveto
 stroke
0 0 0 setrgbcolor
220 764  moveto
195.02 735.817 204.125 668.15 243 661  curveto
 stroke
0 0 0 setrgbcolor
332 899  moveto
333.943 895.721 337.921 889.165 340 886  curveto
 stroke
0 0 0 setrgbcolor
326 889  moveto
327.665 887.4 330.484 883.732 332 882  curveto
 stroke
0 0 0 setrgbcolor
375 880  moveto
377.941 883.558 383.778 890.715 387 894  curveto
 stroke
0 0 0 setrgbcolor
371 881  moveto
375.761 884.933 383.797 893.89 387 899  curveto
 stroke
0 0 0 setrgbcolor
385 882  moveto
386.044 883.241 388.471 885.363 390 886  curveto
 stroke
1 1 0.772549 setrgbcolor
421 794  moveto
409.961 803.417 391.335 790.567 379 789  curveto
380 790 lineto
379.013 788.771 378.987 785.229 378 784 curveto
378 784 lineto
389.524 787.496 410.034 797.904 422 792 curveto
fill
1 1 0.772549 setrgbcolor
360 894  moveto
361.778 924.265 398.026 961.974 419 978  curveto
419 979 lineto
387.053 967.33 352.096 932.346 360 891 curveto
fill
1 1 1 setrgbcolor
413 783  moveto
404.841 783.952 388.923 784.275 381 782  curveto
382 782 lineto
382.445 779.282 381.607 774.114 380 772 curveto
381 764 lineto
384.687 755.253 399.457 756.305 407 756 curveto
413 758 lineto
416.226 764.262 417.488 777.576 413 783 curveto
fill
1 1 1 setrgbcolor
331 773  moveto
329.661 775.033 327.548 779.399 328 782  curveto
315.176 782.438 289.36 790.792 276 787  curveto
279 787 lineto
278.198 781.117 280.322 769.71 282 764 curveto
282 766 lineto
284.774 753.737 303.516 754.041 313 754 curveto
317 754 lineto
321.234 753.975 326.788 758.85 329 762 curveto
fill
0 0.666667 1 setrgbcolor
400 781  moveto
395.063 770.847 399.061 752.473 411 766  curveto
413.263 768.563 410.75 779.832 406 782  curveto
fill
0 0.666667 1 setrgbcolor
313 784  moveto
299.568 776.062 310.997 756.313 324 765  curveto
328.489 767.999 325.818 779.21 322 784  curveto
fill
1 1 0.772549 setrgbcolor
364 880  moveto
363.73 890.086 377.403 902.331 386 907  curveto
380 904 lineto
406.302 878.987 407.673 807.988 407 774 curveto
406 770 lineto
413.209 787.649 415.81 824.695 415 844 curveto
415 838 lineto
421.848 797.832 433.335 717.295 429 677 curveto
429 677 lineto
437.228 697.71 443.454 741.309 437 764 curveto
429 785 lineto
436.8 774.405 443.106 749.884 443 737 curveto
440 734 lineto
445.997 754.589 450.143 795.794 437 815 curveto
431 820 lineto
439.092 812.017 451.877 794.565 453 782 curveto
452 779 lineto
461.405 826.205 430.006 895.132 390 919 curveto
390 919 lineto
379.104 916.688 365.238 903.231 361 893 curveto
fill
0 0 0 setrgbcolor
378 784  moveto
378.987 785.229 379.013 788.771 380 790  curveto
 stroke
0 0 0 setrgbcolor
378 784  moveto
389.524 787.496 410.034 797.904 422 792  curveto
 stroke
0 0 0 setrgbcolor
379 789  moveto
391.335 790.567 409.961 803.417 421 794  curveto
 stroke
0 0 0 setrgbcolor
382 782  moveto
382.445 779.282 381.607 774.114 380 772  curveto
 stroke
0 0 0 setrgbcolor
413 783  moveto
417.488 777.576 416.226 764.262 413 758  curveto
 stroke
0 0 0 setrgbcolor
381 782  moveto
388.923 784.275 404.841 783.952 413 783  curveto
 stroke
0 0 0 setrgbcolor
276 787  moveto
289.36 790.792 315.176 782.438 328 782  curveto
327.548 779.399 329.661 775.033 331 773  curveto
 stroke
0 0 0 setrgbcolor
279 787  moveto
278.198 781.117 280.322 769.71 282 764  curveto
 stroke
0 0 0 setrgbcolor
282 766  moveto
284.774 753.737 303.516 754.041 313 754  curveto
 stroke
0 0 0 setrgbcolor
400 781  moveto
395.063 770.847 399.061 752.473 411 766  curveto
413.263 768.563 410.75 779.832 406 782  curveto
 stroke
0 0 0 setrgbcolor
313 784  moveto
299.568 776.062 310.997 756.313 324 765  curveto
328.489 767.999 325.818 779.21 322 784  curveto
 stroke
0 0 0 setrgbcolor
364 880  moveto
363.73 890.086 377.403 902.331 386 907  curveto
 stroke
0 0 0 setrgbcolor
361 893  moveto
365.238 903.231 379.104 916.688 390 919  curveto
 stroke
0 0 0 setrgbcolor
390 919  moveto
430.006 895.132 461.405 826.205 452 779  curveto
 stroke
0 0 0 setrgbcolor
431 820  moveto
439.092 812.017 451.877 794.565 453 782  curveto
 stroke
0 0 0 setrgbcolor
437 815  moveto
450.143 795.794 445.997 754.589 440 734  curveto
 stroke
0 0 0 setrgbcolor
429 785  moveto
436.8 774.405 443.106 749.884 443 737  curveto
 stroke
0 0 0 setrgbcolor
437 764  moveto
443.454 741.309 437.228 697.71 429 677  curveto
 stroke
0 0 0 setrgbcolor
415 838  moveto
421.848 797.832 433.335 717.295 429 677  curveto
 stroke
0 0 0 setrgbcolor
415 844  moveto
415.81 824.695 413.209 787.649 406 770  curveto
 stroke
0 0 0 setrgbcolor
380 904  moveto
406.302 878.987 407.673 807.988 407 774  curveto
 stroke
1 1 0.772549 setrgbcolor
336 792  moveto
316.069 788.734 282.404 817.611 261 802  curveto
262 802 lineto
281.863 804.553 316.211 791.105 332 783 curveto
333 782 lineto
336.691 783.361 337.72 789.677 337 793 curveto
fill
0 0 0 setrgbcolor
337 793  moveto
337.72 789.677 336.691 783.361 333 782  curveto
 stroke
0 0 0 setrgbcolor
332 783  moveto
316.211 791.105 281.863 804.553 262 802  curveto
 stroke
0 0 0 setrgbcolor
261 802  moveto
282.404 817.611 316.069 788.734 336 792  curveto
 stroke
0 0 0 setrgbcolor
360 894  moveto
361.778 924.265 398.026 961.974 419 978  curveto
 stroke
0 0 0 setrgbcolor
419 979  moveto
387.053 967.33 352.096 932.346 360 891  curveto
 stroke
1 1 0.772549 setrgbcolor
352 895  moveto
350.796 903.305 342.056 916.612 333 918  curveto
336 916 lineto
303.812 902.804 235.013 872.149 228 834 curveto
227 834 lineto
228.493 839.133 236.649 844.628 241 847 curveto
242 847 lineto
236.082 813.621 232.088 748.359 239 716 curveto
239 711 lineto
237.199 727.47 242.471 759.219 249 774 curveto
248 774 lineto
251.389 739.316 262.287 671.489 268 638 curveto
267 633 lineto
258.275 693.502 278.893 808.028 294 867 curveto
295 869 lineto
293.724 851.739 298.903 817.484 307 801 curveto
306 803 lineto
300.871 833.863 321.581 883.794 336 907 curveto
336 907 lineto
343.212 902.489 349.605 888.382 349 880 curveto
fill
0 0 0 setrgbcolor
336 907  moveto
321.581 883.794 300.871 833.863 306 803  curveto
 stroke
0 0 0 setrgbcolor
336 907  moveto
343.212 902.489 349.605 888.382 349 880  curveto
 stroke
0 0 0 setrgbcolor
307 801  moveto
298.903 817.484 293.724 851.739 295 869  curveto
 stroke
0 0 0 setrgbcolor
294 867  moveto
278.893 808.028 258.275 693.502 267 633  curveto
 stroke
0 0 0 setrgbcolor
248 774  moveto
251.389 739.316 262.287 671.489 268 638  curveto
 stroke
0 0 0 setrgbcolor
249 774  moveto
242.471 759.219 237.199 727.47 239 711  curveto
 stroke
0 0 0 setrgbcolor
242 847  moveto
236.082 813.621 232.088 748.359 239 716  curveto
 stroke
0 0 0 setrgbcolor
352 895  moveto
350.796 903.305 342.056 916.612 333 918  curveto
 stroke
0 0 0 setrgbcolor
336 916  moveto
303.812 902.804 235.013 872.149 228 834  curveto
 stroke
0 0 0 setrgbcolor
241 847  moveto
236.649 844.628 228.493 839.133 227 834  curveto
 stroke
