%!PS-Adobe-3.0 EPSF-3.0
%%BoundingBox: -5 -5 1005 1005
1 1 0.772549 setrgbcolor
217.8 636.2  moveto
201.501 626.92 187.062 605.537 213 602.6  curveto
213 602.6 lineto
213.66 602.593 214.68 602.53 215.618 602.57 curveto
215.618 602.57 lineto
216.588 602.731 217.581 602.896 218.232 603.004 curveto
218.232 603.004 lineto
246.976 592.976 248.074 620.996 226.012 634.861 curveto
226.012 634.861 lineto
225.466 635.043 224.741 635.223 224.054 635.4 curveto
224.054 635.4 lineto
224.247 635.6 224.639 636 224.831 636.2 curveto
224.831 636.2 lineto
222.99 636.2 219.565 636.2 217.8 636.2 curveto
fill
0 0 0 setrgbcolor
217.8 636.2  moveto
201.501 626.92 187.062 605.537 213 602.6  curveto
 stroke
1 1 0.772549 setrgbcolor
212.6 680.4  moveto
188.47 659.422 199.626 634.212 230.8 628.6  curveto
230.8 628.6 lineto
230.813 628.406 230.827 628.014 230.843 627.822 curveto
230.843 627.822 lineto
230.963 627.873 231.139 627.952 231.239 627.993 curveto
231.239 627.993 lineto
261.747 627.198 237.314 677.547 215.712 681.18 curveto
215.712 681.18 lineto
215.559 681.033 215.318 680.768 215.124 680.566 curveto
215.124 680.566 lineto
214.477 680.503 213.235 680.446 212.6 680.4 curveto
fill
0 0 0 setrgbcolor
212.6 680.4  moveto
188.47 659.422 199.626 634.212 230.8 628.6  curveto
 stroke
1 1 0.772549 setrgbcolor
399.6 913.2  moveto
393.228 936.398 358.894 947.358 336 944.2  curveto
336 944.2 lineto
336.25 944.6 336.75 945.4 337 945.8 curveto
337 945.8 lineto
302.92 957.06 243.893 941.546 230.6 902.6 curveto
230.6 902.6 lineto
230.8 903.05 231.2 903.95 231.4 904.4 curveto
231.4 904.4 lineto
218.067 884.448 208.847 837.862 204.6 814.6 curveto
204.6 814.6 lineto
204.8 815 205.2 815.8 205.4 816.2 curveto
205.4 816.2 lineto
200.485 803.64 207.885 778.614 208.8 765.6 curveto
208.8 765.6 lineto
210.319 766.754 212.574 768.632 214.325 769.914 curveto
214.325 769.914 lineto
220.964 774.043 230.775 779.897 236.094 783.274 curveto
236.094 783.274 lineto
258.139 861.054 290.378 898.53 366.473 882.48 curveto
366.473 882.48 lineto
377.126 880.244 386.937 873.357 396.568 864.759 curveto
396.568 864.759 lineto
408.836 854.985 417.75 824.525 416.792 803.001 curveto
416.792 803.001 lineto
417 798.991 416.504 795.586 415.157 793.297 curveto
415.157 793.297 lineto
411.25 824.684 403.487 883.392 399.6 913.2 curveto
fill
1 1 0.772549 setrgbcolor
236.8 660.4  moveto
198.606 669.002 187.191 734.158 211.2 763.4  curveto
211.2 763.4 lineto
213.502 764.661 217.97 767.102 220.525 768.515 curveto
220.525 768.515 lineto
220.697 768.615 220.859 768.71 221.01 768.798 curveto
221.01 768.798 lineto
266.272 764.372 267.362 683.963 240.53 661.092 curveto
240.53 661.092 lineto
240.229 660.933 239.709 660.663 239.345 660.473 curveto
239.345 660.473 lineto
238.692 660.446 237.443 660.421 236.8 660.4 curveto
fill
0 0 0 setrgbcolor
337 945.8  moveto
302.92 957.06 243.893 941.546 230.6 902.6  curveto
 stroke
0 0 0 setrgbcolor
231.4 904.4  moveto
218.067 884.448 208.847 837.862 204.6 814.6  curveto
 stroke
0 0 0 setrgbcolor
205.4 816.2  moveto
200.485 803.64 207.885 778.614 208.8 765.6  curveto
 stroke
0 0 0 setrgbcolor
211.2 763.4  moveto
187.191 734.158 198.606 669.002 236.8 660.4  curveto
 stroke
0 0 0 setrgbcolor
336 944.2  moveto
358.894 947.358 393.228 936.398 399.6 913.2  curveto
 stroke
1 0.886275 0.745098 setrgbcolor
247.6 689.4  moveto
247.994 677.863 248.949 655.28 244.6 644.2  curveto
244.6 644.2 lineto
244.625 643.499 244.663 642.147 244.701 641.396 curveto
244.701 641.396 lineto
244.741 641.238 244.782 641.081 244.81 640.973 curveto
244.81 640.973 lineto
268.139 589.003 352.759 562.958 341.907 629.575 curveto
341.907 629.575 lineto
340.701 631.206 338.294 634.436 337.087 636.067 curveto
337.087 636.067 lineto
335.755 637.613 334.282 639.355 332.683 641.25 curveto
332.683 641.25 lineto
311.783 658.259 273.424 691.817 248.427 689.394 curveto
248.427 689.394 lineto
248.55 688.633 248.194 687.346 247.612 686.997 curveto
247.612 686.997 lineto
247.608 687.598 247.604 688.799 247.6 689.4 curveto
fill
1 0.886275 0.745098 setrgbcolor
409.2 718.4  moveto
423.648 727.915 435.583 768.076 411.4 764.8  curveto
411.4 764.8 lineto
410.802 764.389 409.604 763.578 409.006 763.166 curveto
409.006 763.166 lineto
398.966 753.203 395.062 729.568 407.596 720.021 curveto
407.596 720.021 lineto
407.998 719.614 408.799 718.807 409.2 718.4 curveto
fill
1 0.886275 0.745098 setrgbcolor
237.8 712.4  moveto
214.54 724.115 192.071 781.096 233.6 777.8  curveto
233.6 777.8 lineto
233.382 777.482 233.066 776.966 232.78 776.58 curveto
232.78 776.58 lineto
232.176 775.955 231.435 775.193 231.004 774.742 curveto
231.004 774.742 lineto
236.567 767.143 242.232 753.086 242.021 741.359 curveto
242.021 741.359 lineto
242.192 741.141 242.262 742.259 242.334 742.032 curveto
242.334 742.032 lineto
243.166 733.027 244.261 721.511 244.011 713.893 curveto
244.011 713.893 lineto
243.282 713.859 242.021 714.955 241.16 715.267 curveto
241.16 715.267 lineto
240.303 714.585 238.649 713.097 237.8 712.4 curveto
fill
1 0.886275 0.745098 setrgbcolor
240 714.6  moveto
239.788 682.652 281.947 644.77 306.6 629  curveto
306.6 629 lineto
306.45 629 306.15 629 306 629 curveto
306 629 lineto
317.32 627.494 339.871 627.8 351.2 628 curveto
351.2 628 lineto
351.25 627.95 351.35 627.85 351.4 627.8 curveto
351.4 627.8 lineto
382.221 642.128 409.413 691.646 408.4 723.4 curveto
408.4 723.4 lineto
408.4 723.202 408.4 722.803 408.4 722.605 curveto
408.4 722.605 lineto
409.03 729.742 409.431 741.184 409.926 750.597 curveto
409.926 750.597 lineto
411.886 765.533 413.714 783.241 416.345 794.439 curveto
416.345 794.439 lineto
416.545 794.64 416.946 795.042 417.146 795.243 curveto
417.146 795.243 lineto
424.695 817.654 412.737 863.664 394.97 873.014 curveto
394.97 873.014 lineto
391.033 875.203 387.049 876.967 382.993 878.203 curveto
382.993 878.203 lineto
293.765 905.299 259.742 867.049 236.673 783.646 curveto
236.673 783.646 lineto
236.521 782.531 236.377 781.355 236.239 780.13 curveto
236.239 780.13 lineto
237.278 763.054 239.072 730.899 240 714.6 curveto
fill
0 0 0 setrgbcolor
334.6 711  moveto
334.206 709.914 335.349 707.5 336.4 706.4  curveto
 stroke
0 0 0 setrgbcolor
334.4 712.6  moveto
333.08 710.823 333.087 707.758 334.8 706.6  curveto
 stroke
0 0 0 setrgbcolor
350.6 719.2  moveto
352.539 714.787 350.706 704.548 348.6 700  curveto
 stroke
0 0 0 setrgbcolor
350.6 717.4  moveto
355.618 711.124 356.174 702.27 348.2 698.2  curveto
 stroke
0 0 0 setrgbcolor
357.8 673.4  moveto
344.079 684.082 320.295 677.557 309 668.4  curveto
 stroke
0 0 0 setrgbcolor
306 629  moveto
317.32 627.494 339.871 627.8 351.2 628  curveto
 stroke
0 0 0 setrgbcolor
233.6 777.8  moveto
192.071 781.096 214.54 724.115 237.8 712.4  curveto
 stroke
0 0 0 setrgbcolor
218.4 764  moveto
227.374 766.88 237.629 756.222 236.6 747  curveto
 stroke
0 0 0 setrgbcolor
351.4 627.8  moveto
382.221 642.128 409.413 691.646 408.4 723.4  curveto
 stroke
0 0 0 setrgbcolor
411.4 764.8  moveto
435.583 768.076 423.648 727.915 409.2 718.4  curveto
 stroke
0 0 0 setrgbcolor
420.4 751.2  moveto
416.577 751.092 410.156 746.594 409.2 742  curveto
 stroke
0 0 0 setrgbcolor
325 904  moveto
327.061 900.803 330.618 894.09 332.4 890.8  curveto
 stroke
0 0 0 setrgbcolor
318.4 894.2  moveto
320.47 892.277 323.766 887.755 325.2 885.4  curveto
 stroke
0 0 0 setrgbcolor
364.6 884.6  moveto
369.482 888.612 378.015 897.593 381.8 902.4  curveto
 stroke
0 0 0 setrgbcolor
369 883.2  moveto
372.153 887.023 378.717 894.468 382.4 897.8  curveto
 stroke
0 0 0 setrgbcolor
380 885.6  moveto
381.132 886.989 383.834 889.271 385.6 889.8  curveto
 stroke
0 0 0 setrgbcolor
247.6 689.4  moveto
247.994 677.863 248.949 655.28 244.6 644.2  curveto
 stroke
0 0 0 setrgbcolor
306.6 629  moveto
281.947 644.77 239.788 682.652 240 714.6  curveto
 stroke
1 1 0.772549 setrgbcolor
413.8 794.6  moveto
401.95 804.592 380.754 795.143 368.4 790  curveto
368.4 790 lineto
368.55 790.25 368.85 790.75 369 791 curveto
369 791 lineto
368.391 789.68 369.02 786.687 368.6 785.8 curveto
368.6 785.8 lineto
368.5 785.7 368.3 785.5 368.2 785.4 curveto
368.2 785.4 lineto
379.352 790.925 402.326 798.706 414.6 792.6 curveto
414.6 792.6 lineto
414.4 793.1 414 794.1 413.8 794.6 curveto
fill
1 1 0.772549 setrgbcolor
352.8 898  moveto
355.521 928.35 394.781 966.276 416.2 983.4  curveto
416.2 983.4 lineto
416.35 983.6 416.65 984 416.8 984.2 curveto
416.8 984.2 lineto
384.514 972.514 346.726 935.494 352.2 895.2 curveto
352.2 895.2 lineto
352.35 895.9 352.65 897.3 352.8 898 curveto
fill
1 1 1 setrgbcolor
406.4 782.6  moveto
397.47 784.299 379.387 784.648 370.4 782.6  curveto
370.4 782.6 lineto
370.6 782.6 371 782.6 371.2 782.6 curveto
371.2 782.6 lineto
371.231 780.188 370.294 775.314 369 773.2 curveto
369 773.2 lineto
369.007 772.345 368.98 770.961 369.01 769.92 curveto
369.01 769.92 lineto
369.169 768.144 369.386 766.021 369.513 764.724 curveto
369.513 764.724 lineto
372.119 754.536 389.101 755.066 397.497 755.949 curveto
397.497 755.949 lineto
397.964 756.11 398.586 756.323 399.251 756.55 curveto
399.251 756.55 lineto
400.823 757.074 402.982 757.794 404.2 758.2 curveto
404.2 758.2 lineto
407.266 764.356 409.381 777.204 406.4 782.6 curveto
fill
1 1 1 setrgbcolor
318.8 775.2  moveto
317.661 777.486 315.074 781.742 315 784.2  curveto
315 784.2 lineto
314.9 784.2 314.7 784.2 314.6 784.2 curveto
314.6 784.2 lineto
302.244 784.822 277.581 792.491 264.8 789.6 curveto
264.8 789.6 lineto
265.4 789.7 266.6 789.9 267.2 790 curveto
267.2 790 lineto
265.887 783.783 268.022 771.615 270 765.6 curveto
270 765.6 lineto
270.1 765.8 270.3 766.2 270.4 766.4 curveto
270.4 766.4 lineto
273.33 755.988 290.073 755.732 298.6 755.8 curveto
298.6 755.8 lineto
299.502 755.85 301.186 755.95 302.285 756 curveto
302.285 756 lineto
302.488 756.001 302.675 756.003 302.834 756.004 curveto
302.834 756.004 lineto
307.111 756.098 312.971 760.433 315.773 763.628 curveto
315.773 763.628 lineto
316.518 765.632 317.44 769.022 318.089 771.692 curveto
318.089 771.692 lineto
318.066 772.142 318.328 772.682 318.604 772.922 curveto
318.604 772.922 lineto
318.676 773.618 318.742 774.582 318.8 775.2 curveto
fill
0 0.666667 1 setrgbcolor
388.8 781  moveto
382.867 770.44 390.693 752.204 401.6 766.8  curveto
401.6 766.8 lineto
403.65 769.519 401.21 780.289 396.6 782.2 curveto
396.6 782.2 lineto
396.595 782.249 396.59 782.348 396.585 782.398 curveto
396.585 782.398 lineto
394.597 782.594 390.895 782.069 389.259 781.01 curveto
389.259 781.01 lineto
389.139 781.007 388.919 781.003 388.8 781 curveto
fill
0 0.666667 1 setrgbcolor
298.2 785.8  moveto
285.873 773.684 299.171 759.229 309.8 767.8  curveto
309.8 767.8 lineto
313.554 771.368 310.63 782.772 306 786 curveto
306 786 lineto
304.05 785.95 300.15 785.85 298.2 785.8 curveto
fill
1 1 0.772549 setrgbcolor
355.8 883.6  moveto
356.452 894.405 371.554 906.802 381 911  curveto
381 911 lineto
379.45 910.2 376.35 908.6 374.8 907.8 curveto
374.8 907.8 lineto
402.169 881.811 400 808.795 398 774 curveto
398 774 lineto
397.85 773.4 397.55 772.2 397.4 771.6 curveto
397.4 771.6 lineto
405.744 789.271 409.806 827.031 409.2 846.8 curveto
409.2 846.8 lineto
409.4 845.35 409.8 842.45 410 841 curveto
410 841 lineto
416.02 799.85 422.552 717.371 420.8 676.2 curveto
420.8 676.2 lineto
420.75 676 420.65 675.6 420.6 675.4 curveto
420.6 675.4 lineto
422.166 677.769 423.27 682.948 423 685.6 curveto
423 685.6 lineto
422.95 684.9 422.85 683.5 422.8 682.8 curveto
422.8 682.8 lineto
423.75 680.858 424.846 677.017 424.2 675 curveto
424.2 675 lineto
424.2 674.7 424.2 674.1 424.2 673.8 curveto
424.2 673.8 lineto
432.335 694.941 437.421 739.185 431.4 762 curveto
431.4 762 lineto
429.824 765.878 426.652 773.904 425.083 777.695 curveto
425.083 777.695 lineto
431.482 767.102 436.756 744.427 436.797 732.435 curveto
436.797 732.435 lineto
436.198 731.823 434.999 730.611 434.4 730 curveto
434.4 730 lineto
439.544 752.973 445.352 799.24 432.4 820.4 curveto
432.4 820.4 lineto
431.15 821.35 428.65 823.25 427.4 824.2 curveto
427.4 824.2 lineto
435.379 815.551 446.564 796.257 447 783.4 curveto
447 783.4 lineto
446.8 782.75 446.4 781.45 446.2 780.8 curveto
446.2 780.8 lineto
456.637 827.197 425.799 898.757 386.2 922.8 curveto
386.2 922.8 lineto
386.2 922.75 386.2 922.65 386.2 922.6 curveto
386.2 922.6 lineto
375.032 920.602 359.632 907.339 354.2 897.6 curveto
354.2 897.6 lineto
354.6 894.1 355.4 887.1 355.8 883.6 curveto
fill
1 1 0.772549 setrgbcolor
323.6 794.6  moveto
303.641 792.148 269.405 819.967 249.6 803.8  curveto
249.6 803.8 lineto
250.15 804 251.25 804.4 251.8 804.6 curveto
251.8 804.6 lineto
270.906 807.229 303.809 794.132 319.2 786.6 curveto
319.2 786.6 lineto
319.4 786.45 319.8 786.15 320 786 curveto
320 786 lineto
323.406 787.062 324.761 792.636 324.4 795.6 curveto
324.4 795.6 lineto
324.2 795.35 323.8 794.85 323.6 794.6 curveto
fill
0 0 0 setrgbcolor
406.4 782.6  moveto
409.381 777.204 407.266 764.356 404.2 758.2  curveto
 stroke
0 0 0 setrgbcolor
355.8 883.6  moveto
356.452 894.405 371.554 906.802 381 911  curveto
 stroke
0 0 0 setrgbcolor
354.2 897.6  moveto
359.632 907.339 375.032 920.602 386.2 922.6  curveto
 stroke
0 0 0 setrgbcolor
386.2 922.8  moveto
425.799 898.757 456.637 827.197 446.2 780.8  curveto
 stroke
0 0 0 setrgbcolor
427.4 824.2  moveto
435.379 815.551 446.564 796.257 447 783.4  curveto
 stroke
0 0 0 setrgbcolor
432.4 820.4  moveto
445.352 799.24 439.544 752.973 434.4 730  curveto
 stroke
0 0 0 setrgbcolor
410 841  moveto
416.02 799.85 422.552 717.371 420.8 676.2  curveto
 stroke
0 0 0 setrgbcolor
374.8 907.8  moveto
402.169 881.811 400 808.795 398 774  curveto
 stroke
0 0 0 setrgbcolor
431.4 762  moveto
437.421 739.185 432.335 694.941 424.2 673.8  curveto
 stroke
0 0 0 setrgbcolor
368.2 785.4  moveto
379.352 790.925 402.326 798.706 414.6 792.6  curveto
 stroke
0 0 0 setrgbcolor
367.4 786.2  moveto
368.37 786.846 369.04 789.521 370.2 790.6  curveto
 stroke
0 0 0 setrgbcolor
368.4 790  moveto
380.754 795.143 401.95 804.592 413.8 794.6  curveto
 stroke
0 0 0 setrgbcolor
371.2 782.6  moveto
371.231 780.188 370.294 775.314 369 773.2  curveto
 stroke
0 0 0 setrgbcolor
370.4 782.6  moveto
379.387 784.648 397.47 784.299 406.4 782.6  curveto
 stroke
0 0 0 setrgbcolor
388.8 781  moveto
382.867 770.44 390.693 752.204 401.6 766.8  curveto
 stroke
0 0 0 setrgbcolor
401.6 766.8  moveto
403.65 769.519 401.21 780.289 396.6 782.2  curveto
 stroke
0 0 0 setrgbcolor
409.2 846.8  moveto
409.806 827.031 405.744 789.271 397.4 771.6  curveto
 stroke
0 0 0 setrgbcolor
267.2 790  moveto
265.887 783.783 268.022 771.615 270 765.6  curveto
 stroke
0 0 0 setrgbcolor
270.4 766.4  moveto
273.33 755.988 290.073 755.732 298.6 755.8  curveto
 stroke
0 0 0 setrgbcolor
298.2 785.8  moveto
285.873 773.684 299.171 759.229 309.8 767.8  curveto
 stroke
0 0 0 setrgbcolor
315 784.2  moveto
315.074 781.742 317.661 777.486 318.8 775.2  curveto
 stroke
0 0 0 setrgbcolor
264.8 789.6  moveto
277.581 792.491 302.244 784.822 314.6 784.2  curveto
 stroke
0 0 0 setrgbcolor
309.8 767.8  moveto
313.554 771.368 310.63 782.772 306 786  curveto
 stroke
0 0 0 setrgbcolor
319.2 786.6  moveto
303.809 794.132 270.906 807.229 251.8 804.6  curveto
 stroke
0 0 0 setrgbcolor
324.4 795.6  moveto
324.761 792.636 323.406 787.062 320 786  curveto
 stroke
0 0 0 setrgbcolor
249.6 803.8  moveto
269.405 819.967 303.641 792.148 323.6 794.6  curveto
 stroke
0 0 0 setrgbcolor
416.8 984.2  moveto
384.514 972.514 346.726 935.494 352.2 895.2  curveto
 stroke
0 0 0 setrgbcolor
352.8 898  moveto
355.521 928.35 394.781 966.276 416.2 983.4  curveto
 stroke
1 1 0.772549 setrgbcolor
344.8 898  moveto
343.76 906.634 335.524 921.029 326.2 923  curveto
326.2 923 lineto
327 922.5 328.6 921.5 329.4 921 curveto
329.4 921 lineto
296.849 908.283 229.865 877.01 220.6 840.4 curveto
220.6 840.4 lineto
220.554 840.6 220.5 841 220.396 841.2 curveto
220.396 841.2 lineto
220.172 840.95 220.204 840.85 220.2 840.8 curveto
220.2 840.8 lineto
221.929 845.48 229.626 850.925 233.8 853.2 curveto
233.8 853.2 lineto
234.05 853.1 234.55 852.9 234.8 852.8 curveto
234.8 852.8 lineto
226.145 819.165 220.655 751.845 228.4 718.2 curveto
228.4 718.2 lineto
228.45 717.55 228.55 716.25 228.6 715.6 curveto
228.6 715.6 lineto
226.625 731.499 231.934 761.953 238.2 776.2 curveto
238.2 776.2 lineto
237.95 776.1 237.45 775.9 237.2 775.8 curveto
237.2 775.8 lineto
238.914 740.519 250.89 672.318 258.4 639 curveto
258.4 639 lineto
258.25 638 257.95 636 257.8 635 curveto
257.8 635 lineto
249.27 696.429 268.651 812.438 286.2 871 curveto
286.2 871 lineto
286.55 871.95 287.25 873.85 287.6 874.8 curveto
287.6 874.8 lineto
285.744 857.399 288.88 823.16 296.2 806.4 curveto
296.2 806.4 lineto
296 806.35 295.6 806.25 295.4 806.2 curveto
295.4 806.2 lineto
291.669 836.836 311.649 888.632 329 911.6 curveto
329 911.6 lineto
329.1 911.45 329.3 911.15 329.4 911 curveto
329.4 911 lineto
336.374 906.116 342.022 892.003 340.6 883.8 curveto
340.6 883.8 lineto
341.65 887.35 343.75 894.45 344.8 898 curveto
fill
0 0 0 setrgbcolor
238.2 776.2  moveto
231.934 761.953 226.625 731.499 228.6 715.6  curveto
 stroke
0 0 0 setrgbcolor
329.4 911  moveto
336.374 906.116 342.022 892.003 340.6 883.8  curveto
 stroke
0 0 0 setrgbcolor
344.8 898  moveto
343.76 906.634 335.524 921.029 326.2 923  curveto
 stroke
0 0 0 setrgbcolor
329 911.6  moveto
311.649 888.632 291.669 836.836 295.4 806.2  curveto
 stroke
0 0 0 setrgbcolor
296.2 806.4  moveto
288.88 823.16 285.744 857.399 287.6 874.8  curveto
 stroke
0 0 0 setrgbcolor
286.2 871  moveto
268.651 812.438 249.27 696.429 257.8 635  curveto
 stroke
0 0 0 setrgbcolor
237.2 775.8  moveto
238.914 740.519 250.89 672.318 258.4 639  curveto
 stroke
0 0 0 setrgbcolor
234.8 852.8  moveto
226.145 819.165 220.655 751.845 228.4 718.2  curveto
 stroke
0 0 0 setrgbcolor
329.4 921  moveto
296.849 908.283 229.865 877.01 220.6 840.4  curveto
 stroke
0 0 0 setrgbcolor
233.8 853.2  moveto
229.626 850.925 221.929 845.48 220.2 840.8  curveto
 stroke
