%!PS-Adobe-3.0 EPSF-3.0
%%BoundingBox: -5 -5 1005 1005
1 1 0.772549 setrgbcolor
211.6 636.4  moveto
194.987 625.925 187.159 607.167 211 604.2  curveto
211 604.2 lineto
211.62 604.07 212.635 603.773 213.464 603.677 curveto
213.464 603.677 lineto
214.205 603.8 214.962 603.925 215.464 604.008 curveto
215.464 604.008 lineto
242.243 597.137 240.28 623.936 220.009 635.396 curveto
220.009 635.396 lineto
219.249 635.532 218.138 635.667 217.108 635.8 curveto
217.108 635.8 lineto
217.243 635.95 217.528 636.25 217.663 636.4 curveto
217.663 636.4 lineto
215.98 636.4 213.13 636.4 211.6 636.4 curveto
fill
0 0 0 setrgbcolor
211.6 636.4  moveto
194.987 625.925 187.159 607.167 211 604.2  curveto
 stroke
1 1 0.772549 setrgbcolor
206.2 680.8  moveto
184.045 658.951 196.265 633.752 226.6 628.2  curveto
226.6 628.2 lineto
226.626 628.063 226.655 627.777 226.686 627.643 curveto
226.686 627.643 lineto
226.909 627.748 227.245 627.909 227.429 627.995 curveto
227.429 627.995 lineto
255.733 632.153 231.265 678.933 209.284 682.385 curveto
209.284 682.385 lineto
209.025 682.083 208.589 681.544 208.249 681.132 curveto
208.249 681.132 lineto
207.705 681.006 206.719 680.892 206.2 680.8 curveto
fill
0 0 0 setrgbcolor
206.2 680.8  moveto
184.045 658.951 196.265 633.752 226.6 628.2  curveto
 stroke
1 1 0.772549 setrgbcolor
230.6 659.8  moveto
193.087 669.853 179.363 732.499 202.4 762.8  curveto
202.4 762.8 lineto
204.689 763.933 209.165 766.139 211.644 767.386 curveto
211.644 767.386 lineto
211.777 767.461 211.902 767.531 212.02 767.596 curveto
212.02 767.596 lineto
257.421 762.129 260.429 686.613 234.897 661.069 curveto
234.897 661.069 lineto
234.351 660.789 233.363 660.288 232.691 659.945 curveto
232.691 659.945 lineto
232.134 659.892 231.136 659.843 230.6 659.8 curveto
fill
0 0 0 setrgbcolor
202.4 762.8  moveto
179.363 732.499 193.087 669.853 230.6 659.8  curveto
 stroke
1 1 0.772549 setrgbcolor
396.2 916.4  moveto
390.382 940.27 355.212 952.345 332 949.4  curveto
332 949.4 lineto
332.75 949.7 334.25 950.3 335 950.6 curveto
335 950.6 lineto
299.814 961.593 239.386 948.04 227.2 907.2 curveto
227.2 907.2 lineto
227.35 907.85 227.65 909.15 227.8 909.8 curveto
227.8 909.8 lineto
212.39 890.197 202.74 842.875 199.2 819.2 curveto
199.2 819.2 lineto
199.35 819.5 199.65 820.1 199.8 820.4 curveto
199.8 820.4 lineto
195.351 807.894 201.03 782.991 202.6 770.2 curveto
202.6 770.2 lineto
204.489 771.878 207.68 774.912 209.743 776.685 curveto
209.743 776.685 lineto
214.754 780.41 222.151 785.414 226.188 788.547 curveto
226.188 788.547 lineto
244.879 874.348 288.065 902.046 370.855 883.36 curveto
370.855 883.36 lineto
382.227 880.809 390.931 870.197 398.136 857.517 curveto
398.136 857.517 lineto
407.318 843.723 412.516 813.569 409.594 793.5 curveto
409.594 793.5 lineto
409.734 791.796 409.343 790.714 408.313 790.593 curveto
408.313 790.593 lineto
405.25 824.868 399.224 885.284 396.2 916.4 curveto
fill
1 0.886275 0.745098 setrgbcolor
243.2 682.8  moveto
243.54 671.976 245.048 650.822 242.2 640.4  curveto
242.2 640.4 lineto
242.25 639.748 242.326 638.545 242.402 637.792 curveto
242.402 637.792 lineto
242.479 637.488 242.555 637.185 242.607 636.979 curveto
242.607 636.979 lineto
269.606 589.152 352.57 563.667 340.814 630.151 curveto
340.814 630.151 lineto
339.901 631.412 338.088 633.873 337.174 635.134 curveto
337.174 635.134 lineto
336.073 636.748 334.849 638.527 333.512 640.437 curveto
333.512 640.437 lineto
311.224 654.754 269.237 683.04 243.853 682.787 curveto
243.853 682.787 lineto
243.939 682.218 243.666 681.254 243.223 680.995 curveto
243.223 680.995 lineto
243.215 681.446 243.208 682.348 243.2 682.8 curveto
fill
1 0.886275 0.745098 setrgbcolor
404.4 716.8  moveto
422.342 729.069 431.365 773.071 403.8 764.6  curveto
403.8 764.6 lineto
403.354 764.278 402.458 763.655 402.012 763.333 curveto
402.012 763.333 lineto
395.045 752.605 393.231 728.446 403.193 718.041 curveto
403.193 718.041 lineto
403.495 717.727 404.098 717.114 404.4 716.8 curveto
fill
1 0.886275 0.745098 setrgbcolor
227.6 715.8  moveto
206.258 728.985 181.826 782.884 223.2 780.6  curveto
223.2 780.6 lineto
222.974 780.174 222.612 779.412 222.335 778.935 curveto
222.335 778.935 lineto
221.883 778.442 221.33 777.847 221.009 777.485 curveto
221.009 777.485 lineto
225.498 767.93 233.241 750.245 231.266 737.769 curveto
231.266 737.769 lineto
231.332 739.293 231.259 743.506 231.251 745.024 curveto
231.251 745.024 lineto
232.299 734.954 234.832 719.754 235.258 710.67 curveto
235.258 710.67 lineto
234.023 712.078 231.758 715.649 230.32 717.534 curveto
230.32 717.534 lineto
229.606 717.171 228.299 716.194 227.6 715.8 curveto
fill
1 0.886275 0.745098 setrgbcolor
232 714.2  moveto
231.771 681.8 273.544 644.044 297.2 627  curveto
297.2 627 lineto
297.15 627 297.05 627 297 627 curveto
297 627 lineto
308.596 625.375 331.751 624.487 343.4 625 curveto
343.4 625 lineto
343.25 624.9 342.95 624.7 342.8 624.6 curveto
342.8 624.6 lineto
373.798 638.708 403.938 687.133 403.8 720.8 curveto
403.8 720.8 lineto
403.8 720.653 403.8 720.356 403.8 720.209 curveto
403.8 720.209 lineto
404.148 728.814 404.198 743.89 404.444 754.197 curveto
404.444 754.197 lineto
406.886 767.13 409.089 782.798 411.69 793.878 curveto
411.69 793.878 lineto
411.841 794.031 412.141 794.333 412.292 794.486 curveto
412.292 794.486 lineto
419.67 818.623 410.899 862.663 394.941 874.028 curveto
394.941 874.028 lineto
391.291 876.823 387.406 878.936 383.245 880.152 curveto
383.245 880.152 lineto
290.043 907.268 245.252 878.859 226.505 786.984 curveto
226.505 786.984 lineto
226.48 785.522 226.472 783.937 226.477 782.26 curveto
226.477 782.26 lineto
228.056 763.858 230.643 731.047 232 714.2 curveto
fill
0 0 0 setrgbcolor
335 950.6  moveto
299.814 961.593 239.386 948.04 227.2 907.2  curveto
 stroke
0 0 0 setrgbcolor
227.8 909.8  moveto
212.39 890.197 202.74 842.875 199.2 819.2  curveto
 stroke
0 0 0 setrgbcolor
199.8 820.4  moveto
195.351 807.894 201.03 782.991 202.6 770.2  curveto
 stroke
0 0 0 setrgbcolor
322.2 714  moveto
320.911 711.829 322.198 707 323.8 704.8  curveto
 stroke
0 0 0 setrgbcolor
321.8 715.2  moveto
319.159 712.146 319.174 707.016 322.6 705.2  curveto
 stroke
0 0 0 setrgbcolor
339.2 715.4  moveto
340.473 711.887 338.961 703.614 337.2 700  curveto
 stroke
0 0 0 setrgbcolor
339.2 713.8  moveto
342.963 708.843 343.38 701.703 337.4 698.4  curveto
 stroke
0 0 0 setrgbcolor
347.6 671.8  moveto
334.42 681.335 310.542 677.26 299 669.8  curveto
 stroke
0 0 0 setrgbcolor
297 627  moveto
308.596 625.375 331.751 624.487 343.4 625  curveto
 stroke
0 0 0 setrgbcolor
223.2 780.6  moveto
181.826 782.884 206.258 728.985 227.6 715.8  curveto
 stroke
0 0 0 setrgbcolor
207.8 767  moveto
216.196 768.155 227.584 759.411 226.2 750  curveto
 stroke
0 0 0 setrgbcolor
342.8 624.6  moveto
373.798 638.708 403.938 687.133 403.8 720.8  curveto
 stroke
0 0 0 setrgbcolor
403.8 764.6  moveto
431.365 773.071 422.342 729.069 404.4 716.8  curveto
 stroke
0 0 0 setrgbcolor
415.8 752.4  moveto
410.956 753.919 403.952 748.311 402.4 743  curveto
 stroke
0 0 0 setrgbcolor
318 909  moveto
320.178 905.886 323.315 899.014 324.8 895.6  curveto
 stroke
0 0 0 setrgbcolor
310.8 899.4  moveto
313.275 897.154 317.048 891.778 318.4 888.8  curveto
 stroke
0 0 0 setrgbcolor
358.2 888.2  moveto
363.203 892.291 372.233 901.296 376.6 905.8  curveto
 stroke
0 0 0 setrgbcolor
363 886.4  moveto
366.365 890.488 373.657 898.221 377.8 901.6  curveto
 stroke
0 0 0 setrgbcolor
375 889.2  moveto
376.219 890.737 379.197 893.179 381.2 893.6  curveto
 stroke
0 0 0 setrgbcolor
332 949.4  moveto
355.212 952.345 390.382 940.27 396.2 916.4  curveto
 stroke
0 0 0 setrgbcolor
243.2 682.8  moveto
243.54 671.976 245.048 650.822 242.2 640.4  curveto
 stroke
0 0 0 setrgbcolor
297.2 627  moveto
273.544 644.044 231.771 681.8 232 714.2  curveto
 stroke
1 1 0.772549 setrgbcolor
406.6 795.2  moveto
393.939 805.767 370.173 799.718 357.8 791  curveto
357.8 791 lineto
357.85 791.25 357.95 791.75 358 792 curveto
358 792 lineto
357.768 790.589 359.052 788.145 359.2 787.6 curveto
359.2 787.6 lineto
359 787.4 358.6 787 358.4 786.8 curveto
358.4 786.8 lineto
369.181 794.355 394.618 799.509 407.2 793.2 curveto
407.2 793.2 lineto
407.05 793.7 406.75 794.7 406.6 795.2 curveto
fill
1 1 0.772549 setrgbcolor
345.6 902  moveto
349.263 932.436 391.536 970.577 413.4 988.8  curveto
413.4 988.8 lineto
413.7 988.95 414.3 989.25 414.6 989.4 curveto
414.6 989.4 lineto
381.974 977.699 341.356 938.641 344.4 899.4 curveto
344.4 899.4 lineto
344.7 900.05 345.3 901.35 345.6 902 curveto
fill
1 1 1 setrgbcolor
399.8 782.2  moveto
390.099 784.646 369.851 785.021 359.8 783.2  curveto
359.8 783.2 lineto
359.95 783.2 360.25 783.2 360.4 783.2 curveto
360.4 783.2 lineto
360.017 781.093 358.98 776.513 358 774.4 curveto
358 774.4 lineto
357.943 773.259 357.797 771.22 357.757 769.94 curveto
357.757 769.94 lineto
357.824 768.402 357.95 766.612 358.025 765.449 curveto
358.025 765.449 lineto
359.55 753.819 378.745 753.828 387.995 755.898 curveto
387.995 755.898 lineto
388.389 756.04 388.898 756.22 389.438 756.413 curveto
389.438 756.413 lineto
391.18 756.993 393.924 757.908 395.4 758.4 curveto
395.4 758.4 lineto
398.306 764.45 401.273 776.831 399.8 782.2 curveto
fill
1 1 1 setrgbcolor
306.6 777.4  moveto
305.661 779.939 302.6 784.085 302 786.4  curveto
302 786.4 lineto
301.8 786.4 301.4 786.4 301.2 786.4 curveto
301.2 786.4 lineto
289.311 787.206 265.802 794.19 253.6 792.2 curveto
253.6 792.2 lineto
254.05 792.4 254.95 792.8 255.4 793 curveto
255.4 793 lineto
253.576 786.449 255.722 773.52 258 767.2 curveto
258 767.2 lineto
258.2 767.1 258.6 766.9 258.8 766.8 curveto
258.8 766.8 lineto
261.885 758.238 276.631 757.423 284.2 757.6 curveto
284.2 757.6 lineto
285.189 757.7 287.077 757.9 288.214 758 curveto
288.214 758 lineto
288.38 758.003 288.534 758.005 288.667 758.008 curveto
288.667 758.008 lineto
292.988 758.222 299.155 762.016 302.545 765.257 curveto
302.545 765.257 lineto
303.646 767.114 304.793 770.064 305.567 772.519 curveto
305.567 772.519 lineto
305.471 773.149 305.947 773.965 306.453 774.191 curveto
306.453 774.191 lineto
306.507 775.089 306.557 776.562 306.6 777.4 curveto
fill
0 0.666667 1 setrgbcolor
377.6 781  moveto
370.67 770.033 382.325 751.934 392.2 767.6  curveto
392.2 767.6 lineto
394.038 770.475 391.67 780.746 387.2 782.4 curveto
387.2 782.4 lineto
387.196 782.499 387.193 782.699 387.189 782.798 curveto
387.189 782.798 lineto
384.693 783.437 380.199 782.873 378.445 781.007 curveto
378.445 781.007 lineto
378.229 781.005 377.815 781.002 377.6 781 curveto
fill
0 0.666667 1 setrgbcolor
283.4 787.6  moveto
272.178 771.306 287.346 762.145 295.6 770.6  curveto
295.6 770.6 lineto
298.619 774.737 295.442 786.333 290 788 curveto
290 788 lineto
288.35 787.9 285.05 787.7 283.4 787.6 curveto
fill
1 1 0.772549 setrgbcolor
347.6 887.2  moveto
349.174 898.724 365.705 911.272 376 915  curveto
376 915 lineto
374.4 914.15 371.2 912.45 369.6 911.6 curveto
369.6 911.6 lineto
398.036 884.635 392.328 809.603 389 774 curveto
389 774 lineto
388.95 773.8 388.85 773.4 388.8 773.2 curveto
388.8 773.2 lineto
398.279 790.893 403.802 829.367 403.4 849.6 curveto
403.4 849.6 lineto
403.8 848.2 404.6 845.4 405 844 curveto
405 844 lineto
410.192 801.868 411.77 717.447 412.6 675.4 curveto
412.6 675.4 lineto
412.5 675 412.3 674.2 412.2 673.8 curveto
412.2 673.8 lineto
415.332 678.538 417.539 688.895 417 694.2 curveto
417 694.2 lineto
416.9 692.8 416.7 690 416.6 688.6 curveto
416.6 688.6 lineto
418.501 684.716 420.692 677.034 419.4 673 curveto
419.4 673 lineto
419.4 672.4 419.4 671.2 419.4 670.6 curveto
419.4 670.6 lineto
427.442 692.173 431.387 737.061 425.8 760 curveto
425.8 760 lineto
424.648 762.506 422.304 768.058 421.166 770.39 curveto
421.166 770.39 lineto
426.163 759.8 430.406 738.971 430.595 727.869 curveto
430.595 727.869 lineto
430.147 727.396 429.248 726.473 428.8 726 curveto
428.8 726 lineto
433.091 751.356 440.561 802.686 427.8 825.8 curveto
427.8 825.8 lineto
426.8 826.45 424.8 827.75 423.8 828.4 curveto
423.8 828.4 lineto
431.665 819.085 441.251 797.95 441 784.8 curveto
441 784.8 lineto
440.85 784.25 440.55 783.15 440.4 782.6 curveto
440.4 782.6 lineto
451.869 828.188 421.593 902.382 382.4 926.6 curveto
382.4 926.6 lineto
382.4 926.5 382.4 926.3 382.4 926.2 curveto
382.4 926.2 lineto
370.961 924.517 354.026 911.448 347.4 902.2 curveto
347.4 902.2 lineto
347.45 898.45 347.55 890.95 347.6 887.2 curveto
fill
1 1 0.772549 setrgbcolor
311.2 797.2  moveto
291.213 795.562 256.405 822.322 238.2 805.6  curveto
238.2 805.6 lineto
239.05 806 240.75 806.8 241.6 807.2 curveto
241.6 807.2 lineto
259.949 809.905 291.407 797.159 306.4 790.2 curveto
306.4 790.2 lineto
306.55 790.15 306.85 790.05 307 790 curveto
307 790 lineto
310.122 790.763 311.802 795.596 311.8 798.2 curveto
311.8 798.2 lineto
311.65 797.95 311.35 797.45 311.2 797.2 curveto
fill
0 0 0 setrgbcolor
399.8 782.2  moveto
401.273 776.831 398.306 764.45 395.4 758.4  curveto
 stroke
0 0 0 setrgbcolor
347.6 887.2  moveto
349.174 898.724 365.705 911.272 376 915  curveto
 stroke
0 0 0 setrgbcolor
347.4 902.2  moveto
354.026 911.448 370.961 924.517 382.4 926.2  curveto
 stroke
0 0 0 setrgbcolor
382.4 926.6  moveto
421.593 902.382 451.869 828.188 440.4 782.6  curveto
 stroke
0 0 0 setrgbcolor
423.8 828.4  moveto
431.665 819.085 441.251 797.95 441 784.8  curveto
 stroke
0 0 0 setrgbcolor
427.8 825.8  moveto
440.561 802.686 433.091 751.356 428.8 726  curveto
 stroke
0 0 0 setrgbcolor
405 844  moveto
410.192 801.868 411.77 717.447 412.6 675.4  curveto
 stroke
0 0 0 setrgbcolor
369.6 911.6  moveto
398.036 884.635 392.328 809.603 389 774  curveto
 stroke
0 0 0 setrgbcolor
425.8 760  moveto
431.387 737.061 427.442 692.173 419.4 670.6  curveto
 stroke
0 0 0 setrgbcolor
358.4 786.8  moveto
369.181 794.355 394.618 799.509 407.2 793.2  curveto
 stroke
0 0 0 setrgbcolor
356.8 788.4  moveto
357.753 788.463 359.068 790.271 360.4 791.2  curveto
 stroke
0 0 0 setrgbcolor
357.8 791  moveto
370.173 799.718 393.939 805.767 406.6 795.2  curveto
 stroke
0 0 0 setrgbcolor
360.4 783.2  moveto
360.017 781.093 358.98 776.513 358 774.4  curveto
 stroke
0 0 0 setrgbcolor
359.8 783.2  moveto
369.851 785.021 390.099 784.646 399.8 782.2  curveto
 stroke
0 0 0 setrgbcolor
377.6 781  moveto
370.67 770.033 382.325 751.934 392.2 767.6  curveto
 stroke
0 0 0 setrgbcolor
392.2 767.6  moveto
394.038 770.475 391.67 780.746 387.2 782.4  curveto
 stroke
0 0 0 setrgbcolor
403.4 849.6  moveto
403.802 829.367 398.279 790.893 388.8 773.2  curveto
 stroke
0 0 0 setrgbcolor
255.4 793  moveto
253.576 786.449 255.722 773.52 258 767.2  curveto
 stroke
0 0 0 setrgbcolor
258.8 766.8  moveto
261.885 758.238 276.631 757.423 284.2 757.6  curveto
 stroke
0 0 0 setrgbcolor
283.4 787.6  moveto
272.178 771.306 287.346 762.145 295.6 770.6  curveto
 stroke
0 0 0 setrgbcolor
302 786.4  moveto
302.6 784.085 305.661 779.939 306.6 777.4  curveto
 stroke
0 0 0 setrgbcolor
253.6 792.2  moveto
265.802 794.19 289.311 787.206 301.2 786.4  curveto
 stroke
0 0 0 setrgbcolor
295.6 770.6  moveto
298.619 774.737 295.442 786.333 290 788  curveto
 stroke
0 0 0 setrgbcolor
306.4 790.2  moveto
291.407 797.159 259.949 809.905 241.6 807.2  curveto
 stroke
0 0 0 setrgbcolor
311.8 798.2  moveto
311.802 795.596 310.122 790.763 307 790  curveto
 stroke
0 0 0 setrgbcolor
238.2 805.6  moveto
256.405 822.322 291.213 795.562 311.2 797.2  curveto
 stroke
0 0 0 setrgbcolor
414.6 989.4  moveto
381.974 977.699 341.356 938.641 344.4 899.4  curveto
 stroke
0 0 0 setrgbcolor
345.6 902  moveto
349.263 932.436 391.536 970.577 413.4 988.8  curveto
 stroke
1 1 0.772549 setrgbcolor
337.6 901  moveto
336.724 909.963 328.993 925.446 319.4 928  curveto
319.4 928 lineto
320.25 927.5 321.95 926.5 322.8 926 curveto
322.8 926 lineto
289.886 913.762 224.718 881.872 213.2 846.8 curveto
213.2 846.8 lineto
213.29 847.2 213.5 848 213.547 848.4 curveto
213.547 848.4 lineto
213.191 847.9 213.34 847.7 213.4 847.6 curveto
213.4 847.6 lineto
215.365 851.826 222.603 857.222 226.6 859.4 curveto
226.6 859.4 lineto
226.85 859.2 227.35 858.8 227.6 858.6 curveto
227.6 858.6 lineto
216.208 824.71 209.222 755.331 217.8 720.4 curveto
217.8 720.4 lineto
217.9 720.35 218.1 720.25 218.2 720.2 curveto
218.2 720.2 lineto
216.051 735.528 221.397 764.687 227.4 778.4 curveto
227.4 778.4 lineto
227.15 778.2 226.65 777.8 226.4 777.6 curveto
226.4 777.6 lineto
226.439 741.722 239.493 673.148 248.8 640 curveto
248.8 640 lineto
248.75 639.25 248.65 637.75 248.6 637 curveto
248.6 637 lineto
240.265 699.356 258.41 816.848 278.4 875 curveto
278.4 875 lineto
278.85 876.4 279.75 879.2 280.2 880.6 curveto
280.2 880.6 lineto
277.764 863.058 278.857 828.836 285.4 811.8 curveto
285.4 811.8 lineto
285.25 811.2 284.95 810 284.8 809.4 curveto
284.8 809.4 lineto
282.467 839.809 301.717 893.469 322 916.2 curveto
322 916.2 lineto
322.2 915.9 322.6 915.3 322.8 915 curveto
322.8 915 lineto
329.537 909.743 334.44 895.624 332.2 887.6 curveto
332.2 887.6 lineto
333.55 890.95 336.25 897.65 337.6 901 curveto
fill
0 0 0 setrgbcolor
227.4 778.4  moveto
221.397 764.687 216.051 735.528 218.2 720.2  curveto
 stroke
0 0 0 setrgbcolor
322.8 915  moveto
329.537 909.743 334.44 895.624 332.2 887.6  curveto
 stroke
0 0 0 setrgbcolor
337.6 901  moveto
336.724 909.963 328.993 925.446 319.4 928  curveto
 stroke
0 0 0 setrgbcolor
322 916.2  moveto
301.717 893.469 282.467 839.809 284.8 809.4  curveto
 stroke
0 0 0 setrgbcolor
285.4 811.8  moveto
278.857 828.836 277.764 863.058 280.2 880.6  curveto
 stroke
0 0 0 setrgbcolor
278.4 875  moveto
258.41 816.848 240.265 699.356 248.6 637  curveto
 stroke
0 0 0 setrgbcolor
226.4 777.6  moveto
226.439 741.722 239.493 673.148 248.8 640  curveto
 stroke
0 0 0 setrgbcolor
227.6 858.6  moveto
216.208 824.71 209.222 755.331 217.8 720.4  curveto
 stroke
0 0 0 setrgbcolor
322.8 926  moveto
289.886 913.762 224.718 881.872 213.2 846.8  curveto
 stroke
0 0 0 setrgbcolor
226.6 859.4  moveto
222.603 857.222 215.365 851.826 213.4 847.6  curveto
 stroke
