%!PS-Adobe-3.0 EPSF-3.0
%%BoundingBox: -5 -5 1005 1005
1 1 0.772549 setrgbcolor
205.4 636.6  moveto
188.472 624.931 187.257 608.796 209 605.8  curveto
209 605.8 lineto
209.58 605.547 210.59 605.015 211.309 604.785 curveto
211.309 604.785 lineto
211.821 604.869 212.344 604.954 212.696 605.012 curveto
212.696 605.012 lineto
237.51 601.297 232.486 626.876 214.006 635.931 curveto
214.006 635.931 lineto
213.033 636.021 211.535 636.111 210.162 636.2 curveto
210.162 636.2 lineto
210.24 636.3 210.417 636.5 210.494 636.6 curveto
210.494 636.6 lineto
208.97 636.6 206.695 636.6 205.4 636.6 curveto
fill
0 0 0 setrgbcolor
205.4 636.6  moveto
188.472 624.931 187.257 608.796 209 605.8  curveto
 stroke
1 1 0.772549 setrgbcolor
199.8 681.2  moveto
179.621 658.48 192.903 633.292 222.4 627.8  curveto
222.4 627.8 lineto
222.439 627.719 222.482 627.541 222.529 627.465 curveto
222.529 627.465 lineto
222.856 627.623 223.352 627.867 223.62 627.997 curveto
223.62 627.997 lineto
249.719 637.108 225.217 680.318 202.856 683.59 curveto
202.856 683.59 lineto
202.491 683.132 201.861 682.319 201.373 681.697 curveto
201.373 681.697 lineto
200.932 681.509 200.204 681.339 199.8 681.2 curveto
fill
0 0 0 setrgbcolor
199.8 681.2  moveto
179.621 658.48 192.903 633.292 222.4 627.8  curveto
 stroke
1 1 0.772549 setrgbcolor
224.4 659.2  moveto
187.569 670.705 171.534 730.839 193.6 762.2  curveto
193.6 762.2 lineto
195.876 763.206 200.36 765.176 202.763 766.258 curveto
202.763 766.258 lineto
202.857 766.306 202.946 766.352 203.029 766.394 curveto
203.029 766.394 lineto
248.57 759.885 253.496 689.264 229.265 661.046 curveto
229.265 661.046 lineto
228.472 660.645 227.018 659.913 226.036 659.418 curveto
226.036 659.418 lineto
225.576 659.338 224.829 659.264 224.4 659.2 curveto
fill
0 0 0 setrgbcolor
193.6 762.2  moveto
171.534 730.839 187.569 670.705 224.4 659.2  curveto
 stroke
1 1 0.772549 setrgbcolor
392.8 919.6  moveto
387.537 944.142 351.531 957.333 328 954.6  curveto
328 954.6 lineto
329.25 954.8 331.75 955.2 333 955.4 curveto
333 955.4 lineto
296.707 966.125 234.878 954.534 223.8 911.8 curveto
223.8 911.8 lineto
223.9 912.65 224.1 914.35 224.2 915.2 curveto
224.2 915.2 lineto
206.714 895.945 196.634 847.889 193.8 823.8 curveto
193.8 823.8 lineto
193.9 824 194.1 824.4 194.2 824.6 curveto
194.2 824.6 lineto
190.218 812.149 194.174 787.368 196.4 774.8 curveto
196.4 774.8 lineto
198.659 777.002 202.787 781.191 205.162 783.457 curveto
205.162 783.457 lineto
208.544 786.776 213.528 790.932 216.281 793.821 curveto
216.281 793.821 lineto
231.618 887.641 285.752 905.562 375.237 884.24 curveto
375.237 884.24 lineto
387.329 881.373 394.925 867.037 399.703 850.276 curveto
399.703 850.276 lineto
405.799 832.461 407.282 802.613 402.396 784 curveto
402.396 784 lineto
402.467 784.601 402.183 785.842 401.47 787.89 curveto
401.47 787.89 lineto
399.25 825.052 394.961 887.177 392.8 919.6 curveto
fill
1 0.886275 0.745098 setrgbcolor
238.8 676.2  moveto
239.087 666.09 241.148 646.365 239.8 636.6  curveto
239.8 636.6 lineto
239.876 635.997 239.989 634.942 240.103 634.188 curveto
240.103 634.188 lineto
240.216 633.738 240.329 633.288 240.405 632.986 curveto
240.405 632.986 lineto
271.074 589.301 352.382 564.376 339.722 630.726 curveto
339.722 630.726 lineto
339.102 631.617 337.881 633.309 337.261 634.201 curveto
337.261 634.201 lineto
336.391 635.884 335.416 637.699 334.341 639.625 curveto
334.341 639.625 lineto
310.664 651.249 265.051 674.263 239.28 676.181 curveto
239.28 676.181 lineto
239.329 675.804 239.138 675.163 238.835 674.992 curveto
238.835 674.992 lineto
238.823 675.295 238.811 675.897 238.8 676.2 curveto
fill
1 0.886275 0.745098 setrgbcolor
399.6 715.2  moveto
421.037 730.222 427.147 778.065 396.2 764.4  curveto
396.2 764.4 lineto
395.906 764.167 395.312 763.733 395.017 763.499 curveto
395.017 763.499 lineto
391.124 752.008 391.399 727.325 398.789 716.062 curveto
398.789 716.062 lineto
398.993 715.841 399.396 715.421 399.6 715.2 curveto
fill
1 0.886275 0.745098 setrgbcolor
217.4 719.2  moveto
197.976 733.854 171.58 784.673 212.8 783.4  curveto
212.8 783.4 lineto
212.566 782.866 212.158 781.858 211.89 781.29 curveto
211.89 781.29 lineto
211.591 780.93 211.225 780.501 211.013 780.227 curveto
211.013 780.227 lineto
214.429 768.718 224.249 747.404 220.51 734.179 curveto
220.51 734.179 lineto
220.471 737.445 220.256 744.754 220.167 748.016 curveto
220.167 748.016 lineto
221.431 736.882 225.402 717.998 226.505 707.446 curveto
226.505 707.446 lineto
224.765 710.297 221.495 716.343 219.48 719.8 curveto
219.48 719.8 lineto
218.909 719.756 217.948 719.291 217.4 719.2 curveto
fill
1 0.886275 0.745098 setrgbcolor
224 713.8  moveto
223.755 680.949 265.142 643.318 287.8 625  curveto
287.8 625 lineto
287.85 625 287.95 625 288 625 curveto
288 625 lineto
299.872 623.257 323.63 621.173 335.6 622 curveto
335.6 622 lineto
335.25 621.85 334.55 621.55 334.2 621.4 curveto
334.2 621.4 lineto
365.375 635.289 398.464 682.621 399.2 718.2 curveto
399.2 718.2 lineto
399.2 718.105 399.2 717.909 399.199 717.814 curveto
399.199 717.814 lineto
399.265 727.886 398.965 746.596 398.963 757.798 curveto
398.963 757.798 lineto
401.885 768.726 404.463 782.354 407.035 793.317 curveto
407.035 793.317 lineto
407.136 793.421 407.337 793.625 407.438 793.729 curveto
407.438 793.729 lineto
414.645 819.592 409.062 861.661 394.911 875.043 curveto
394.911 875.043 lineto
391.548 878.443 387.763 880.905 383.497 882.101 curveto
383.497 882.101 lineto
286.321 909.237 230.763 890.668 216.337 790.323 curveto
216.337 790.323 lineto
216.44 788.512 216.568 786.52 216.716 784.391 curveto
216.716 784.391 lineto
218.834 764.662 222.215 731.196 224 713.8 curveto
fill
0 0 0 setrgbcolor
333 955.4  moveto
296.707 966.125 234.878 954.534 223.8 911.8  curveto
 stroke
0 0 0 setrgbcolor
224.2 915.2  moveto
206.714 895.945 196.634 847.889 193.8 823.8  curveto
 stroke
0 0 0 setrgbcolor
194.2 824.6  moveto
190.218 812.149 194.174 787.368 196.4 774.8  curveto
 stroke
0 0 0 setrgbcolor
309.8 717  moveto
307.617 713.743 309.047 706.499 311.2 703.2  curveto
 stroke
0 0 0 setrgbcolor
309.2 717.8  moveto
305.239 713.47 305.261 706.274 310.4 703.8  curveto
 stroke
0 0 0 setrgbcolor
327.8 711.6  moveto
328.407 708.987 327.215 702.681 325.8 700  curveto
 stroke
0 0 0 setrgbcolor
327.8 710.2  moveto
330.309 706.562 330.587 701.135 326.6 698.6  curveto
 stroke
0 0 0 setrgbcolor
337.4 670.2  moveto
324.762 678.589 300.788 676.964 289 671.2  curveto
 stroke
0 0 0 setrgbcolor
288 625  moveto
299.872 623.257 323.63 621.173 335.6 622  curveto
 stroke
0 0 0 setrgbcolor
212.8 783.4  moveto
171.58 784.673 197.976 733.854 217.4 719.2  curveto
 stroke
0 0 0 setrgbcolor
197.2 770  moveto
205.019 769.43 217.54 762.601 215.8 753  curveto
 stroke
0 0 0 setrgbcolor
334.2 621.4  moveto
365.375 635.289 398.464 682.621 399.2 718.2  curveto
 stroke
0 0 0 setrgbcolor
396.2 764.4  moveto
427.147 778.065 421.037 730.222 399.6 715.2  curveto
 stroke
0 0 0 setrgbcolor
411.2 753.6  moveto
405.336 756.747 397.749 750.027 395.6 744  curveto
 stroke
0 0 0 setrgbcolor
311 914  moveto
313.296 910.968 316.011 903.939 317.2 900.4  curveto
 stroke
0 0 0 setrgbcolor
303.2 904.6  moveto
306.081 902.032 310.329 895.801 311.6 892.2  curveto
 stroke
0 0 0 setrgbcolor
351.8 891.8  moveto
356.925 895.971 366.451 905 371.4 909.2  curveto
 stroke
0 0 0 setrgbcolor
357 889.6  moveto
360.578 893.953 368.596 901.973 373.2 905.4  curveto
 stroke
0 0 0 setrgbcolor
370 892.8  moveto
371.307 894.486 374.56 897.086 376.8 897.4  curveto
 stroke
0 0 0 setrgbcolor
328 954.6  moveto
351.531 957.333 387.537 944.142 392.8 919.6  curveto
 stroke
0 0 0 setrgbcolor
238.8 676.2  moveto
239.087 666.09 241.148 646.365 239.8 636.6  curveto
 stroke
0 0 0 setrgbcolor
287.8 625  moveto
265.142 643.318 223.755 680.949 224 713.8  curveto
 stroke
1 1 0.772549 setrgbcolor
399.4 795.8  moveto
385.928 806.943 359.591 804.294 347.2 792  curveto
347.2 792 lineto
347.15 792.25 347.05 792.75 347 793 curveto
347 793 lineto
347.146 791.497 349.085 789.604 349.8 789.4 curveto
349.8 789.4 lineto
349.5 789.1 348.9 788.5 348.6 788.2 curveto
348.6 788.2 lineto
359.009 797.784 386.909 800.311 399.8 793.8 curveto
399.8 793.8 lineto
399.7 794.3 399.5 795.3 399.4 795.8 curveto
fill
1 1 0.772549 setrgbcolor
338.4 906  moveto
343.006 936.521 388.291 974.879 410.6 994.2  curveto
410.6 994.2 lineto
411.05 994.3 411.95 994.5 412.4 994.6 curveto
412.4 994.6 lineto
379.435 982.883 335.985 941.788 336.6 903.6 curveto
336.6 903.6 lineto
337.05 904.2 337.95 905.4 338.4 906 curveto
fill
1 1 1 setrgbcolor
393.2 781.8  moveto
382.727 784.993 360.315 785.393 349.2 783.8  curveto
349.2 783.8 lineto
349.3 783.8 349.5 783.8 349.6 783.8 curveto
349.6 783.8 lineto
348.803 781.999 347.667 777.713 347 775.6 curveto
347 775.6 lineto
346.878 774.172 346.615 771.48 346.505 769.96 curveto
346.505 769.96 lineto
346.479 768.659 346.515 767.202 346.538 766.173 curveto
346.538 766.173 lineto
346.982 753.102 368.389 752.589 378.492 755.848 curveto
378.492 755.848 lineto
378.813 755.97 379.209 756.118 379.626 756.275 curveto
379.626 756.275 lineto
381.536 756.912 384.866 758.022 386.6 758.6 curveto
386.6 758.6 lineto
389.346 764.543 393.166 776.459 393.2 781.8 curveto
fill
1 1 1 setrgbcolor
294.4 779.6  moveto
293.66 782.391 290.125 786.429 289 788.6  curveto
289 788.6 lineto
288.7 788.6 288.1 788.6 287.8 788.6 curveto
287.8 788.6 lineto
276.379 789.589 254.022 795.888 242.4 794.8 curveto
242.4 794.8 lineto
242.7 795.1 243.3 795.7 243.6 796 curveto
243.6 796 lineto
241.266 789.116 243.423 775.425 246 768.8 curveto
246 768.8 lineto
246.3 768.4 246.9 767.6 247.2 767.2 curveto
247.2 767.2 lineto
250.441 760.489 263.188 759.114 269.8 759.4 curveto
269.8 759.4 lineto
270.876 759.55 272.968 759.85 274.142 760 curveto
274.142 760 lineto
274.272 760.004 274.393 760.008 274.501 760.013 curveto
274.501 760.013 lineto
278.864 760.345 285.338 763.598 289.318 766.885 curveto
289.318 766.885 lineto
290.773 768.595 292.146 771.105 293.045 773.346 curveto
293.045 773.346 lineto
292.875 774.155 293.567 775.247 294.302 775.461 curveto
294.302 775.461 lineto
294.338 776.559 294.371 778.541 294.4 779.6 curveto
fill
0 0.666667 1 setrgbcolor
366.4 781  moveto
358.474 769.625 373.958 751.665 382.8 768.4  curveto
382.8 768.4 lineto
384.425 771.43 382.13 781.202 377.8 782.6 curveto
377.8 782.6 lineto
377.798 782.75 377.795 783.049 377.793 783.199 curveto
377.793 783.199 lineto
374.789 784.281 369.503 783.677 367.63 781.005 curveto
367.63 781.005 lineto
367.32 781.003 366.71 781.002 366.4 781 curveto
fill
0 0.666667 1 setrgbcolor
268.6 789.4  moveto
258.484 768.928 275.52 765.06 281.4 773.4  curveto
281.4 773.4 lineto
283.685 778.105 280.253 789.895 274 790 curveto
274 790 lineto
272.65 789.85 269.95 789.55 268.6 789.4 curveto
fill
1 1 0.772549 setrgbcolor
339.4 890.8  moveto
341.896 903.042 359.855 915.743 371 919  curveto
371 919 lineto
369.35 918.1 366.05 916.3 364.4 915.4 curveto
364.4 915.4 lineto
393.902 887.459 384.655 810.41 380 774 curveto
380 774 lineto
380.05 774.2 380.15 774.6 380.2 774.8 curveto
380.2 774.8 lineto
390.815 792.514 397.797 831.704 397.6 852.4 curveto
397.6 852.4 lineto
398.2 851.05 399.4 848.35 400 847 curveto
400 847 lineto
404.364 803.886 400.987 717.522 404.4 674.6 curveto
404.4 674.6 lineto
404.25 674 403.95 672.8 403.8 672.2 curveto
403.8 672.2 lineto
408.497 679.308 411.809 694.843 411 702.8 curveto
411 702.8 lineto
410.85 700.7 410.55 696.5 410.4 694.4 curveto
410.4 694.4 lineto
413.251 688.573 416.539 677.051 414.6 671 curveto
414.6 671 lineto
414.6 670.1 414.6 668.3 414.6 667.4 curveto
414.6 667.4 lineto
422.549 689.404 425.354 734.936 420.2 758 curveto
420.2 758 lineto
419.472 759.134 417.957 762.213 417.249 763.086 curveto
417.249 763.086 lineto
420.845 752.497 424.055 733.514 424.392 723.304 curveto
424.392 723.304 lineto
424.095 722.969 423.497 722.334 423.2 722 curveto
423.2 722 lineto
426.638 749.74 435.769 806.132 423.2 831.2 curveto
423.2 831.2 lineto
422.45 831.55 420.95 832.25 420.2 832.6 curveto
420.2 832.6 lineto
427.952 822.619 435.938 799.642 435 786.2 curveto
435 786.2 lineto
434.9 785.75 434.7 784.85 434.6 784.4 curveto
434.6 784.4 lineto
447.102 829.18 417.386 906.007 378.6 930.4 curveto
378.6 930.4 lineto
378.6 930.25 378.6 929.95 378.6 929.8 curveto
378.6 929.8 lineto
366.889 928.431 348.421 915.556 340.6 906.8 curveto
340.6 906.8 lineto
340.3 902.8 339.7 894.8 339.4 890.8 curveto
fill
1 1 0.772549 setrgbcolor
298.8 799.8  moveto
278.785 798.977 243.406 824.678 226.8 807.4  curveto
226.8 807.4 lineto
227.95 808 230.25 809.2 231.4 809.8 curveto
231.4 809.8 lineto
248.993 812.582 279.004 800.186 293.6 793.8 curveto
293.6 793.8 lineto
293.7 793.85 293.9 793.95 294 794 curveto
294 794 lineto
296.837 794.464 298.842 798.555 299.2 800.8 curveto
299.2 800.8 lineto
299.1 800.55 298.9 800.05 298.8 799.8 curveto
fill
0 0 0 setrgbcolor
393.2 781.8  moveto
393.166 776.459 389.346 764.543 386.6 758.6  curveto
 stroke
0 0 0 setrgbcolor
339.4 890.8  moveto
341.896 903.042 359.855 915.743 371 919  curveto
 stroke
0 0 0 setrgbcolor
340.6 906.8  moveto
348.421 915.556 366.889 928.431 378.6 929.8  curveto
 stroke
0 0 0 setrgbcolor
378.6 930.4  moveto
417.386 906.007 447.102 829.18 434.6 784.4  curveto
 stroke
0 0 0 setrgbcolor
420.2 832.6  moveto
427.952 822.619 435.938 799.642 435 786.2  curveto
 stroke
0 0 0 setrgbcolor
423.2 831.2  moveto
435.769 806.132 426.638 749.74 423.2 722  curveto
 stroke
0 0 0 setrgbcolor
400 847  moveto
404.364 803.886 400.987 717.522 404.4 674.6  curveto
 stroke
0 0 0 setrgbcolor
364.4 915.4  moveto
393.902 887.459 384.655 810.41 380 774  curveto
 stroke
0 0 0 setrgbcolor
420.2 758  moveto
425.354 734.936 422.549 689.404 414.6 667.4  curveto
 stroke
0 0 0 setrgbcolor
348.6 788.2  moveto
359.009 797.784 386.909 800.311 399.8 793.8  curveto
 stroke
0 0 0 setrgbcolor
346.2 790.6  moveto
347.135 790.081 349.095 791.02 350.6 791.8  curveto
 stroke
0 0 0 setrgbcolor
347.2 792  moveto
359.591 804.294 385.928 806.943 399.4 795.8  curveto
 stroke
0 0 0 setrgbcolor
349.6 783.8  moveto
348.803 781.999 347.667 777.713 347 775.6  curveto
 stroke
0 0 0 setrgbcolor
349.2 783.8  moveto
360.315 785.393 382.727 784.993 393.2 781.8  curveto
 stroke
0 0 0 setrgbcolor
366.4 781  moveto
358.474 769.625 373.958 751.665 382.8 768.4  curveto
 stroke
0 0 0 setrgbcolor
382.8 768.4  moveto
384.425 771.43 382.13 781.202 377.8 782.6  curveto
 stroke
0 0 0 setrgbcolor
397.6 852.4  moveto
397.797 831.704 390.815 792.514 380.2 774.8  curveto
 stroke
0 0 0 setrgbcolor
243.6 796  moveto
241.266 789.116 243.423 775.425 246 768.8  curveto
 stroke
0 0 0 setrgbcolor
247.2 767.2  moveto
250.441 760.489 263.188 759.114 269.8 759.4  curveto
 stroke
0 0 0 setrgbcolor
268.6 789.4  moveto
258.484 768.928 275.52 765.06 281.4 773.4  curveto
 stroke
0 0 0 setrgbcolor
289 788.6  moveto
290.125 786.429 293.66 782.391 294.4 779.6  curveto
 stroke
0 0 0 setrgbcolor
242.4 794.8  moveto
254.022 795.888 276.379 789.589 287.8 788.6  curveto
 stroke
0 0 0 setrgbcolor
281.4 773.4  moveto
283.685 778.105 280.253 789.895 274 790  curveto
 stroke
0 0 0 setrgbcolor
293.6 793.8  moveto
279.004 800.186 248.993 812.582 231.4 809.8  curveto
 stroke
0 0 0 setrgbcolor
299.2 800.8  moveto
298.842 798.555 296.837 794.464 294 794  curveto
 stroke
0 0 0 setrgbcolor
226.8 807.4  moveto
243.406 824.678 278.785 798.977 298.8 799.8  curveto
 stroke
1 1 0.772549 setrgbcolor
330.4 904  moveto
329.689 913.292 322.461 929.863 312.6 933  curveto
312.6 933 lineto
313.5 932.5 315.3 931.5 316.2 931 curveto
316.2 931 lineto
282.922 919.241 219.57 886.733 205.8 853.2 curveto
205.8 853.2 lineto
206.027 853.8 206.5 855 206.698 855.6 curveto
206.698 855.6 lineto
206.211 854.85 206.477 854.55 206.6 854.4 curveto
206.6 854.4 lineto
208.8 858.173 215.58 863.519 219.4 865.6 curveto
219.4 865.6 lineto
219.65 865.3 220.15 864.7 220.4 864.4 curveto
220.4 864.4 lineto
206.272 830.254 197.788 758.817 207.2 722.6 curveto
207.2 722.6 lineto
207.35 723.15 207.65 724.25 207.8 724.8 curveto
207.8 724.8 lineto
205.477 739.556 210.859 767.421 216.6 780.6 curveto
216.6 780.6 lineto
216.35 780.3 215.85 779.7 215.6 779.4 curveto
215.6 779.4 lineto
213.964 742.925 228.097 673.977 239.2 641 curveto
239.2 641 lineto
239.25 640.5 239.35 639.5 239.4 639 curveto
239.4 639 lineto
231.261 702.284 248.168 821.257 270.6 879 curveto
270.6 879 lineto
271.15 880.85 272.25 884.55 272.8 886.4 curveto
272.8 886.4 lineto
269.783 868.718 268.835 834.512 274.6 817.2 curveto
274.6 817.2 lineto
274.5 816.05 274.3 813.75 274.2 812.6 curveto
274.2 812.6 lineto
273.266 842.782 291.785 898.307 315 920.8 curveto
315 920.8 lineto
315.3 920.35 315.9 919.45 316.2 919 curveto
316.2 919 lineto
322.699 913.37 326.857 899.245 323.8 891.4 curveto
323.8 891.4 lineto
325.45 894.55 328.75 900.85 330.4 904 curveto
fill
0 0 0 setrgbcolor
216.6 780.6  moveto
210.859 767.421 205.477 739.556 207.8 724.8  curveto
 stroke
0 0 0 setrgbcolor
316.2 919  moveto
322.699 913.37 326.857 899.245 323.8 891.4  curveto
 stroke
0 0 0 setrgbcolor
330.4 904  moveto
329.689 913.292 322.461 929.863 312.6 933  curveto
 stroke
0 0 0 setrgbcolor
315 920.8  moveto
291.785 898.307 273.266 842.782 274.2 812.6  curveto
 stroke
0 0 0 setrgbcolor
274.6 817.2  moveto
268.835 834.512 269.783 868.718 272.8 886.4  curveto
 stroke
0 0 0 setrgbcolor
270.6 879  moveto
248.168 821.257 231.261 702.284 239.4 639  curveto
 stroke
0 0 0 setrgbcolor
215.6 779.4  moveto
213.964 742.925 228.097 673.977 239.2 641  curveto
 stroke
0 0 0 setrgbcolor
220.4 864.4  moveto
206.272 830.254 197.788 758.817 207.2 722.6  curveto
 stroke
0 0 0 setrgbcolor
316.2 931  moveto
282.922 919.241 219.57 886.733 205.8 853.2  curveto
 stroke
0 0 0 setrgbcolor
219.4 865.6  moveto
215.58 863.519 208.8 858.173 206.6 854.4  curveto
 stroke
0 0 0 setrgbcolor
412.4 994.6  moveto
379.435 982.883 335.985 941.788 336.6 903.6  curveto
 stroke
0 0 0 setrgbcolor
338.4 906  moveto
343.006 936.521 388.291 974.879 410.6 994.2  curveto
 stroke
