%!PS-Adobe-3.0 EPSF-3.0
%%BoundingBox: -5 -5 1005 1005
1 1 0.772549 setrgbcolor
199.2 636.8  moveto
181.958 623.936 187.354 610.426 207 607.4  curveto
207 607.4 lineto
207.54 607.023 208.545 606.258 209.155 605.892 curveto
209.155 605.892 lineto
209.437 605.937 209.725 605.984 209.928 606.015 curveto
209.928 606.015 lineto
232.777 605.458 224.693 629.816 208.003 636.465 curveto
208.003 636.465 lineto
206.816 636.511 204.932 636.556 203.216 636.6 curveto
203.216 636.6 lineto
203.236 636.65 203.306 636.75 203.326 636.8 curveto
203.326 636.8 lineto
201.96 636.8 200.259 636.8 199.2 636.8 curveto
fill
0 0 0 setrgbcolor
199.2 636.8  moveto
181.958 623.936 187.354 610.426 207 607.4  curveto
 stroke
1 1 0.772549 setrgbcolor
193.4 681.6  moveto
175.196 658.009 189.542 632.832 218.2 627.4  curveto
218.2 627.4 lineto
218.251 627.376 218.309 627.305 218.372 627.286 curveto
218.372 627.286 lineto
218.802 627.499 219.458 627.825 219.81 627.998 curveto
219.81 627.998 lineto
243.706 642.063 219.168 681.704 196.428 684.795 curveto
196.428 684.795 lineto
195.957 684.182 195.132 683.095 194.497 682.263 curveto
194.497 682.263 lineto
194.159 682.013 193.689 681.785 193.4 681.6 curveto
fill
0 0 0 setrgbcolor
193.4 681.6  moveto
175.196 658.009 189.542 632.832 218.2 627.4  curveto
 stroke
1 1 0.772549 setrgbcolor
218.2 658.6  moveto
182.05 671.556 163.706 729.18 184.8 761.6  curveto
184.8 761.6 lineto
187.063 762.478 191.555 764.213 193.881 765.129 curveto
193.881 765.129 lineto
193.936 765.152 193.989 765.173 194.039 765.193 curveto
194.039 765.193 lineto
239.719 757.642 246.563 691.914 223.632 661.023 curveto
223.632 661.023 lineto
222.593 660.501 220.672 659.538 219.381 658.891 curveto
219.381 658.891 lineto
219.018 658.784 218.521 658.686 218.2 658.6 curveto
fill
0 0 0 setrgbcolor
184.8 761.6  moveto
163.706 729.18 182.05 671.556 218.2 658.6  curveto
 stroke
1 0.886275 0.745098 setrgbcolor
234.4 669.6  moveto
234.633 660.203 237.247 641.907 237.4 632.8  curveto
237.4 632.8 lineto
237.501 632.247 237.653 631.34 237.804 630.585 curveto
237.804 630.585 lineto
237.953 629.987 238.102 629.392 238.202 628.993 curveto
238.202 628.993 lineto
272.541 589.451 352.193 565.085 338.629 631.301 curveto
338.629 631.301 lineto
338.302 631.823 337.675 632.745 337.348 633.268 curveto
337.348 633.268 lineto
336.709 635.02 335.983 636.871 335.171 638.812 curveto
335.171 638.812 lineto
310.104 647.744 260.864 665.486 234.706 669.575 curveto
234.706 669.575 lineto
234.718 669.389 234.611 669.072 234.446 668.989 curveto
234.446 668.989 lineto
234.431 669.143 234.415 669.446 234.4 669.6 curveto
fill
1 1 0.772549 setrgbcolor
389.4 922.8  moveto
384.691 948.013 347.849 962.32 324 959.8  curveto
324 959.8 lineto
325.75 959.9 329.25 960.1 331 960.2 curveto
331 960.2 lineto
293.601 970.657 230.371 961.028 220.4 916.4 curveto
220.4 916.4 lineto
220.45 917.45 220.55 919.55 220.6 920.6 curveto
220.6 920.6 lineto
201.037 901.694 190.527 852.902 188.4 828.4 curveto
188.4 828.4 lineto
188.45 828.5 188.55 828.7 188.6 828.8 curveto
188.6 828.8 lineto
185.084 816.403 187.319 791.745 190.2 779.4 curveto
190.2 779.4 lineto
192.83 782.126 197.893 787.471 200.581 790.228 curveto
200.581 790.228 lineto
202.334 793.143 204.904 796.449 206.375 799.095 curveto
206.375 799.095 lineto
218.358 900.935 283.439 909.077 379.618 885.12 curveto
379.618 885.12 lineto
392.43 881.938 398.919 863.877 401.271 843.035 curveto
401.271 843.035 lineto
404.281 821.198 402.047 791.657 395.198 774.5 curveto
395.198 774.5 lineto
395.201 777.406 395.023 780.969 394.626 785.186 curveto
394.626 785.186 lineto
393.25 825.236 390.698 889.069 389.4 922.8 curveto
fill
1 0.886275 0.745098 setrgbcolor
394.8 713.6  moveto
419.731 731.376 422.929 783.06 388.6 764.2  curveto
388.6 764.2 lineto
388.458 764.055 388.165 763.811 388.023 763.666 curveto
388.023 763.666 lineto
387.203 751.41 389.568 726.203 394.386 714.082 curveto
394.386 714.082 lineto
394.49 713.955 394.695 713.727 394.8 713.6 curveto
fill
1 0.886275 0.745098 setrgbcolor
207.2 722.6  moveto
189.694 738.724 161.335 786.461 202.4 786.2  curveto
202.4 786.2 lineto
202.158 785.558 201.704 784.304 201.445 783.645 curveto
201.445 783.645 lineto
201.299 783.417 201.119 783.154 201.018 782.969 curveto
201.018 782.969 lineto
203.36 769.505 215.258 744.563 209.755 730.59 curveto
209.755 730.59 lineto
209.611 735.598 209.253 746.002 209.084 751.008 curveto
209.084 751.008 lineto
210.563 738.809 215.973 716.241 217.753 704.223 curveto
217.753 704.223 lineto
215.506 708.516 211.232 717.037 208.64 722.067 curveto
208.64 722.067 lineto
208.212 722.342 207.598 722.388 207.2 722.6 curveto
fill
1 0.886275 0.745098 setrgbcolor
216 713.4  moveto
215.738 680.097 256.739 642.592 278.4 623  curveto
278.4 623 lineto
278.55 623 278.85 623 279 623 curveto
279 623 lineto
291.148 621.138 315.51 617.86 327.8 619 curveto
327.8 619 lineto
327.25 618.8 326.15 618.4 325.6 618.2 curveto
325.6 618.2 lineto
356.952 631.869 392.989 678.108 394.6 715.6 curveto
394.6 715.6 lineto
394.6 715.556 394.6 715.462 394.599 715.418 curveto
394.599 715.418 lineto
394.382 726.959 393.732 749.302 393.481 761.399 curveto
393.481 761.399 lineto
396.884 770.323 399.837 781.91 402.38 792.756 curveto
402.38 792.756 lineto
402.431 792.811 402.533 792.916 402.584 792.971 curveto
402.584 792.971 lineto
409.621 820.562 407.224 860.659 394.882 876.057 curveto
394.882 876.057 lineto
391.805 880.063 388.12 882.874 383.748 884.051 curveto
383.748 884.051 lineto
282.598 911.206 216.274 902.478 206.168 793.661 curveto
206.168 793.661 lineto
206.399 791.502 206.664 789.103 206.954 786.521 curveto
206.954 786.521 lineto
209.612 765.466 213.787 731.344 216 713.4 curveto
fill
0 0 0 setrgbcolor
331 960.2  moveto
293.601 970.657 230.371 961.028 220.4 916.4  curveto
 stroke
0 0 0 setrgbcolor
220.6 920.6  moveto
201.037 901.694 190.527 852.902 188.4 828.4  curveto
 stroke
0 0 0 setrgbcolor
188.6 828.8  moveto
185.084 816.403 187.319 791.745 190.2 779.4  curveto
 stroke
0 0 0 setrgbcolor
297.4 720  moveto
294.322 715.658 295.896 705.999 298.6 701.6  curveto
 stroke
0 0 0 setrgbcolor
296.6 720.4  moveto
291.318 714.793 291.348 705.532 298.2 702.4  curveto
 stroke
0 0 0 setrgbcolor
316.4 707.8  moveto
316.341 706.087 315.47 701.747 314.4 700  curveto
 stroke
0 0 0 setrgbcolor
316.4 706.6  moveto
317.654 704.281 317.793 700.568 315.8 698.8  curveto
 stroke
0 0 0 setrgbcolor
327.2 668.6  moveto
315.103 675.842 291.035 676.667 279 672.6  curveto
 stroke
0 0 0 setrgbcolor
279 623  moveto
291.148 621.138 315.51 617.86 327.8 619  curveto
 stroke
0 0 0 setrgbcolor
202.4 786.2  moveto
161.335 786.461 189.694 738.724 207.2 722.6  curveto
 stroke
0 0 0 setrgbcolor
186.6 773  moveto
193.841 770.705 207.495 765.79 205.4 756  curveto
 stroke
0 0 0 setrgbcolor
325.6 618.2  moveto
356.952 631.869 392.989 678.108 394.6 715.6  curveto
 stroke
0 0 0 setrgbcolor
388.6 764.2  moveto
422.929 783.06 419.731 731.376 394.8 713.6  curveto
 stroke
0 0 0 setrgbcolor
406.6 754.8  moveto
399.715 759.574 391.545 751.744 388.8 745  curveto
 stroke
0 0 0 setrgbcolor
304 919  moveto
306.413 916.05 308.708 908.863 309.6 905.2  curveto
 stroke
0 0 0 setrgbcolor
295.6 909.8  moveto
298.886 906.909 303.611 899.824 304.8 895.6  curveto
 stroke
0 0 0 setrgbcolor
345.4 895.4  moveto
350.646 899.65 360.669 908.703 366.2 912.6  curveto
 stroke
0 0 0 setrgbcolor
351 892.8  moveto
354.79 897.418 363.536 905.726 368.6 909.2  curveto
 stroke
0 0 0 setrgbcolor
365 896.4  moveto
366.394 898.234 369.923 900.994 372.4 901.2  curveto
 stroke
0 0 0 setrgbcolor
324 959.8  moveto
347.849 962.32 384.691 948.013 389.4 922.8  curveto
 stroke
0 0 0 setrgbcolor
234.4 669.6  moveto
234.633 660.203 237.247 641.907 237.4 632.8  curveto
 stroke
0 0 0 setrgbcolor
278.4 623  moveto
256.739 642.592 215.738 680.097 216 713.4  curveto
 stroke
1 1 0.772549 setrgbcolor
392.2 796.4  moveto
377.917 808.118 349.01 808.869 336.6 793  curveto
336.6 793 lineto
336.45 793.25 336.15 793.75 336 794 curveto
336 794 lineto
336.523 792.406 339.117 791.062 340.4 791.2 curveto
340.4 791.2 lineto
340 790.8 339.2 790 338.8 789.6 curveto
338.8 789.6 lineto
348.838 801.214 379.201 801.114 392.4 794.4 curveto
392.4 794.4 lineto
392.35 794.9 392.25 795.9 392.2 796.4 curveto
fill
1 1 0.772549 setrgbcolor
331.2 910  moveto
336.748 940.606 385.046 979.181 407.8 999.6  curveto
407.8 999.6 lineto
408.4 999.65 409.6 999.75 410.2 999.8 curveto
410.2 999.8 lineto
376.895 988.067 330.615 944.935 328.8 907.8 curveto
328.8 907.8 lineto
329.4 908.35 330.6 909.45 331.2 910 curveto
fill
1 1 1 setrgbcolor
386.6 781.4  moveto
375.356 785.34 350.779 785.766 338.6 784.4  curveto
338.6 784.4 lineto
338.65 784.4 338.75 784.4 338.8 784.4 curveto
338.8 784.4 lineto
337.589 782.904 336.353 778.912 336 776.8 curveto
336 776.8 lineto
335.814 775.086 335.432 771.74 335.252 769.98 curveto
335.252 769.98 lineto
335.134 768.917 335.08 767.792 335.05 766.898 curveto
335.05 766.898 lineto
334.413 752.384 358.033 751.351 368.989 755.797 curveto
368.989 755.797 lineto
369.237 755.899 369.521 756.016 369.813 756.138 curveto
369.813 756.138 lineto
371.893 756.831 375.808 758.136 377.8 758.8 curveto
377.8 758.8 lineto
380.386 764.637 385.058 776.086 386.6 781.4 curveto
fill
1 1 1 setrgbcolor
282.2 781.8  moveto
281.66 784.844 277.651 788.772 276 790.8  curveto
276 790.8 lineto
275.6 790.8 274.8 790.8 274.4 790.8 curveto
274.4 790.8 lineto
263.446 791.973 242.243 797.587 231.2 797.4 curveto
231.2 797.4 lineto
231.35 797.8 231.65 798.6 231.8 799 curveto
231.8 799 lineto
228.955 791.782 231.123 777.33 234 770.4 curveto
234 770.4 lineto
234.4 769.7 235.2 768.3 235.6 767.6 curveto
235.6 767.6 lineto
238.996 762.739 249.746 760.805 255.4 761.2 curveto
255.4 761.2 lineto
256.563 761.4 258.859 761.8 260.071 762 curveto
260.071 762 lineto
260.164 762.005 260.252 762.011 260.335 762.017 curveto
260.335 762.017 lineto
264.741 762.468 271.522 765.181 276.091 768.513 curveto
276.091 768.513 lineto
277.9 770.077 279.499 772.147 280.522 774.173 curveto
280.522 774.173 lineto
280.28 775.161 281.186 776.53 282.151 776.73 curveto
282.151 776.73 lineto
282.169 778.03 282.186 780.521 282.2 781.8 curveto
fill
0 0.666667 1 setrgbcolor
355.2 781  moveto
346.277 769.218 365.59 751.395 373.4 769.2  curveto
373.4 769.2 lineto
374.813 772.386 372.59 781.659 368.4 782.8 curveto
368.4 782.8 lineto
368.399 783 368.398 783.4 368.396 783.599 curveto
368.396 783.599 lineto
364.886 785.124 358.808 784.481 356.815 781.002 curveto
356.815 781.002 lineto
356.41 781.002 355.605 781.001 355.2 781 curveto
fill
0 0.666667 1 setrgbcolor
253.8 791.2  moveto
244.789 766.55 263.695 767.976 267.2 776.2  curveto
267.2 776.2 lineto
268.75 781.474 265.065 793.456 258 792 curveto
258 792 lineto
256.95 791.8 254.85 791.4 253.8 791.2 curveto
fill
1 1 0.772549 setrgbcolor
331.2 894.4  moveto
334.618 907.361 354.006 920.214 366 923  curveto
366 923 lineto
364.3 922.05 360.9 920.15 359.2 919.2 curveto
359.2 919.2 lineto
389.769 890.283 376.983 811.218 371 774 curveto
371 774 lineto
371.15 774.6 371.45 775.8 371.6 776.4 curveto
371.6 776.4 lineto
383.35 794.136 391.793 834.04 391.8 855.2 curveto
391.8 855.2 lineto
392.6 853.9 394.2 851.3 395 850 curveto
395 850 lineto
398.536 805.904 390.205 717.598 396.2 673.8 curveto
396.2 673.8 lineto
396 673 395.6 671.4 395.4 670.6 curveto
395.4 670.6 lineto
401.663 680.077 406.078 700.79 405 711.4 curveto
405 711.4 lineto
404.8 708.6 404.4 703 404.2 700.2 curveto
404.2 700.2 lineto
408.002 692.431 412.385 677.068 409.8 669 curveto
409.8 669 lineto
409.8 667.8 409.8 665.4 409.8 664.2 curveto
409.8 664.2 lineto
417.656 686.636 419.32 732.812 414.6 756 curveto
414.6 756 lineto
414.297 755.762 413.609 756.367 413.331 755.781 curveto
413.331 755.781 lineto
415.526 745.195 417.705 728.058 418.19 718.739 curveto
418.19 718.739 lineto
418.043 718.542 417.747 718.196 417.6 718 curveto
417.6 718 lineto
420.185 748.123 430.978 809.578 418.6 836.6 curveto
418.6 836.6 lineto
418.1 836.65 417.1 836.75 416.6 836.8 curveto
416.6 836.8 lineto
424.238 826.153 430.625 801.335 429 787.6 curveto
429 787.6 lineto
428.95 787.25 428.85 786.55 428.8 786.2 curveto
428.8 786.2 lineto
442.334 830.171 413.18 909.631 374.8 934.2 curveto
374.8 934.2 lineto
374.8 934 374.8 933.6 374.8 933.4 curveto
374.8 933.4 lineto
362.818 932.345 342.815 919.664 333.8 911.4 curveto
333.8 911.4 lineto
333.15 907.15 331.85 898.65 331.2 894.4 curveto
fill
1 1 0.772549 setrgbcolor
286.4 802.4  moveto
266.357 802.391 230.406 827.033 215.4 809.2  curveto
215.4 809.2 lineto
216.85 810 219.75 811.6 221.2 812.4 curveto
221.2 812.4 lineto
238.036 815.258 266.602 803.213 280.8 797.4 curveto
280.8 797.4 lineto
280.85 797.55 280.95 797.85 281 798 curveto
281 798 lineto
283.553 798.165 285.883 801.515 286.6 803.4 curveto
286.6 803.4 lineto
286.55 803.15 286.45 802.65 286.4 802.4 curveto
fill
0 0 0 setrgbcolor
386.6 781.4  moveto
385.058 776.086 380.386 764.637 377.8 758.8  curveto
 stroke
0 0 0 setrgbcolor
331.2 894.4  moveto
334.618 907.361 354.006 920.214 366 923  curveto
 stroke
0 0 0 setrgbcolor
333.8 911.4  moveto
342.815 919.664 362.818 932.345 374.8 933.4  curveto
 stroke
0 0 0 setrgbcolor
374.8 934.2  moveto
413.18 909.631 442.334 830.171 428.8 786.2  curveto
 stroke
0 0 0 setrgbcolor
416.6 836.8  moveto
424.238 826.153 430.625 801.335 429 787.6  curveto
 stroke
0 0 0 setrgbcolor
418.6 836.6  moveto
430.978 809.578 420.185 748.123 417.6 718  curveto
 stroke
0 0 0 setrgbcolor
395 850  moveto
398.536 805.904 390.205 717.598 396.2 673.8  curveto
 stroke
0 0 0 setrgbcolor
359.2 919.2  moveto
389.769 890.283 376.983 811.218 371 774  curveto
 stroke
0 0 0 setrgbcolor
414.6 756  moveto
419.32 732.812 417.656 686.636 409.8 664.2  curveto
 stroke
0 0 0 setrgbcolor
338.8 789.6  moveto
348.838 801.214 379.201 801.114 392.4 794.4  curveto
 stroke
0 0 0 setrgbcolor
335.6 792.8  moveto
336.518 791.698 339.123 791.77 340.8 792.4  curveto
 stroke
0 0 0 setrgbcolor
336.6 793  moveto
349.01 808.869 377.917 808.118 392.2 796.4  curveto
 stroke
0 0 0 setrgbcolor
338.8 784.4  moveto
337.589 782.904 336.353 778.912 336 776.8  curveto
 stroke
0 0 0 setrgbcolor
338.6 784.4  moveto
350.779 785.766 375.356 785.34 386.6 781.4  curveto
 stroke
0 0 0 setrgbcolor
355.2 781  moveto
346.277 769.218 365.59 751.395 373.4 769.2  curveto
 stroke
0 0 0 setrgbcolor
373.4 769.2  moveto
374.813 772.386 372.59 781.659 368.4 782.8  curveto
 stroke
0 0 0 setrgbcolor
391.8 855.2  moveto
391.793 834.04 383.35 794.136 371.6 776.4  curveto
 stroke
0 0 0 setrgbcolor
231.8 799  moveto
228.955 791.782 231.123 777.33 234 770.4  curveto
 stroke
0 0 0 setrgbcolor
235.6 767.6  moveto
238.996 762.739 249.746 760.805 255.4 761.2  curveto
 stroke
0 0 0 setrgbcolor
253.8 791.2  moveto
244.789 766.55 263.695 767.976 267.2 776.2  curveto
 stroke
0 0 0 setrgbcolor
276 790.8  moveto
277.651 788.772 281.66 784.844 282.2 781.8  curveto
 stroke
0 0 0 setrgbcolor
231.2 797.4  moveto
242.243 797.587 263.446 791.973 274.4 790.8  curveto
 stroke
0 0 0 setrgbcolor
267.2 776.2  moveto
268.75 781.474 265.065 793.456 258 792  curveto
 stroke
0 0 0 setrgbcolor
280.8 797.4  moveto
266.602 803.213 238.036 815.258 221.2 812.4  curveto
 stroke
0 0 0 setrgbcolor
286.6 803.4  moveto
285.883 801.515 283.553 798.165 281 798  curveto
 stroke
0 0 0 setrgbcolor
215.4 809.2  moveto
230.406 827.033 266.357 802.391 286.4 802.4  curveto
 stroke
1 1 0.772549 setrgbcolor
323.2 907  moveto
322.653 916.621 315.93 934.28 305.8 938  curveto
305.8 938 lineto
306.75 937.5 308.65 936.5 309.6 936 curveto
309.6 936 lineto
275.959 924.719 214.423 891.595 198.4 859.6 curveto
198.4 859.6 lineto
198.763 860.4 199.5 862 199.849 862.8 curveto
199.849 862.8 lineto
199.23 861.8 199.613 861.4 199.8 861.2 curveto
199.8 861.2 lineto
202.236 864.519 208.557 869.816 212.2 871.8 curveto
212.2 871.8 lineto
212.45 871.4 212.95 870.6 213.2 870.2 curveto
213.2 870.2 lineto
196.335 835.799 186.355 762.303 196.6 724.8 curveto
196.6 724.8 lineto
196.8 725.95 197.2 728.25 197.4 729.4 curveto
197.4 729.4 lineto
194.903 743.585 200.322 770.155 205.8 782.8 curveto
205.8 782.8 lineto
205.55 782.4 205.05 781.6 204.8 781.2 curveto
204.8 781.2 lineto
201.489 744.128 216.7 674.807 229.6 642 curveto
229.6 642 lineto
229.75 641.75 230.05 641.25 230.2 641 curveto
230.2 641 lineto
222.256 705.211 237.927 825.667 262.8 883 curveto
262.8 883 lineto
263.45 885.3 264.75 889.9 265.4 892.2 curveto
265.4 892.2 lineto
261.803 874.377 258.812 840.188 263.8 822.6 curveto
263.8 822.6 lineto
263.75 820.9 263.65 817.5 263.6 815.8 curveto
263.6 815.8 lineto
264.064 845.755 281.853 903.144 308 925.4 curveto
308 925.4 lineto
308.4 924.8 309.2 923.6 309.6 923 curveto
309.6 923 lineto
315.862 916.997 319.275 902.866 315.4 895.2 curveto
315.4 895.2 lineto
317.35 898.15 321.25 904.05 323.2 907 curveto
fill
0 0 0 setrgbcolor
205.8 782.8  moveto
200.322 770.155 194.903 743.585 197.4 729.4  curveto
 stroke
0 0 0 setrgbcolor
309.6 923  moveto
315.862 916.997 319.275 902.866 315.4 895.2  curveto
 stroke
0 0 0 setrgbcolor
323.2 907  moveto
322.653 916.621 315.93 934.28 305.8 938  curveto
 stroke
0 0 0 setrgbcolor
308 925.4  moveto
281.853 903.144 264.064 845.755 263.6 815.8  curveto
 stroke
0 0 0 setrgbcolor
263.8 822.6  moveto
258.812 840.188 261.803 874.377 265.4 892.2  curveto
 stroke
0 0 0 setrgbcolor
262.8 883  moveto
237.927 825.667 222.256 705.211 230.2 641  curveto
 stroke
0 0 0 setrgbcolor
204.8 781.2  moveto
201.489 744.128 216.7 674.807 229.6 642  curveto
 stroke
0 0 0 setrgbcolor
213.2 870.2  moveto
196.335 835.799 186.355 762.303 196.6 724.8  curveto
 stroke
0 0 0 setrgbcolor
309.6 936  moveto
275.959 924.719 214.423 891.595 198.4 859.6  curveto
 stroke
0 0 0 setrgbcolor
212.2 871.8  moveto
208.557 869.816 202.236 864.519 199.8 861.2  curveto
 stroke
0 0 0 setrgbcolor
410.2 999.8  moveto
376.895 988.067 330.615 944.935 328.8 907.8  curveto
 stroke
0 0 0 setrgbcolor
331.2 910  moveto
336.748 940.606 385.046 979.181 407.8 999.6  curveto
 stroke
