%!PS-Adobe-3.0 EPSF-3.0
%%BoundingBox: -5 -5 1005 1005
1 1 0.772549 setrgbcolor
193 637  moveto
175.444 622.941 187.451 612.055 205 609  curveto
207 607 lineto
228.101 609.501 216.937 632.745 202 637 curveto
fill
0 0 0 setrgbcolor
193 637  moveto
175.444 622.941 187.451 612.055 205 609  curveto
 stroke
1 1 0.772549 setrgbcolor
176 761  moveto
155.877 727.521 176.531 672.408 212 658  curveto
218 661 lineto
239.638 694.576 230.861 755.442 185 764 curveto
fill
1 1 0.772549 setrgbcolor
187 682  moveto
170.771 657.538 186.18 632.372 214 627  curveto
216 628 lineto
237.692 647.018 213.119 683.089 190 686 curveto
fill
0 0 0 setrgbcolor
187 682  moveto
170.771 657.538 186.18 632.372 214 627  curveto
 stroke
0 0 0 setrgbcolor
176 761  moveto
155.877 727.521 176.531 672.408 212 658  curveto
 stroke
1 0.886275 0.745098 setrgbcolor
230 663  moveto
230.18 654.317 233.346 637.449 235 629  curveto
236 625 lineto
275.137 588.549 356.669 564.391 336 638 curveto
fill
0 0 0 setrgbcolor
230 663  moveto
230.18 654.317 233.346 637.449 235 629  curveto
 stroke
0 0 0 setrgbcolor
198 754  moveto
199.695 740.736 206.543 714.485 209 701  curveto
 stroke
1 0.886275 0.745098 setrgbcolor
390 712  moveto
418.425 732.529 418.711 788.054 381 764  curveto
fill
1 0.886275 0.745098 setrgbcolor
192 789  moveto
151.09 788.25 181.412 743.594 197 726  curveto
209 701 lineto
206.543 714.485 199.695 740.736 198 754 curveto
199 727 lineto
206.312 741.815 192.115 770.652 191 786 curveto
fill
1 0.886275 0.745098 setrgbcolor
388 765  moveto
405.308 795.834 411.57 878.873 384 886  curveto
278.876 913.175 201.785 914.288 196 797  curveto
208 713 lineto
207.721 679.246 248.337 641.866 269 621 curveto
270 621 lineto
282.424 619.02 307.39 614.546 320 616 curveto
317 615 lineto
348.529 628.45 387.514 673.596 390 713 curveto
fill
1 1 0.772549 setrgbcolor
196 797  moveto
201.785 914.288 278.876 913.175 384 886  curveto
411.57 878.873 405.308 795.834 388 765  curveto
386 926 lineto
381.845 951.885 344.168 967.308 320 965 curveto
329 965 lineto
290.495 975.189 225.863 967.522 217 921 curveto
217 926 lineto
195.36 907.443 184.421 857.915 183 833 curveto
183 833 lineto
179.951 820.657 180.464 796.122 184 784 curveto
fill
0 0 0 setrgbcolor
286 700  moveto
282.745 705.499 281.028 717.572 285 723  curveto
 stroke
0 0 0 setrgbcolor
284 723  moveto
277.398 716.116 277.435 704.79 286 701  curveto
 stroke
0 0 0 setrgbcolor
305 704  moveto
304.275 703.187 303.725 700.813 303 700  curveto
 stroke
0 0 0 setrgbcolor
305 703  moveto
305 702 305 700 305 699  curveto
 stroke
0 0 0 setrgbcolor
269 674  moveto
281.281 676.37 305.444 673.096 317 667  curveto
 stroke
0 0 0 setrgbcolor
390 712  moveto
418.425 732.529 418.711 788.054 381 764  curveto
 stroke
0 0 0 setrgbcolor
402 756  moveto
394.094 762.402 385.341 753.46 382 746  curveto
 stroke
0 0 0 setrgbcolor
192 789  moveto
151.09 788.25 181.412 743.594 197 726  curveto
 stroke
0 0 0 setrgbcolor
339 899  moveto
344.367 903.329 354.887 912.406 361 916  curveto
 stroke
0 0 0 setrgbcolor
345 896  moveto
349.002 900.883 358.475 909.479 364 913  curveto
 stroke
0 0 0 setrgbcolor
360 900  moveto
361.482 901.982 365.286 904.902 368 905  curveto
 stroke
0 0 0 setrgbcolor
297 924  moveto
299.531 921.132 301.405 913.788 302 910  curveto
 stroke
0 0 0 setrgbcolor
176 776  moveto
182.663 771.98 197.451 768.98 195 759  curveto
 stroke
0 0 0 setrgbcolor
288 915  moveto
291.691 911.786 296.893 903.847 298 899  curveto
 stroke
1 1 0.772549 setrgbcolor
385 797  moveto
369.906 809.293 338.429 813.445 326 794  curveto
325 795 lineto
325.901 793.315 329.15 792.52 331 793 curveto
329 791 lineto
338.666 804.643 371.493 801.916 385 795 curveto
fill
1 1 0.772549 setrgbcolor
327 916  moveto
337.209 923.772 358.746 936.26 371 937  curveto
371 938 lineto
408.973 913.256 437.566 831.163 423 788 curveto
423 789 lineto
425.312 803.027 420.525 829.687 413 841 curveto
414 842 lineto
426.187 813.024 413.732 746.507 412 714 curveto
409 754 lineto
413.287 730.688 412.763 683.867 405 661 curveto
405 667 lineto
408.231 677.085 402.752 696.289 398 706 curveto
399 720 lineto
400.348 706.738 394.829 680.846 387 669 curveto
388 673 lineto
379.422 717.674 392.708 807.922 390 853 curveto
386 858 lineto
385.789 836.376 375.885 795.758 363 778 curveto
362 774 lineto
369.31 812.025 385.636 893.107 354 923 curveto
361 927 lineto
348.157 924.684 327.34 911.68 323 898 curveto
fill
1 1 1 setrgbcolor
328 785  moveto
326.375 783.81 325.04 780.112 325 778  curveto
324 770 lineto
319.288 751.576 347.902 749.791 360 756 curveto
369 759 lineto
371.426 764.731 376.951 775.714 380 781 curveto
380 781 lineto
367.985 785.687 341.243 786.139 328 785 curveto
fill
1 1 1 setrgbcolor
261 793  moveto
250.514 794.357 230.464 799.286 220 800  curveto
220 802 lineto
216.644 794.448 218.823 779.235 222 772 curveto
224 768 lineto
227.552 764.99 236.303 762.496 241 763 curveto
246 764 lineto
252.276 764.759 264.081 768.814 268 775 curveto
267.685 776.167 268.805 777.812 270 778 curveto
270 784 lineto
269.66 787.297 265.177 791.115 263 793 curveto
fill
0 0.666667 1 setrgbcolor
344 781  moveto
334.081 768.811 357.222 751.126 364 770  curveto
365.2 773.342 363.05 782.116 359 783  curveto
359 784 lineto
354.982 785.968 348.112 785.285 346 781 curveto
fill
0 0.666667 1 setrgbcolor
239 793  moveto
231.094 764.172 251.869 770.892 253 779  curveto
253.815 784.843 249.877 797.018 242 794  curveto
fill
1 1 0.772549 setrgbcolor
211 815  moveto
227.079 817.934 254.2 806.24 268 801  curveto
268 802 lineto
270.268 801.866 272.924 804.474 274 806 curveto
274 805 lineto
253.929 805.805 217.407 829.389 204 811 curveto
fill
0 0 0 setrgbcolor
320 965  moveto
344.168 967.308 381.845 951.885 386 926  curveto
 stroke
0 0 0 setrgbcolor
217 926  moveto
195.36 907.443 184.421 857.915 183 833  curveto
 stroke
0 0 0 setrgbcolor
183 833  moveto
179.951 820.657 180.464 796.122 184 784  curveto
 stroke
0 0 0 setrgbcolor
329 791  moveto
338.666 804.643 371.493 801.916 385 795  curveto
 stroke
0 0 0 setrgbcolor
331 793  moveto
329.15 792.52 325.901 793.315 325 795  curveto
 stroke
0 0 0 setrgbcolor
326 794  moveto
338.429 813.445 369.906 809.293 385 797  curveto
 stroke
0 0 0 setrgbcolor
323 898  moveto
327.34 911.68 348.157 924.684 361 927  curveto
 stroke
0 0 0 setrgbcolor
354 923  moveto
385.636 893.107 369.31 812.025 362 774  curveto
 stroke
0 0 0 setrgbcolor
327 916  moveto
337.209 923.772 358.746 936.26 371 937  curveto
 stroke
0 0 0 setrgbcolor
409 754  moveto
413.287 730.688 412.763 683.867 405 661  curveto
 stroke
0 0 0 setrgbcolor
363 778  moveto
375.885 795.758 385.789 836.376 386 858  curveto
 stroke
0 0 0 setrgbcolor
390 853  moveto
392.708 807.922 379.422 717.674 388 673  curveto
 stroke
0 0 0 setrgbcolor
387 669  moveto
394.829 680.846 400.348 706.738 399 720  curveto
 stroke
0 0 0 setrgbcolor
398 706  moveto
402.752 696.289 408.231 677.085 405 667  curveto
 stroke
0 0 0 setrgbcolor
371 938  moveto
408.973 913.256 437.566 831.163 423 788  curveto
 stroke
0 0 0 setrgbcolor
414 842  moveto
426.187 813.024 413.732 746.507 412 714  curveto
 stroke
0 0 0 setrgbcolor
413 841  moveto
420.525 829.687 425.312 803.027 423 789  curveto
 stroke
0 0 0 setrgbcolor
208 713  moveto
207.721 679.246 248.337 641.866 269 621  curveto
 stroke
0 0 0 setrgbcolor
270 621  moveto
282.424 619.02 307.39 614.546 320 616  curveto
 stroke
0 0 0 setrgbcolor
317 615  moveto
348.529 628.45 387.514 673.596 390 713  curveto
 stroke
0 0 0 setrgbcolor
328 785  moveto
326.375 783.81 325.04 780.112 325 778  curveto
 stroke
0 0 0 setrgbcolor
328 785  moveto
341.243 786.139 367.985 785.687 380 781  curveto
 stroke
0 0 0 setrgbcolor
380 781  moveto
376.951 775.714 371.426 764.731 369 759  curveto
 stroke
0 0 0 setrgbcolor
263 793  moveto
265.177 791.115 269.66 787.297 270 784  curveto
 stroke
0 0 0 setrgbcolor
261 793  moveto
250.514 794.357 230.464 799.286 220 800  curveto
 stroke
0 0 0 setrgbcolor
220 802  moveto
216.644 794.448 218.823 779.235 222 772  curveto
 stroke
0 0 0 setrgbcolor
224 768  moveto
227.552 764.99 236.303 762.496 241 763  curveto
 stroke
0 0 0 setrgbcolor
344 781  moveto
334.081 768.811 357.222 751.126 364 770  curveto
365.2 773.342 363.05 782.116 359 783  curveto
 stroke
0 0 0 setrgbcolor
359 784  moveto
354.982 785.968 348.112 785.285 346 781  curveto
 stroke
0 0 0 setrgbcolor
239 793  moveto
231.094 764.172 251.869 770.892 253 779  curveto
253.815 784.843 249.877 797.018 242 794  curveto
 stroke
0 0 0 setrgbcolor
211 815  moveto
227.079 817.934 254.2 806.24 268 801  curveto
 stroke
0 0 0 setrgbcolor
268 802  moveto
270.268 801.866 272.924 804.474 274 806  curveto
 stroke
0 0 0 setrgbcolor
274 805  moveto
253.929 805.805 217.407 829.389 204 811  curveto
 stroke
0 0 0 setrgbcolor
329 965  moveto
290.495 975.189 225.863 967.522 217 921  curveto
 stroke
1 1 0.772549 setrgbcolor
316 910  moveto
315.617 919.95 309.398 938.697 299 943  curveto
303 941 lineto
268.996 930.198 209.275 896.456 191 866 curveto
193 870 lineto
192.25 868.75 192.75 868.25 193 868 curveto
195.672 870.866 201.534 876.113 205 878 curveto
206 876 lineto
186.398 841.343 174.922 765.789 186 727 curveto
187 734 lineto
184.329 747.614 189.785 772.889 195 785 curveto
194 783 lineto
189.014 745.331 205.303 675.636 220 643 curveto
221 643 lineto
213.251 708.138 227.685 830.077 255 887 curveto
258 898 lineto
253.823 880.037 248.789 845.864 253 828 curveto
253 819 lineto
254.862 848.728 271.921 907.982 301 930 curveto
303 927 lineto
309.024 920.624 311.692 906.487 307 899 curveto
fill
1 1 0.772549 setrgbcolor
324 914  moveto
330.491 944.691 381.801 983.482 405 1005  curveto
408 1005 lineto
374.356 993.251 325.245 948.083 321 912 curveto
fill
0 0 0 setrgbcolor
307 899  moveto
311.692 906.487 309.024 920.624 303 927  curveto
 stroke
0 0 0 setrgbcolor
301 930  moveto
271.921 907.982 254.862 848.728 253 819  curveto
 stroke
0 0 0 setrgbcolor
258 898  moveto
253.823 880.037 248.789 845.864 253 828  curveto
 stroke
0 0 0 setrgbcolor
255 887  moveto
227.685 830.077 213.251 708.138 221 643  curveto
 stroke
0 0 0 setrgbcolor
316 910  moveto
315.617 919.95 309.398 938.697 299 943  curveto
 stroke
0 0 0 setrgbcolor
303 941  moveto
268.996 930.198 209.275 896.456 191 866  curveto
 stroke
0 0 0 setrgbcolor
193 870  moveto
192.25 868.75 192.75 868.25 193 868  curveto
195.672 870.866 201.534 876.113 205 878  curveto
 stroke
0 0 0 setrgbcolor
206 876  moveto
186.398 841.343 174.922 765.789 186 727  curveto
 stroke
0 0 0 setrgbcolor
195 785  moveto
189.785 772.889 184.329 747.614 187 734  curveto
 stroke
0 0 0 setrgbcolor
194 783  moveto
189.014 745.331 205.303 675.636 220 643  curveto
 stroke
0 0 0 setrgbcolor
321 912  moveto
325.245 948.083 374.356 993.251 408 1005  curveto
 stroke
0 0 0 setrgbcolor
324 914  moveto
330.491 944.691 381.801 983.482 405 1005  curveto
 stroke
