%!PS-Adobe-3.0 EPSF-3.0
%%Creator: cairo 1.12.16 (http://cairographics.org)
%%CreationDate: Thu Mar 27 19:17:11 2014
%%Pages: 1
%%DocumentData: Clean7Bit
%%LanguageLevel: 2
%%BoundingBox: 0 -1 1128 1451
%%EndComments
%%BeginProlog
save
50 dict begin
/q { gsave } bind def
/Q { grestore } bind def
/cm { 6 array astore concat } bind def
/w { setlinewidth } bind def
/J { setlinecap } bind def
/j { setlinejoin } bind def
/M { setmiterlimit } bind def
/d { setdash } bind def
/m { moveto } bind def
/l { lineto } bind def
/c { curveto } bind def
/h { closepath } bind def
/re { exch dup neg 3 1 roll 5 3 roll moveto 0 rlineto
      0 exch rlineto 0 rlineto closepath } bind def
/S { stroke } bind def
/f { fill } bind def
/f* { eofill } bind def
/n { newpath } bind def
/W { clip } bind def
/W* { eoclip } bind def
/BT { } bind def
/ET { } bind def
/pdfmark where { pop globaldict /?pdfmark /exec load put }
    { globaldict begin /?pdfmark /pop load def /pdfmark
    /cleartomark load def end } ifelse
/BDC { mark 3 1 roll /BDC pdfmark } bind def
/EMC { mark /EMC pdfmark } bind def
/cairo_store_point { /cairo_point_y exch def /cairo_point_x exch def } def
/Tj { show currentpoint cairo_store_point } bind def
/TJ {
  {
    dup
    type /stringtype eq
    { show } { -0.001 mul 0 cairo_font_matrix dtransform rmoveto } ifelse
  } forall
  currentpoint cairo_store_point
} bind def
/cairo_selectfont { cairo_font_matrix aload pop pop pop 0 0 6 array astore
    cairo_font exch selectfont cairo_point_x cairo_point_y moveto } bind def
/Tf { pop /cairo_font exch def /cairo_font_matrix where
      { pop cairo_selectfont } if } bind def
/Td { matrix translate cairo_font_matrix matrix concatmatrix dup
      /cairo_font_matrix exch def dup 4 get exch 5 get cairo_store_point
      /cairo_font where { pop cairo_selectfont } if } bind def
/Tm { 2 copy 8 2 roll 6 array astore /cairo_font_matrix exch def
      cairo_store_point /cairo_font where { pop cairo_selectfont } if } bind def
/g { setgray } bind def
/rg { setrgbcolor } bind def
/d1 { setcachedevice } bind def
%%EndProlog
%%Page: 1 1
%%BeginPageSetup
%%PageBoundingBox: 0 -1 1128 1451
%%EndPageSetup
q 0 -1 1128 1452 rectclip q
0 0.807843 0 rg
4 w
0 J
0 j
[] 0.0 d
10 M 64.09 1053.219 m 64.879 1068.215 56.176 1071.523 50.07 1084.445 c 38.867
 1108.16 52.535 1127.055 25.535 1153.27 c 20.348 1158.309 28.648 1179.586
 17.891 1190.867 c S
0 0 1 rg
17.742 1191.551 m 47.172 1203.188 32.113 1230.277 59.801 1235.711 c 98.613
 1243.328 83.348 1263.355 108.871 1273.914 c 120.504 1278.73 126.379 1279.145
 131.652 1291.789 c S
1 0 0 rg
133.512 1292.113 m 143.84 1311.297 157.48 1290.734 177.645 1316.234 c 183.465
 1323.59 215.098 1323.297 237.684 1339.324 c S
0 g
1.087646 w
0.531 1450.008 375.441 -483.156 re S
0 0.807843 0 rg
4 w
443.766 1048.465 m 443.82 1048.738 443.867 1048.941 443.918 1049.211 c 
446.566 1063.547 440.91 1069.199 438.27 1083.543 c 437.641 1087 437.234 
1090.375 436.848 1093.762 c 435.137 1109.395 442.344 1120.219 439.918 1136.332
 c 438.801 1143.746 436.062 1151.203 430.676 1160.258 c 428.066 1164.637
 433.137 1174.605 435.262 1186.887 c 436.098 1191.742 435.41 1197.797 432.508
 1202.504 c S
0 0 1 rg
432.73 1203.609 m 460.922 1216.953 444.949 1242.02 471.539 1250.277 c 481.082
 1253.242 487.621 1256.414 492.434 1260.191 c 503.055 1268.523 501.863 1281.918
 514.594 1291.207 c 515.98 1292.219 517.609 1293.172 519.488 1294.105 c 
530.152 1299.414 536.5 1300.516 540.34 1313.957 c S
1 0 0 rg
542.414 1314.625 m 544.59 1322.191 548.316 1324.59 553.148 1326.59 c 562.043
 1330.273 571.949 1331 580.922 1349.312 c 582.918 1353.387 590.125 1357.059
 599.441 1361.742 c 610.168 1367.133 623.02 1376.004 633.285 1386.516 c S
0 g
1.087646 w
375.973 1450.008 375.438 -483.156 re S
0 0.807843 0 rg
4 w
823.473 1043.773 m 823.566 1044.043 823.613 1044.176 823.703 1044.441 c
 828.488 1058.574 826.402 1065.16 827.574 1080.215 c 827.879 1083.934 828.223
 1087.648 828.426 1091.57 c 829.355 1109.508 841.094 1117.082 842.5 1135.211
 c 843.113 1143.082 842 1150.609 839.277 1160.391 c 837.844 1165.531 845.078
 1174.172 851.637 1187.66 c 853.754 1192.016 854.441 1199.258 852.445 1204.859
 c S
0 0 1 rg
853.012 1206.227 m 879.695 1221.043 863.176 1243.922 888.215 1254.84 c 
896.934 1258.641 903.449 1262.168 908.617 1266.418 c 918.676 1274.695 917.516
 1290.344 929.809 1301.039 c 931.02 1302.094 932.508 1303.09 934.238 1304.094
 c 943.844 1309.727 950.57 1311.59 952.852 1325.609 c S
1 0 0 rg
954.957 1326.652 m 955.484 1334.852 958.953 1337.75 963.734 1341.258 c 
972.285 1347.539 980.445 1351.594 985.117 1370.336 c 986.301 1375.094 992.488
 1380.531 1000.805 1387.445 c 1009.574 1394.742 1018.391 1407.504 1026.289
 1419 c S
0 g
1.087646 w
751.41 1450.008 375.438 -483.156 re S
0 0.807843 0 rg
4 w
76.926 555.973 m 77.059 556.234 77.062 556.301 77.191 556.562 c 84.078 
570.332 85.781 576.316 90.945 591.008 c 92.266 594.719 93.52 598.605 94.531
 603.004 c 99.113 622.945 114.211 625.547 120.289 644.797 c 122.781 652.695
 123.125 659.902 123.086 669.551 c 123.062 675.117 132.004 681.98 143.844
 695.207 c 146.988 698.723 149.637 706.844 148.805 713.18 c S
0 0 1 rg
149.637 714.613 m 174.598 730.648 157.891 751.242 180.98 764.582 c 188.746
 769.074 195.137 772.992 200.645 777.738 c 210.105 785.887 208.703 803.77
 220.355 815.805 c 221.383 816.867 222.727 817.875 224.293 818.938 c 232.797
 824.719 239.789 827.398 240.434 841.754 c S
1 0 0 rg
242.375 843.133 m 241.07 851.555 244.23 854.965 248.473 860.035 c 255.875
 868.891 261.312 875.41 261.957 893.516 c 262.145 898.773 266.805 905.652
 273.551 914.531 c 280.043 923.082 283.742 938.172 289.355 950.098 c S
0 g
1.087646 w
0.531 966.852 375.441 -483.156 re S
0 0.807843 0 rg
4 w
456.766 551.066 m 456.941 551.32 456.871 551.355 457.043 551.605 c 466.051
 564.871 471.16 568.66 480.191 581.867 c 482.539 585.297 484.82 589.121 
486.879 593.848 c 496.152 615.152 512.824 611.449 524.203 630.629 c 528.629
 638.09 530.152 644.668 532.531 653.383 c 534.051 658.969 544.172 663.773
 561.66 674.902 c 565.492 677.34 570.625 685.805 571.184 692.629 c S
0 0 1 rg
572.125 693.934 m 595.199 710.906 578.668 729.199 599.445 744.656 c 606.18
 749.668 612.328 754.012 618.148 759.254 c 626.992 767.227 625.066 787.258
 635.883 800.52 c 636.734 801.562 637.926 802.57 639.324 803.66 c 646.707
 809.418 653.84 812.945 652.812 827.387 c S
1 0 0 rg
654.426 828.984 m 651.23 837.172 653.996 841.105 657.188 847.621 c 662.645
 858.777 664.742 866.617 661.902 883.199 c 660.953 888.719 663.688 896.574
 668.379 906.996 c 672.488 916.113 670.57 931.691 674.109 943.613 c S
0 g
1.087646 w
375.973 966.852 375.438 -483.156 re S
0 0.807843 0 rg
4 w
836.695 546.699 m 836.914 546.938 836.754 546.977 836.969 547.219 c 848.207
 559.828 855.766 559.957 868.195 570.633 c 871.512 573.477 874.855 576.977
 878.188 581.805 c 893.109 603.422 909.098 592.68 926.109 610.355 c 932.387
 616.883 934.762 622.672 939.031 629.789 c 942.125 634.941 952.863 637.582
 975.746 644.551 c 979.887 645.812 987.867 653.859 990 660.871 c S
0 0 1 rg
990.836 661.867 m 1011.902 679.492 995.898 695.516 1014.066 712.738 c 1019.715
 718.09 1025.512 722.883 1031.598 728.621 c 1039.812 736.363 1037.098 758.387
 1046.898 772.738 c 1047.582 773.734 1048.617 774.723 1049.848 775.812 c
 1056.129 781.387 1063.273 785.766 1060.586 800.051 c S
1 0 0 rg
1061.754 801.688 m 1056.727 809.164 1058.992 813.617 1060.656 821.293 c
 1063.457 834.215 1062.043 842.117 1056.426 856.527 c 1054.273 862.035 1054.828
 870.277 1057.113 881.695 c 1058.922 890.727 1051.535 904.898 1053.266 916.5
 c S
0 g
1.087646 w
751.41 966.852 375.438 -483.156 re S
0 0.807843 0 rg
4 w
90.391 58.836 m 90.66 59.059 90.41 59.156 90.66 59.383 c 104.324 71.102
 112.797 66.457 127.879 73.711 c 132.023 75.684 136.418 78.566 141.188 83.176
 c 162.508 103.641 175.246 85.914 197.82 100.477 c 205.75 105.59 208.637
 110.559 214.098 115.645 c 218.641 119.898 229.496 120.438 256.82 121.172
 c 260.879 121.277 271.844 127.992 275.672 134.824 c S
0 0 1 rg
276.109 135.379 m 295.105 153.359 279.961 167.223 295.297 185.805 c 299.836
 191.324 305.172 196.566 311.469 202.781 c 319.043 210.262 315.297 234.055
 323.918 249.324 c 324.438 250.25 325.34 251.195 326.387 252.262 c 331.617
 257.5 338.645 262.723 334.355 276.594 c S
1 0 0 rg
335.027 278.066 m 328.371 284.371 330.004 289.305 329.754 297.703 c 329.375
 311.633 324.711 318.379 317.117 330.219 c 313.77 335.434 312.074 343.41
 311.762 355.191 c 311.531 363.574 299.438 374.594 299.648 385.699 c S
0 g
1.087646 w
0.531 483.695 375.441 -483.156 re S
0 0.807843 0 rg
4 w
470.465 54.039 m 470.777 54.238 470.445 54.445 470.758 54.648 c 487.055
 65.113 494.504 55.172 511.262 58.312 c 515.969 59.188 521.305 61.152 527.621
 65.113 c 555.699 82.629 562.625 58.812 590.281 68.582 c 599.531 71.852 
602.625 76.082 608.422 79 c 614.176 81.898 624.719 80.543 654.785 73.188
 c 658.465 72.289 672.234 76.648 677.777 82.895 c S
0 0 1 rg
677.547 82.945 m 694.453 100.992 680.434 112.848 692.758 132.359 c 696.25
 137.867 700.98 143.535 707.445 150.211 c 714.41 157.402 709.367 182.672
 716.691 198.66 c 717.09 199.496 717.82 200.383 718.719 201.402 c 722.988
 206.176 729.746 212.195 723.949 225.422 c S
1 0 0 rg
724.18 226.516 m 716.188 231.246 717.047 236.578 714.66 245.137 c 710.789
 259.16 703.551 263.711 694.785 272.84 c 690.328 277.48 686.543 284.527 
683.594 296.016 c 681.711 303.309 666.25 309.805 665.16 320.332 c S
0 g
1.087646 w
375.973 483.695 375.438 -483.156 re S
0 0.807843 0 rg
4 w
850.566 49.113 m 850.922 49.281 850.547 49.648 850.922 49.816 c 875.609
 61.004 875.527 32.68 910.508 45.258 c 945.215 57.742 943.961 29.621 975.699
 32.988 c 998.23 35.383 985.93 50.598 1041.227 20.023 c 1044.238 18.359 
1060.305 19.355 1067.523 24.578 c S
0 0 1 rg
1066.332 24.137 m 1085.121 46.746 1059.781 56.852 1090.809 90.496 c 1097.172
 97.383 1090.664 123.773 1096.605 140.266 c 1098.027 144.188 1109.617 150.914
 1100.832 166.07 c S
1 0 0 rg
1100.727 166.59 m 1091.836 169.445 1091.773 175.031 1087.23 183.129 c 1075.516
 203.965 1060.074 195.824 1045.453 224.262 c 1042.398 230.191 1025.219 231.305
 1023.023 241.238 c S
0 g
1.087646 w
751.41 483.695 375.438 -483.156 re S
Q Q
showpage
%%Trailer
end restore
%%EOF
