%!PS-Adobe-3.0 EPSF-3.0
%%BoundingBox: 127.000000 -483.000000 370.537000 -35.301880
1 -1 scale
0.078431 0.192157 0.705882 setrgbcolor
341.359979 268.460196  moveto
344.115750 297.295088 350.410119 331.149638 361.523135 350.926180  curveto
341.000000 268.000000  moveto
341.324000 295.064000 356.596000 345.939000 367.000000 370.000000  curveto
stroke
0.572549 0.705882 0.674510 setrgbcolor
332.536738 304.985416  moveto
325.096294 310.716802 307.381884 316.980157 299.375483 320.057693  curveto
329.000000 304.000000  moveto
322.945000 309.713000 309.485000 319.252000 302.000000 323.000000  curveto
stroke
0.380392 0.705882 0.701961 setrgbcolor
310.670070 330.984524  moveto
310.537402 340.282785 305.489284 357.994961 305.377015 368.238673  curveto
312.000000 338.000000  moveto
300.504000 345.560000 302.012000 370.162000 299.000000 381.000000  curveto
stroke
0.705882 0.082353 0.035294 setrgbcolor
362.175517 351.809632  moveto
351.380702 395.748532 298.592988 399.361453 247.693515 375.796844  curveto
366.746000 371.748000  moveto
326.785000 395.279000 290.606000 397.610000 247.946000 371.748000  curveto
stroke
0.662745 0.705882 0.670588 setrgbcolor
334.532438 273.043629  moveto
340.166618 267.228858 340.973477 263.079737 346.126949 256.898710  curveto
349.000000 256.000000  moveto
347.195000 260.428000 341.764000 268.155000 339.000000 272.000000  curveto
346.126949 256.898710  moveto
345.443351 249.580638 343.271232 245.992845 343.062800 238.885228  curveto
349.000000 256.000000  moveto
345.051000 249.307000 345.353000 245.526000 343.000000 238.000000  curveto
stroke
0.447059 0.474510 0.705882 setrgbcolor
310.555108 247.634129  moveto
307.621185 259.255950 317.310060 290.514940 330.879457 304.282210  curveto
311.000000 241.000000  moveto
303.728000 258.198000 318.183000 289.191000 328.000000 303.000000  curveto
stroke
0.309804 0.705882 0.258824 setrgbcolor
285.237417 234.032407  moveto
283.273080 241.967649 281.003328 258.248170 279.756077 266.337660  curveto
283.000000 235.000000  moveto
282.783000 245.584000 278.498000 266.061000 275.000000 276.000000  curveto
stroke
0.705882 0.705882 0.698039 setrgbcolor
299.944378 209.348499  moveto
296.061976 216.328943 287.074212 229.300184 284.006330 236.877111  curveto
298.000000 204.000000  moveto
294.317000 212.411000 287.444000 229.489000 283.000000 238.000000  curveto
stroke
0.278431 0.705882 0.050980 setrgbcolor
343.026688 240.036807  moveto
346.547367 215.130010 349.164070 202.379895 358.958591 179.428183  curveto
343.000000 242.000000  moveto
346.399000 213.884000 353.058000 200.914000 360.000000 174.000000  curveto
stroke
0.705882 0.376471 0.364706 setrgbcolor
244.751617 328.464023  moveto
249.730745 345.578546 249.921759 354.767047 249.650420 372.202608  curveto
253.424000 326.297000  moveto
253.762000 344.105000 254.871000 354.651000 244.107000 367.558000  curveto
stroke
0.643137 0.674510 0.705882 setrgbcolor
199.946927 296.141574  moveto
201.494559 312.003514 201.274927 319.729171 202.648260 335.294602  curveto
196.000000 290.000000  moveto
200.983000 303.099000 200.476000 311.188000 201.000000 326.000000  curveto
stroke
0.286275 0.274510 0.705882 setrgbcolor
183.023392 252.617533  moveto
186.306864 264.542669 198.270912 285.506867 200.015403 298.198586  curveto
183.000000 240.000000  moveto
176.277000 257.387000 200.971000 279.349000 196.000000 293.000000  curveto
stroke
0.388235 0.705882 0.600000 setrgbcolor
183.625075 221.768636  moveto
183.533349 230.332852 183.574529 245.980726 184.042820 253.520450  curveto
183.000000 219.000000  moveto
185.260000 225.102000 183.870000 237.137000 182.000000 243.000000  curveto
stroke
0.215686 0.705882 0.396078 setrgbcolor
231.526843 49.872434  moveto
294.952875 35.301880 367.801144 103.157520 358.958591 179.428183  curveto
234.000000 49.000000  moveto
323.345000 40.168000 370.537000 96.249200 360.000000 175.000000  curveto
stroke
0.705882 0.701961 0.400000 setrgbcolor
165.294934 165.669053  moveto
164.339926 153.760986 161.874262 128.289053 161.467963 115.492052  curveto
167.000000 169.000000  moveto
167.996000 151.578000 162.869000 117.740000 165.000000 101.000000  curveto
stroke
0.192157 0.705882 0.525490 setrgbcolor
164.287328 164.763838  moveto
168.809443 185.425821 177.087973 192.676599 183.010368 223.075462  curveto
167.000000 171.000000  moveto
173.317000 191.319000 180.637000 200.580000 184.000000 222.000000  curveto
stroke
0.694118 0.701961 0.705882 setrgbcolor
161.482531 116.494201  moveto
165.690120 83.183479 203.700014 49.170454 233.262083 49.835838  curveto
163.000000 105.000000  moveto
171.114000 78.560500 206.618000 45.938800 235.000000 49.000000  curveto
stroke
0.705882 0.705882 0.705882 setrgbcolor
stroke
0.360784 0.301961 0.705882 setrgbcolor
211.489457 275.188724  moveto
211.028354 290.925725 198.976729 316.428642 195.357814 331.096219  curveto
211.000000 276.000000  moveto
202.976000 293.478000 189.806000 328.183000 203.000000 343.000000  curveto
230.945740 307.382095  moveto
231.502541 314.241826 222.473531 322.585259 220.156663 328.161259  curveto
224.000000 311.000000  moveto
225.848000 314.944000 224.876000 323.154000 223.000000 327.000000  curveto
211.005532 316.367506  moveto
213.329021 316.958590 216.520024 323.378727 218.917142 325.526190  curveto
212.985000 315.007000  moveto
217.927000 319.083000 218.704000 322.306000 222.223000 327.494000  curveto
210.702003 315.373650  moveto
213.651387 302.698169 216.060555 297.437465 224.067227 291.159911  curveto
212.416000 314.640000  moveto
215.146000 305.189000 218.877000 300.797000 219.356000 291.122000  curveto
stroke
0.431373 0.533333 0.705882 setrgbcolor
233.088529 271.934444  moveto
241.336190 282.688783 265.483250 293.671606 274.745725 304.211524  curveto
235.000000 270.000000  moveto
243.871000 282.243000 270.246000 294.820000 277.000000 308.000000  curveto
221.935713 291.077467  moveto
237.673307 293.123922 256.795269 303.556014 264.889290 305.643382  curveto
220.000000 291.000000  moveto
230.576000 297.089000 254.772000 303.082000 267.000000 307.000000  curveto
stroke
0.705882 0.388235 0.215686 setrgbcolor
244.848359 324.788204  moveto
252.182159 322.753483 263.730311 315.208063 265.032575 306.754573  curveto
241.000000 321.000000  moveto
250.012000 321.864000 262.270000 311.763000 268.000000 306.000000  curveto
242.983551 308.242319  moveto
241.631931 312.325014 241.796297 321.669133 246.099859 323.828655  curveto
236.262000 308.732000  moveto
235.671000 314.328000 237.838000 316.415000 240.889000 320.684000  curveto
219.550021 307.401976  moveto
231.713434 304.879536 239.068284 307.905815 251.329326 309.805170  curveto
220.455000 311.816000  moveto
229.680000 307.924000 235.383000 308.497000 245.515000 307.961000  curveto
stroke
0.082353 0.705882 0.384314 setrgbcolor
273.172946 302.177030  moveto
284.507210 307.455452 289.762115 309.836207 298.970943 315.777520  curveto
274.000000 303.000000  moveto
280.364000 308.941000 295.435000 317.695000 303.000000 322.000000  curveto
stroke
0.705882 0.552941 0.552941 setrgbcolor
232.037310 418.797263  moveto
239.924287 389.115148 273.087165 345.303414 299.227801 317.766963  curveto
302.000000 320.000000  moveto
273.101000 342.829000 243.020000 394.895000 230.000000 429.000000  curveto
stroke
0.705882 0.243137 0.172549 setrgbcolor
195.816443 329.803763  moveto
194.556016 340.093654 194.911444 358.286729 197.486304 367.554410  curveto
200.000000 337.000000  moveto
194.278000 341.977000 186.817000 353.409000 191.000000 361.000000  curveto
stroke
0.537255 0.705882 0.227451 setrgbcolor
198.929352 361.724832  moveto
199.137293 379.413989 186.347801 412.751842 183.041889 430.399898  curveto
180.000000 427.000000  moveto
186.189000 411.887000 192.165000 379.734000 193.000000 363.000000  curveto
stroke
0.301961 0.639216 0.705882 setrgbcolor
203.605170 455.758793  moveto
209.621812 444.978270 227.465903 429.517104 232.756372 417.615671  curveto
230.000000 429.000000  moveto
226.960000 436.963000 206.523000 454.113000 199.000000 462.000000  curveto
202.097026 458.081135  moveto
201.971986 456.356542 202.954369 455.565086 203.605170 455.758793  curveto
206.126841 440.024143  moveto
202.935441 445.065733 200.566407 455.484613 200.154918 459.803105  curveto
195.000000 466.000000  moveto
201.886000 461.632000 208.648000 447.832000 210.000000 440.000000  curveto
stroke
0.011765 0.313725 0.705882 setrgbcolor
185.999852 426.019359  moveto
179.197749 437.205146 158.213135 452.775990 153.981857 467.253416  curveto
180.000000 425.000000  moveto
167.335000 442.541000 158.078000 449.516000 153.000000 471.000000  curveto
158.000000 482.000000  moveto
169.597130 472.352021 193.260994 454.831224 202.552897 442.491680  curveto
209.000000 441.000000  moveto
199.007000 454.702000 171.618000 473.273000 157.000000 483.000000  curveto
157.941852 480.791734  moveto
166.254987 471.637537 167.681684 465.306454 173.862280 455.381480  curveto
171.771187 457.246871  moveto
164.181759 460.752968 161.884756 468.002616 155.606804 477.633600  curveto
157.000000 483.000000  moveto
161.541000 472.877000 164.408000 467.677000 166.000000 457.000000  curveto
165.000000 459.000000  moveto
160.347000 463.959000 160.530000 467.508000 158.000000 473.000000  curveto
153.463665 479.115012  moveto
156.592820 469.478303 157.633017 463.441368 164.368037 455.040763  curveto
163.310556 455.394528  moveto
158.593474 461.628361 154.919994 464.817191 153.074481 471.383273  curveto
163.000000 452.000000  moveto
159.040000 459.258000 156.357000 462.287000 154.000000 470.000000  curveto
158.000000 473.000000  moveto
158.345000 464.379000 159.020000 460.409000 163.000000 453.000000  curveto
stroke
0.705882 0.705882 0.705882 setrgbcolor
stroke
0.160784 0.388235 0.705882 setrgbcolor
182.295936 210.387270  moveto
187.637353 210.103531 196.885124 208.211186 199.523640 206.639225  curveto
183.086000 208.983000  moveto
190.663000 207.266000 194.242000 205.438000 201.971000 204.306000  curveto
200.212025 192.010829  moveto
190.389076 196.861053 186.362471 197.357072 179.708088 203.389835  curveto
181.467000 203.227000  moveto
187.610000 200.044000 190.261000 197.701000 196.576000 195.314000  curveto
191.815000 197.845000  moveto
195.894000 198.314000 196.902000 202.667000 194.030000 205.690000  curveto
188.022246 198.056476  moveto
193.785959 195.823467 195.278790 207.061678 191.812421 208.674479  curveto
199.463328 206.824653  moveto
197.399067 201.967130 198.601345 198.005107 200.212025 192.010829  curveto
196.842000 195.457000  moveto
198.072000 199.143000 199.300000 200.721000 201.630000 204.163000  curveto
190.869545 208.922419  moveto
184.975820 208.870160 183.479900 198.314334 188.022246 198.056476  curveto
189.784000 206.982000  moveto
186.103000 205.668000 185.386000 203.210000 187.384000 199.968000  curveto
179.808851 203.608618  moveto
179.738288 207.614589 180.231945 208.597887 181.655515 210.327341  curveto
182.478000 209.168000  moveto
182.370000 206.967000 182.765000 205.770000 181.608000 203.510000  curveto
198.459763 220.547411  moveto
193.569421 221.414308 190.517118 218.557005 185.734594 215.526672  curveto
199.299000 223.423000  moveto
193.184000 221.318000 190.872000 218.944000 184.960000 216.413000  curveto
201.137763 211.170258  moveto
201.352478 215.947344 200.665876 217.580486 198.459763 220.547411  curveto
205.000000 209.000000  moveto
202.424000 214.522000 202.033000 217.413000 200.000000 223.000000  curveto
stroke
0.086275 0.470588 0.705882 setrgbcolor
189.668828 185.225232  moveto
184.116065 185.435624 174.554409 186.645138 170.032051 187.037394  curveto
187.000000 189.000000  moveto
180.644000 187.737000 176.695000 186.619000 171.000000 189.000000  curveto
201.374653 175.855114  moveto
199.952318 179.275267 193.081776 184.131794 188.451419 186.481179  curveto
188.000000 188.000000  moveto
192.080000 184.384000 194.286000 183.114000 198.000000 179.000000  curveto
167.000000 170.000000  moveto
180.674939 179.437489 191.378913 174.780913 200.028264 158.255575  curveto
166.000000 171.000000  moveto
176.057000 179.057000 194.170000 172.427000 201.000000 155.000000  curveto
stroke
0.690196 0.705882 0.188235 setrgbcolor
170.000000 202.000000  moveto
172.774000 197.323000 171.902000 194.118000 172.000000 188.000000  curveto
167.000000 189.000000  moveto
169.282000 193.747000 169.397000 196.603000 170.000000 202.000000  curveto
169.923262 187.843945  moveto
166.766603 192.001551 167.198110 195.869983 164.052388 198.436762  curveto
162.738609 199.640951  moveto
165.501427 196.917793 164.720584 193.249886 165.527726 188.493849  curveto
161.000000 199.000000  moveto
164.718000 195.791000 163.757000 192.742000 166.000000 189.000000  curveto
164.904043 189.180564  moveto
164.396508 193.157980 163.098362 194.637451 159.925425 197.114240  curveto
162.644713 187.541838  moveto
161.962423 192.087597 162.400759 194.948693 159.143050 197.793797  curveto
164.000000 185.000000  moveto
164.129000 190.310000 161.915000 192.673000 161.000000 198.000000  curveto
165.704437 171.241461  moveto
164.748960 179.621373 162.012760 182.897853 156.993880 187.120951  curveto
165.000000 173.000000  moveto
163.097000 179.669000 160.990000 183.009000 158.000000 189.000000  curveto
156.183730 187.719947  moveto
159.257148 189.501667 160.458025 187.735159 163.319890 186.881774  curveto
158.000000 191.000000  moveto
161.190000 188.893000 160.520000 186.550000 163.000000 184.000000  curveto
stroke
0.282353 0.705882 0.000000 setrgbcolor
221.000000 136.000000  moveto
221.057000 140.578000 218.123000 151.467000 217.000000 157.000000  curveto
214.529166 136.010848  moveto
212.788508 142.706648 211.896913 145.867115 209.985218 152.149771  curveto
210.018673 151.156219  moveto
212.179780 155.347217 215.035877 157.092795 220.196512 161.412875  curveto
217.000000 154.000000  moveto
218.927000 156.816000 224.256000 161.386000 225.000000 165.000000  curveto
201.391590 179.992398  moveto
200.887614 174.748583 200.771266 165.469067 200.046115 159.012723  curveto
199.000000 179.000000  moveto
200.129000 169.412000 200.241000 164.382000 201.000000 155.000000  curveto
203.935231 162.262639  moveto
205.758616 165.387177 206.105344 172.105048 207.190015 175.297870  curveto
207.000000 166.000000  moveto
208.370000 168.480000 211.012000 173.424000 212.000000 176.000000  curveto
stroke
0.705882 0.584314 0.372549 setrgbcolor
256.977441 192.022196  moveto
265.829628 190.790344 280.738916 187.269118 288.280956 185.745161  curveto
250.000000 189.000000  moveto
260.842000 186.835000 282.881000 186.917000 294.000000 186.000000  curveto
275.311000 179.118000  moveto
282.024000 182.717000 286.348000 182.413000 293.186000 186.128000  curveto
272.763960 176.179423  moveto
278.800848 179.037192 281.720852 180.936504 288.333845 185.365835  curveto
276.186933 213.094875  moveto
278.950068 208.076272 283.562481 197.986614 287.789309 199.812052  curveto
287.000000 200.000000  moveto
282.491000 202.017000 276.647000 210.053000 272.000000 212.000000  curveto
stroke
0.705882 0.423529 0.392157 setrgbcolor
263.236000 179.496000  moveto
258.037000 180.385000 257.824000 187.812000 262.960000 187.433000  curveto
270.300352 189.254916  moveto
263.319138 188.871626 260.282451 179.483211 267.313171 178.715837  curveto
256.127988 179.799298  moveto
262.324616 178.405730 265.880350 179.101389 272.763960 176.179423  curveto
252.471000 181.504000  moveto
261.218000 179.581000 265.689000 178.841000 274.948000 178.959000  curveto
266.744000 187.249000  moveto
271.095000 185.987000 270.725000 178.926000 265.821000 179.219000  curveto
267.515399 178.516603  moveto
274.323459 178.757487 276.438803 188.116784 269.827984 188.560627  curveto
256.266329 191.825329  moveto
256.096365 186.596015 255.964625 184.039663 256.133942 180.050130  curveto
249.646000 189.142000  moveto
250.389000 186.214000 251.415000 185.021000 252.226000 182.140000  curveto
241.024744 192.466219  moveto
249.592173 198.300958 268.162022 210.052689 276.495920 212.086807  curveto
242.000000 193.000000  moveto
250.278000 197.027000 265.433000 207.463000 273.000000 213.000000  curveto
stroke
0.600000 0.705882 0.639216 setrgbcolor
240.936303 168.590751  moveto
248.775736 167.347365 268.225863 161.653206 282.758991 155.937086  curveto
242.000000 169.000000  moveto
254.650000 167.182000 277.766000 160.324000 288.000000 154.000000  curveto
234.774867 165.254816  moveto
239.968970 166.360510 256.233755 152.498355 283.671749 132.865012  curveto
233.000000 165.000000  moveto
253.991000 153.010000 262.562000 144.288000 284.000000 132.000000  curveto
stroke
0.196078 0.705882 0.313725 setrgbcolor
233.006797 165.254537  moveto
234.641677 165.959747 238.183818 167.966080 241.387490 169.357786  curveto
243.000000 167.000000  moveto
240.972000 166.813000 235.250000 163.522000 232.000000 163.000000  curveto
stroke
0.254902 0.352941 0.705882 setrgbcolor
280.158261 107.546139  moveto
282.230605 117.820880 299.661123 136.638652 308.541396 149.984618  curveto
292.000000 94.000000  moveto
295.761000 105.583000 297.160000 129.800000 309.000000 138.000000  curveto
stroke
0.705882 0.278431 0.247059 setrgbcolor
317.582416 156.530554  moveto
314.127368 156.203436 308.151922 156.610486 305.326145 156.947603  curveto
306.000000 155.000000  moveto
308.747000 156.973000 310.632000 155.392000 314.000000 154.000000  curveto
313.000000 159.000000  moveto
310.424000 157.748000 308.858000 157.456000 307.000000 155.000000  curveto
304.031611 156.699779  moveto
306.920939 158.331195 313.548680 160.417337 316.514363 162.012305  curveto
303.000000 158.000000  moveto
307.205000 160.420000 309.678000 159.839000 314.000000 161.000000  curveto
316.576261 162.835621  moveto
311.915390 162.664277 309.005089 161.970155 303.578981 160.041248  curveto
308.848103 170.121979  moveto
306.730043 166.677118 304.161629 165.141691 303.589964 160.935282  curveto
310.000000 169.000000  moveto
307.461000 165.286000 306.760000 162.901000 303.000000 160.000000  curveto
283.671749 132.865012  moveto
291.567800 149.680026 299.887737 150.575899 318.619995 155.948590  curveto
284.000000 133.000000  moveto
289.597000 148.049000 299.785000 148.035000 315.000000 154.000000  curveto
282.773295 155.000000  moveto
293.752124 161.299280 298.522789 164.634161 308.848103 170.121979  curveto
287.000000 155.000000  moveto
292.710000 156.491000 303.520000 165.002000 310.000000 167.000000  curveto
stroke
0.705882 0.705882 0.705882 setrgbcolor
stroke
0.321569 0.529412 0.705882 setrgbcolor
338.205171 229.252219  moveto
337.468833 237.584698 328.755491 253.011166 328.953860 261.256625  curveto
331.991000 260.105000  moveto
336.751000 252.382000 337.816000 246.667000 337.387000 237.214000  curveto
328.953860 261.256625  moveto
322.621533 261.788581 314.840906 253.849576 311.398202 249.568100  curveto
309.000000 251.000000  moveto
313.568000 256.217000 325.820000 260.761000 332.000000 260.000000  curveto
311.021592 249.105379  moveto
313.882035 244.479324 315.537753 241.744757 315.166699 236.416742  curveto
308.593000 250.755000  moveto
310.163000 247.051000 310.443000 245.002000 310.531000 241.064000  curveto
stroke
0.694118 0.694118 0.705882 setrgbcolor
323.848298 226.641527  moveto
329.937055 236.282809 334.977522 220.183573 339.424062 215.225812  curveto
324.000000 227.000000  moveto
331.703000 228.712000 337.219000 218.159000 339.000000 212.000000  curveto
321.132661 206.277141  moveto
332.978054 212.526370 326.263499 220.797756 322.726618 226.428884  curveto
321.000000 205.000000  moveto
330.040000 209.991000 328.426000 220.403000 322.000000 227.000000  curveto
349.462006 197.054955  moveto
351.608409 214.739815 342.971021 223.165047 329.936913 236.099167  curveto
350.000000 196.000000  moveto
351.211000 217.179000 347.820000 228.149000 332.000000 242.000000  curveto
stroke
0.670588 0.705882 0.258824 setrgbcolor
345.959643 168.862423  moveto
336.418351 175.142414 312.988654 186.384532 326.082211 197.621720  curveto
323.000000 193.000000  moveto
326.716000 177.546000 333.687000 172.986000 348.000000 169.000000  curveto
339.358953 163.946269  moveto
327.339785 166.341998 324.231460 170.411780 315.598804 176.712383  curveto
336.733000 165.270000  moveto
328.496000 170.505000 327.611000 176.508000 319.891000 182.602000  curveto
340.000000 164.000000  moveto
365.295568 163.970112 360.781134 185.654004 347.273859 198.006537  curveto
349.000000 198.000000  moveto
361.532000 181.079000 364.715000 160.918000 337.000000 165.000000  curveto
345.772526 168.998843  moveto
349.796481 170.493691 349.861496 174.211841 348.755193 178.677206  curveto
347.859000 169.092000  moveto
349.266000 172.430000 349.561000 174.492000 348.938000 178.085000  curveto
331.661528 178.416537  moveto
338.466866 180.560412 342.096625 189.578994 342.901248 194.223899  curveto
331.571000 176.909000  moveto
337.446000 182.484000 339.687000 185.821000 339.668000 193.488000  curveto
stroke
0.705882 0.705882 0.705882 setrgbcolor
stroke
0.705882 0.674510 0.666667 setrgbcolor
204.342709 245.145151  moveto
202.855152 252.810624 200.470277 265.726786 204.572835 271.055505  curveto
208.000000 253.000000  moveto
202.504000 263.211000 197.323000 273.050000 206.000000 278.000000  curveto
203.765849 261.954068  moveto
206.430876 265.175484 211.567000 276.151310 216.685960 279.815753  curveto
204.681000 270.788000  moveto
210.984000 273.861000 213.888000 277.185000 219.949000 281.815000  curveto
stroke
0.568627 0.705882 0.666667 setrgbcolor
216.685960 279.815753  moveto
218.146595 276.058656 225.332782 274.256927 230.572303 274.663246  curveto
219.949000 281.815000  moveto
224.138000 279.646000 225.081000 276.975000 229.279000 275.029000  curveto
216.022965 267.900760  moveto
219.054146 264.560260 229.416674 265.860868 235.607478 267.444297  curveto
223.766000 272.484000  moveto
228.210000 270.679000 230.659000 270.557000 235.640000 270.788000  curveto
229.677770 254.667983  moveto
240.288786 256.083464 247.248467 265.772043 241.419242 271.845724  curveto
238.000000 273.000000  moveto
243.199000 266.031000 238.771000 258.763000 231.000000 260.000000  curveto
stroke
0.705882 0.600000 0.180392 setrgbcolor
208.236886 187.457920  moveto
205.580201 202.636345 204.769686 234.631154 205.007190 250.805589  curveto
205.874000 193.842000  moveto
197.525000 221.683000 206.668000 234.867000 207.115000 264.007000  curveto
stroke
0.227451 0.705882 0.117647 setrgbcolor
211.696534 229.273577  moveto
212.303061 234.621328 216.116641 244.537140 221.197097 247.971219  curveto
216.000000 237.000000  moveto
216.850000 242.675000 219.457000 244.261000 221.000000 250.000000  curveto
stroke
0.517647 0.705882 0.400000 setrgbcolor
207.842662 186.141750  moveto
208.649654 186.969708 214.426758 184.515571 226.024110 180.423976  curveto
206.114000 192.620000  moveto
211.309000 188.872000 214.636000 190.920000 221.150000 191.077000  curveto
stroke
0.705882 0.705882 0.705882 setrgbcolor
stroke
