%!PS-Adobe-3.0 EPSF-3.0
%%BoundingBox: 0 0 100 70

/dot {1 0 360 arc fill} bind def


gsave 
0.2 setlinewidth
10 10 moveto
10 60 lineto
40 60 lineto
60 30 lineto
80 50 lineto
90 10 lineto
60 10 lineto

1 0 0 setrgbcolor
[2 1] 0 setdash
stroke
grestore 

0.6 setlinewidth
10 10 moveto
10 60
40 60
60 30 curveto
80 50
90 10
60 10 curveto

0 0 1 setrgbcolor
stroke

0 0 0 setrgbcolor
10 10 dot
10 60 dot
40 60 dot
60 30 dot
80 50 dot
90 10 dot
60 10 dot
