%!PS-Adobe-3.0 EPSF-3.0
%%Creator: cairo 1.12.16 (http://cairographics.org)
%%CreationDate: Wed Mar 26 15:42:06 2014
%%Pages: 1
%%DocumentData: Clean7Bit
%%LanguageLevel: 2
%%BoundingBox: 0 -1 92 52
%%EndComments
%%BeginProlog
save
50 dict begin
/q { gsave } bind def
/Q { grestore } bind def
/cm { 6 array astore concat } bind def
/w { setlinewidth } bind def
/J { setlinecap } bind def
/j { setlinejoin } bind def
/M { setmiterlimit } bind def
/d { setdash } bind def
/m { moveto } bind def
/l { lineto } bind def
/c { curveto } bind def
/h { closepath } bind def
/re { exch dup neg 3 1 roll 5 3 roll moveto 0 rlineto
      0 exch rlineto 0 rlineto closepath } bind def
/S { stroke } bind def
/f { fill } bind def
/f* { eofill } bind def
/n { newpath } bind def
/W { clip } bind def
/W* { eoclip } bind def
/BT { } bind def
/ET { } bind def
/pdfmark where { pop globaldict /?pdfmark /exec load put }
    { globaldict begin /?pdfmark /pop load def /pdfmark
    /cleartomark load def end } ifelse
/BDC { mark 3 1 roll /BDC pdfmark } bind def
/EMC { mark /EMC pdfmark } bind def
/cairo_store_point { /cairo_point_y exch def /cairo_point_x exch def } def
/Tj { show currentpoint cairo_store_point } bind def
/TJ {
  {
    dup
    type /stringtype eq
    { show } { -0.001 mul 0 cairo_font_matrix dtransform rmoveto } ifelse
  } forall
  currentpoint cairo_store_point
} bind def
/cairo_selectfont { cairo_font_matrix aload pop pop pop 0 0 6 array astore
    cairo_font exch selectfont cairo_point_x cairo_point_y moveto } bind def
/Tf { pop /cairo_font exch def /cairo_font_matrix where
      { pop cairo_selectfont } if } bind def
/Td { matrix translate cairo_font_matrix matrix concatmatrix dup
      /cairo_font_matrix exch def dup 4 get exch 5 get cairo_store_point
      /cairo_font where { pop cairo_selectfont } if } bind def
/Tm { 2 copy 8 2 roll 6 array astore /cairo_font_matrix exch def
      cairo_store_point /cairo_font where { pop cairo_selectfont } if } bind def
/g { setgray } bind def
/rg { setrgbcolor } bind def
/d1 { setcachedevice } bind def
%%EndProlog
%%Page: 1 1
%%BeginPageSetup
%%PageBoundingBox: 0 -1 92 52
%%EndPageSetup
q 0 -1 92 53 rectclip q
0 g
0.1 w
0 J
0 j
[ 1 1] 0 d
10 M 0.594 50.984 m 2.594 29.984 l 25.594 32.984 l 30.594 40.984 l 60.594 40.984
 l 80.594 25.984 l 90.594 50.984 l S
0.2 w
[] 0.0 d
0.594 50.984 m 2.594 29.984 25.594 32.984 30.594 40.984 c 60.594 40.984
 80.594 25.984 90.594 50.984 c S
1 g
1.094 50.984 m 1.094 50.707 0.871 50.484 0.594 50.484 c 0.316 50.484 0.094
 50.707 0.094 50.984 c 0.094 51.262 0.316 51.484 0.594 51.484 c 0.871 51.484
 1.094 51.262 1.094 50.984 c f
0 g
1.094 50.984 m 1.094 50.707 0.871 50.484 0.594 50.484 c 0.316 50.484 0.094
 50.707 0.094 50.984 c 0.094 51.262 0.316 51.484 0.594 51.484 c 0.871 51.484
 1.094 51.262 1.094 50.984 c S
1 g
3.094 29.984 m 3.094 29.707 2.871 29.484 2.594 29.484 c 2.316 29.484 2.094
 29.707 2.094 29.984 c 2.094 30.262 2.316 30.484 2.594 30.484 c 2.871 30.484
 3.094 30.262 3.094 29.984 c f
0 g
3.094 29.984 m 3.094 29.707 2.871 29.484 2.594 29.484 c 2.316 29.484 2.094
 29.707 2.094 29.984 c 2.094 30.262 2.316 30.484 2.594 30.484 c 2.871 30.484
 3.094 30.262 3.094 29.984 c S
1 g
26.094 32.984 m 26.094 32.707 25.871 32.484 25.594 32.484 c 25.316 32.484
 25.094 32.707 25.094 32.984 c 25.094 33.262 25.316 33.484 25.594 33.484
 c 25.871 33.484 26.094 33.262 26.094 32.984 c f
0 g
26.094 32.984 m 26.094 32.707 25.871 32.484 25.594 32.484 c 25.316 32.484
 25.094 32.707 25.094 32.984 c 25.094 33.262 25.316 33.484 25.594 33.484
 c 25.871 33.484 26.094 33.262 26.094 32.984 c S
1 g
31.094 40.984 m 31.094 40.707 30.871 40.484 30.594 40.484 c 30.316 40.484
 30.094 40.707 30.094 40.984 c 30.094 41.262 30.316 41.484 30.594 41.484
 c 30.871 41.484 31.094 41.262 31.094 40.984 c f
0 g
31.094 40.984 m 31.094 40.707 30.871 40.484 30.594 40.484 c 30.316 40.484
 30.094 40.707 30.094 40.984 c 30.094 41.262 30.316 41.484 30.594 41.484
 c 30.871 41.484 31.094 41.262 31.094 40.984 c S
1 g
61.094 40.984 m 61.094 40.707 60.871 40.484 60.594 40.484 c 60.316 40.484
 60.094 40.707 60.094 40.984 c 60.094 41.262 60.316 41.484 60.594 41.484
 c 60.871 41.484 61.094 41.262 61.094 40.984 c f
0 g
61.094 40.984 m 61.094 40.707 60.871 40.484 60.594 40.484 c 60.316 40.484
 60.094 40.707 60.094 40.984 c 60.094 41.262 60.316 41.484 60.594 41.484
 c 60.871 41.484 61.094 41.262 61.094 40.984 c S
1 g
81.094 25.984 m 81.094 25.707 80.871 25.484 80.594 25.484 c 80.316 25.484
 80.094 25.707 80.094 25.984 c 80.094 26.262 80.316 26.484 80.594 26.484
 c 80.871 26.484 81.094 26.262 81.094 25.984 c f
0 g
81.094 25.984 m 81.094 25.707 80.871 25.484 80.594 25.484 c 80.316 25.484
 80.094 25.707 80.094 25.984 c 80.094 26.262 80.316 26.484 80.594 26.484
 c 80.871 26.484 81.094 26.262 81.094 25.984 c S
1 g
91.094 50.984 m 91.094 50.707 90.871 50.484 90.594 50.484 c 90.316 50.484
 90.094 50.707 90.094 50.984 c 90.094 51.262 90.316 51.484 90.594 51.484
 c 90.871 51.484 91.094 51.262 91.094 50.984 c f
0 g
91.094 50.984 m 91.094 50.707 90.871 50.484 90.594 50.484 c 90.316 50.484
 90.094 50.707 90.094 50.984 c 90.094 51.262 90.316 51.484 90.594 51.484
 c 90.871 51.484 91.094 51.262 91.094 50.984 c S
31.594 40.984 m 31.594 40.434 31.145 39.984 30.594 39.984 c 30.043 39.984
 29.594 40.434 29.594 40.984 c 29.594 41.535 30.043 41.984 30.594 41.984
 c 31.145 41.984 31.594 41.535 31.594 40.984 c S
0.1 w
[ 1 1] 0 d
0.594 25.594 m 2.594 4.594 l 21.398 13.492 l 30.594 15.594 l 59.84 22.277
 l 80.594 0.594 l 90.594 25.594 l S
0.2 w
[] 0.0 d
0.594 25.594 m 2.594 4.594 21.398 13.492 30.594 15.594 c 59.84 22.277 80.594
 0.594 90.594 25.594 c S
1 g
1.094 25.594 m 1.094 25.316 0.871 25.094 0.594 25.094 c 0.316 25.094 0.094
 25.316 0.094 25.594 c 0.094 25.871 0.316 26.094 0.594 26.094 c 0.871 26.094
 1.094 25.871 1.094 25.594 c f
0 g
1.094 25.594 m 1.094 25.316 0.871 25.094 0.594 25.094 c 0.316 25.094 0.094
 25.316 0.094 25.594 c 0.094 25.871 0.316 26.094 0.594 26.094 c 0.871 26.094
 1.094 25.871 1.094 25.594 c S
1 g
3.094 4.594 m 3.094 4.316 2.871 4.094 2.594 4.094 c 2.316 4.094 2.094 4.316
 2.094 4.594 c 2.094 4.871 2.316 5.094 2.594 5.094 c 2.871 5.094 3.094 4.871
 3.094 4.594 c f
0 g
3.094 4.594 m 3.094 4.316 2.871 4.094 2.594 4.094 c 2.316 4.094 2.094 4.316
 2.094 4.594 c 2.094 4.871 2.316 5.094 2.594 5.094 c 2.871 5.094 3.094 4.871
 3.094 4.594 c S
1 g
21.898 13.492 m 21.898 13.215 21.672 12.992 21.398 12.992 c 21.121 12.992
 20.898 13.215 20.898 13.492 c 20.898 13.769 21.121 13.992 21.398 13.992
 c 21.672 13.992 21.898 13.769 21.898 13.492 c f
0 g
21.898 13.492 m 21.898 13.215 21.672 12.992 21.398 12.992 c 21.121 12.992
 20.898 13.215 20.898 13.492 c 20.898 13.769 21.121 13.992 21.398 13.992
 c 21.672 13.992 21.898 13.769 21.898 13.492 c S
1 g
31.094 15.594 m 31.094 15.316 30.871 15.094 30.594 15.094 c 30.316 15.094
 30.094 15.316 30.094 15.594 c 30.094 15.871 30.316 16.094 30.594 16.094
 c 30.871 16.094 31.094 15.871 31.094 15.594 c f
0 g
31.094 15.594 m 31.094 15.316 30.871 15.094 30.594 15.094 c 30.316 15.094
 30.094 15.316 30.094 15.594 c 30.094 15.871 30.316 16.094 30.594 16.094
 c 30.871 16.094 31.094 15.871 31.094 15.594 c S
1 g
60.34 22.277 m 60.34 22.004 60.117 21.777 59.84 21.777 c 59.562 21.777 
59.34 22.004 59.34 22.277 c 59.34 22.555 59.562 22.777 59.84 22.777 c 60.117
 22.777 60.34 22.555 60.34 22.277 c f
0 g
60.34 22.277 m 60.34 22.004 60.117 21.777 59.84 21.777 c 59.562 21.777 
59.34 22.004 59.34 22.277 c 59.34 22.555 59.562 22.777 59.84 22.777 c 60.117
 22.777 60.34 22.555 60.34 22.277 c S
1 g
81.094 0.594 m 81.094 0.316 80.871 0.094 80.594 0.094 c 80.316 0.094 80.094
 0.316 80.094 0.594 c 80.094 0.871 80.316 1.094 80.594 1.094 c 80.871 1.094
 81.094 0.871 81.094 0.594 c f
0 g
81.094 0.594 m 81.094 0.316 80.871 0.094 80.594 0.094 c 80.316 0.094 80.094
 0.316 80.094 0.594 c 80.094 0.871 80.316 1.094 80.594 1.094 c 80.871 1.094
 81.094 0.871 81.094 0.594 c S
1 g
91.094 25.594 m 91.094 25.316 90.871 25.094 90.594 25.094 c 90.316 25.094
 90.094 25.316 90.094 25.594 c 90.094 25.871 90.316 26.094 90.594 26.094
 c 90.871 26.094 91.094 25.871 91.094 25.594 c f
0 g
91.094 25.594 m 91.094 25.316 90.871 25.094 90.594 25.094 c 90.316 25.094
 90.094 25.316 90.094 25.594 c 90.094 25.871 90.316 26.094 90.594 26.094
 c 90.871 26.094 91.094 25.871 91.094 25.594 c S
31.594 15.594 m 31.594 15.043 31.145 14.594 30.594 14.594 c 30.043 14.594
 29.594 15.043 29.594 15.594 c 29.594 16.144 30.043 16.594 30.594 16.594
 c 31.145 16.594 31.594 16.144 31.594 15.594 c S
Q Q
showpage
%%Trailer
end restore
%%EOF
