%!PS-Adobe-3.0 EPSF-3.0
%%Creator: cairo 1.12.16 (http://cairographics.org)
%%CreationDate: Thu Mar 27 15:50:00 2014
%%Pages: 1
%%DocumentData: Clean7Bit
%%LanguageLevel: 2
%%BoundingBox: 0 -1 239 163
%%EndComments
%%BeginProlog
save
50 dict begin
/q { gsave } bind def
/Q { grestore } bind def
/cm { 6 array astore concat } bind def
/w { setlinewidth } bind def
/J { setlinecap } bind def
/j { setlinejoin } bind def
/M { setmiterlimit } bind def
/d { setdash } bind def
/m { moveto } bind def
/l { lineto } bind def
/c { curveto } bind def
/h { closepath } bind def
/re { exch dup neg 3 1 roll 5 3 roll moveto 0 rlineto
      0 exch rlineto 0 rlineto closepath } bind def
/S { stroke } bind def
/f { fill } bind def
/f* { eofill } bind def
/n { newpath } bind def
/W { clip } bind def
/W* { eoclip } bind def
/BT { } bind def
/ET { } bind def
/pdfmark where { pop globaldict /?pdfmark /exec load put }
    { globaldict begin /?pdfmark /pop load def /pdfmark
    /cleartomark load def end } ifelse
/BDC { mark 3 1 roll /BDC pdfmark } bind def
/EMC { mark /EMC pdfmark } bind def
/cairo_store_point { /cairo_point_y exch def /cairo_point_x exch def } def
/Tj { show currentpoint cairo_store_point } bind def
/TJ {
  {
    dup
    type /stringtype eq
    { show } { -0.001 mul 0 cairo_font_matrix dtransform rmoveto } ifelse
  } forall
  currentpoint cairo_store_point
} bind def
/cairo_selectfont { cairo_font_matrix aload pop pop pop 0 0 6 array astore
    cairo_font exch selectfont cairo_point_x cairo_point_y moveto } bind def
/Tf { pop /cairo_font exch def /cairo_font_matrix where
      { pop cairo_selectfont } if } bind def
/Td { matrix translate cairo_font_matrix matrix concatmatrix dup
      /cairo_font_matrix exch def dup 4 get exch 5 get cairo_store_point
      /cairo_font where { pop cairo_selectfont } if } bind def
/Tm { 2 copy 8 2 roll 6 array astore /cairo_font_matrix exch def
      cairo_store_point /cairo_font where { pop cairo_selectfont } if } bind def
/g { setgray } bind def
/rg { setrgbcolor } bind def
/d1 { setcachedevice } bind def
%%EndProlog
%%Page: 1 1
%%BeginPageSetup
%%PageBoundingBox: 0 -1 239 163
%%EndPageSetup
q 0 -1 239 164 rectclip q
0.470588 0.666667 1 rg
1 w
2 J
0 j
[] 0.0 d
10 M 238.172 160.147 m 205.047 130.424 195.977 109.663 169.172 74.147 c 182.172
 101.147 m 188.812 100.616 190.578 96.393 196.172 92.147 c S
3.191 148.878 m 26.066 90.186 32.051 59.038 53.191 0.878 c 35.191 25.878
 m 40.301 25.631 42.98 25.264 47.191 27.878 c S
0 g
0.4 w
0 J
52.883 3.053 m 7.633 27.483 84.652 75.944 7.121 100.725 c -2.52 103.807
 -0.688 130.67 7.121 148.534 c S
62.949 7.893 m 18.984 34.542 94.953 76.065 26.891 107.217 c 18.195 111.198
 21.32 136.374 28.539 152.776 c S
72.828 12.749 m 30.336 41.565 104.789 76.592 46.371 112.764 c 38.641 117.549
 42.887 140.991 49.453 156.128 c S
82.531 17.639 m 41.707 48.549 114.234 77.549 65.477 117.413 c 58.738 122.924
 63.926 144.592 69.801 158.655 c S
92.07 22.585 m 53.105 55.491 123.367 78.952 84.137 121.229 c 78.422 127.389
 84.363 147.256 89.523 160.424 c S
101.457 27.604 m 64.539 62.389 132.262 80.803 102.273 124.28 c 97.633 131.006
 104.117 149.065 108.578 161.514 c S
110.707 32.717 m 76.004 69.229 141.004 83.096 119.832 126.631 c 116.328
 133.835 123.129 150.108 126.914 161.991 c S
119.844 37.936 m 87.52 76.003 149.668 85.792 136.762 128.366 c 134.469 
135.928 141.352 150.475 144.504 161.936 c S
128.879 43.268 m 99.074 82.702 158.324 88.85 153.012 129.561 c 152 137.335
 158.738 150.26 161.312 161.432 c S
137.84 48.725 m 110.68 89.319 167.027 92.21 168.551 130.299 c 168.875 138.104
 175.246 149.565 177.324 160.553 c S
146.734 54.311 m 122.328 95.838 175.758 95.799 183.352 130.663 c 185.016
 138.295 190.879 148.487 192.52 159.378 c S
155.574 60.038 m 134.012 102.249 184.555 99.557 197.414 130.741 c 200.395
 137.979 205.59 147.12 206.906 157.995 c S
164.418 65.897 m 145.762 108.542 193.398 103.432 210.715 130.616 c 214.918
 137.237 219.418 145.565 220.48 156.471 c S
173.238 71.889 m 153.52 125.514 228.703 100.51 233.25 154.889 c S
0.8 w
4 M q 1 0 0 -1 0 162.061096 cm
55.391 158.953 m 55.391 160.449 54.18 161.66 52.684 161.66 c 51.191 161.66
 49.977 160.449 49.977 158.953 c 49.977 157.461 51.191 156.25 52.684 156.25
 c 54.18 156.25 55.391 157.461 55.391 158.953 c h
S Q
q 1 0 0 -1 0 162.061096 cm
175.891 89.93 m 175.891 91.426 174.676 92.637 173.184 92.637 c 171.688 
92.637 170.477 91.426 170.477 89.93 c 170.477 88.434 171.688 87.223 173.184
 87.223 c 174.676 87.223 175.891 88.434 175.891 89.93 c h
S Q
1 w
2 J
10 M 52.82 3.038 m 7.57 27.467 84.59 75.932 7.059 100.71 c -2.582 103.792 -0.75
 130.659 7.059 148.522 c S
173.172 72.147 m 153.445 125.772 228.617 100.768 233.172 155.147 c S
Q Q
showpage
%%Trailer
end restore
%%EOF
