%!PS-Adobe-3.0 EPSF-3.0
%%Creator: cairo 1.12.16 (http://cairographics.org)
%%CreationDate: Tue May  6 17:40:14 2014
%%Pages: 1
%%DocumentData: Clean7Bit
%%LanguageLevel: 2
%%BoundingBox: 0 -1 248 93
%%EndComments
%%BeginProlog
save
50 dict begin
/q { gsave } bind def
/Q { grestore } bind def
/cm { 6 array astore concat } bind def
/w { setlinewidth } bind def
/J { setlinecap } bind def
/j { setlinejoin } bind def
/M { setmiterlimit } bind def
/d { setdash } bind def
/m { moveto } bind def
/l { lineto } bind def
/c { curveto } bind def
/h { closepath } bind def
/re { exch dup neg 3 1 roll 5 3 roll moveto 0 rlineto
      0 exch rlineto 0 rlineto closepath } bind def
/S { stroke } bind def
/f { fill } bind def
/f* { eofill } bind def
/n { newpath } bind def
/W { clip } bind def
/W* { eoclip } bind def
/BT { } bind def
/ET { } bind def
/pdfmark where { pop globaldict /?pdfmark /exec load put }
    { globaldict begin /?pdfmark /pop load def /pdfmark
    /cleartomark load def end } ifelse
/BDC { mark 3 1 roll /BDC pdfmark } bind def
/EMC { mark /EMC pdfmark } bind def
/cairo_store_point { /cairo_point_y exch def /cairo_point_x exch def } def
/Tj { show currentpoint cairo_store_point } bind def
/TJ {
  {
    dup
    type /stringtype eq
    { show } { -0.001 mul 0 cairo_font_matrix dtransform rmoveto } ifelse
  } forall
  currentpoint cairo_store_point
} bind def
/cairo_selectfont { cairo_font_matrix aload pop pop pop 0 0 6 array astore
    cairo_font exch selectfont cairo_point_x cairo_point_y moveto } bind def
/Tf { pop /cairo_font exch def /cairo_font_matrix where
      { pop cairo_selectfont } if } bind def
/Td { matrix translate cairo_font_matrix matrix concatmatrix dup
      /cairo_font_matrix exch def dup 4 get exch 5 get cairo_store_point
      /cairo_font where { pop cairo_selectfont } if } bind def
/Tm { 2 copy 8 2 roll 6 array astore /cairo_font_matrix exch def
      cairo_store_point /cairo_font where { pop cairo_selectfont } if } bind def
/g { setgray } bind def
/rg { setrgbcolor } bind def
/d1 { setcachedevice } bind def
%%EndProlog
%%Page: 1 1
%%BeginPageSetup
%%PageBoundingBox: 0 -1 248 93
%%EndPageSetup
q 0 -1 248 94 rectclip q
0.301961 0.301961 0.901961 rg
1 w
0 J
0 j
[] 0.0 d
10 M q 1 0 0 1 0 92.478127 cm
91.633 -0.07 m 95.785 -29.598 77.152 -45.094 96.633 -72.07 c 7.633 -2.07
 m 33.531 -40.168 -19.395 -67.57 15.633 -92.07 c S Q
0.901961 0.301961 0.301961 rg
q 1 0 0 1 0 92.478127 cm
79.633 -0.355 m 86.891 -31.109 63.359 -48.305 85.062 -74.926 c 67.633 -0.641
 m 78 -32.617 49.566 -51.516 73.488 -77.781 c 55.633 -0.926 m 69.105 -34.129
 35.773 -54.727 61.918 -80.641 c 43.633 -1.211 m 60.211 -35.637 21.984 -57.938
 50.348 -83.496 c 31.633 -1.496 m 51.316 -37.148 8.191 -61.148 38.773 -86.355
 c 19.633 -1.781 m 42.426 -38.66 -5.602 -64.359 27.203 -89.211 c S Q
0.301961 0.301961 0.901961 rg
q 1 0 0 1 0 92.478127 cm
241.633 -0.07 m 245.785 -29.598 227.152 -45.094 246.633 -72.07 c 165.633
 -92.07 m 130.605 -67.57 183.531 -40.168 157.633 -2.07 c S Q
0.901961 0.301961 0.301961 rg
q 1 0 0 1 0 92.478127 cm
230.773 -13.211 m 229.332 -35.023 220.922 -44.391 233.918 -62.07 c 219.918
 -26.355 m 212.875 -40.445 214.688 -43.688 221.203 -52.07 c 209.062 -39.496
 m 196.422 -45.871 208.457 -42.984 208.488 -42.07 c 198.203 -52.641 m 179.969
 -51.297 202.227 -42.281 195.773 -32.07 c 187.348 -65.781 m 163.516 -56.719
 195.996 -41.574 183.062 -22.07 c 176.488 -78.926 m 147.062 -62.145 189.762
 -40.871 170.348 -12.07 c S Q
0 g
17.68 74.939 m 11.141 74.146 l 14.871 71.22 l h
f
6.527 19.275 m 0 18.388 l 3.777 15.517 l h
f
14.273 46.826 m 8.234 49.459 l 9.969 45.045 l h
f
92.418 58.334 m 86.062 60.068 l 88.414 55.947 l h
f
92.105 37.365 m 85.641 36.103 l 89.578 33.455 l h
f
95.027 77.291 m 88.449 77.591 l 91.645 74.088 l h
f
167.797 74.943 m 161.258 74.15 l 164.992 71.224 l h
f
156.645 19.279 m 150.117 18.392 l 153.895 15.521 l h
f
164.391 46.83 m 158.355 49.463 l 160.086 45.048 l h
f
234.781 52.838 m 241.324 52.084 l 238.375 55.798 l h
f
237.887 29.025 m 243.965 31.56 l 239.578 33.365 l h
f
238.094 70.978 m 244.66 70.42 l 241.602 74.045 l h
f
Q Q
showpage
%%Trailer
end restore
%%EOF
