%!PS-Adobe-3.0 EPSF-3.0
%%Creator: cairo 1.12.16 (http://cairographics.org)
%%CreationDate: Wed Mar 26 17:23:57 2014
%%Pages: 1
%%DocumentData: Clean7Bit
%%LanguageLevel: 2
%%BoundingBox: 0 -1 365 427
%%EndComments
%%BeginProlog
save
50 dict begin
/q { gsave } bind def
/Q { grestore } bind def
/cm { 6 array astore concat } bind def
/w { setlinewidth } bind def
/J { setlinecap } bind def
/j { setlinejoin } bind def
/M { setmiterlimit } bind def
/d { setdash } bind def
/m { moveto } bind def
/l { lineto } bind def
/c { curveto } bind def
/h { closepath } bind def
/re { exch dup neg 3 1 roll 5 3 roll moveto 0 rlineto
      0 exch rlineto 0 rlineto closepath } bind def
/S { stroke } bind def
/f { fill } bind def
/f* { eofill } bind def
/n { newpath } bind def
/W { clip } bind def
/W* { eoclip } bind def
/BT { } bind def
/ET { } bind def
/pdfmark where { pop globaldict /?pdfmark /exec load put }
    { globaldict begin /?pdfmark /pop load def /pdfmark
    /cleartomark load def end } ifelse
/BDC { mark 3 1 roll /BDC pdfmark } bind def
/EMC { mark /EMC pdfmark } bind def
/cairo_store_point { /cairo_point_y exch def /cairo_point_x exch def } def
/Tj { show currentpoint cairo_store_point } bind def
/TJ {
  {
    dup
    type /stringtype eq
    { show } { -0.001 mul 0 cairo_font_matrix dtransform rmoveto } ifelse
  } forall
  currentpoint cairo_store_point
} bind def
/cairo_selectfont { cairo_font_matrix aload pop pop pop 0 0 6 array astore
    cairo_font exch selectfont cairo_point_x cairo_point_y moveto } bind def
/Tf { pop /cairo_font exch def /cairo_font_matrix where
      { pop cairo_selectfont } if } bind def
/Td { matrix translate cairo_font_matrix matrix concatmatrix dup
      /cairo_font_matrix exch def dup 4 get exch 5 get cairo_store_point
      /cairo_font where { pop cairo_selectfont } if } bind def
/Tm { 2 copy 8 2 roll 6 array astore /cairo_font_matrix exch def
      cairo_store_point /cairo_font where { pop cairo_selectfont } if } bind def
/g { setgray } bind def
/rg { setrgbcolor } bind def
/d1 { setcachedevice } bind def
%%EndProlog
%%Page: 1 1
%%BeginPageSetup
%%PageBoundingBox: 0 -1 365 427
%%EndPageSetup
q 0 -1 365 428 rectclip q
0 g
0.6 w
0 J
0 j
[] 0.0 d
10 M q 1 0 0 1 0 426.1875 cm
44.02 -18.164 m 127.594 -36.406 -11.156 -109.375 71.02 -138.164 c 11.91
 -171.559 52.234 -187.977 64.02 -245.164 c 69.949 -273.941 47.965 -288.883
 28.223 -303.387 c 1.848 -322.766 -20.527 -341.367 33.02 -391.164 c S Q
q 1 0 0 1 0 426.1875 cm
81.77 -15.914 m 159.395 -38.832 30.941 -106.461 106.645 -138.914 c 56.699
 -171.527 91.637 -190.074 100.281 -244.488 c 104.828 -273.098 84.074 -290.066
 65.824 -305.609 c 42.406 -325.555 26.301 -345.949 72.645 -395.539 c S Q
q 1 0 0 1 0 426.1875 cm
119.52 -13.664 m 191.191 -41.262 73.039 -103.551 142.27 -139.664 c 101.488
 -171.496 130.965 -192.219 136.543 -243.809 c 139.625 -272.301 120.168 -291.141
 103.422 -307.832 c 82.945 -328.238 73.129 -350.531 112.27 -399.914 c S Q
q 1 0 0 1 0 426.1875 cm
157.27 -11.414 m 222.992 -43.691 115.137 -100.641 177.895 -140.414 c 146.277
 -171.465 170.199 -194.406 172.809 -243.133 c 174.328 -271.551 156.219 -292.105
 141.023 -310.051 c 123.441 -330.816 119.957 -355.113 151.895 -404.289 c
 S Q
q 1 0 0 1 0 426.1875 cm
195.02 -9.164 m 254.789 -46.121 157.234 -97.727 213.52 -141.164 c 191.07
 -171.434 209.32 -196.617 209.07 -242.457 c 208.918 -270.824 192.188 -292.965
 178.621 -312.273 c 163.859 -333.285 166.785 -359.695 191.52 -408.664 c S Q
q 1 0 0 1 0 426.1875 cm
232.77 -6.914 m 286.59 -48.551 199.332 -94.816 249.145 -141.914 c 235.859
 -171.406 248.305 -198.844 245.332 -241.781 c 243.371 -270.098 228.039 -293.738
 216.223 -314.496 c 204.172 -335.66 213.613 -364.277 231.145 -413.039 c S Q
q 1 0 0 1 0 426.1875 cm
270.52 -4.664 m 318.387 -50.977 241.43 -91.906 284.77 -142.664 c 280.648
 -171.375 287.145 -201.055 281.594 -241.105 c 277.68 -269.352 263.75 -294.461
 253.82 -316.719 c 244.344 -337.969 260.441 -368.859 270.77 -417.414 c S Q
q 1 0 0 1 0 426.1875 cm
308.27 -2.414 m 350.188 -53.406 283.527 -88.996 320.395 -143.414 c 325.441
 -171.344 325.828 -203.211 317.859 -240.43 c 311.836 -268.551 299.301 -295.168
 291.422 -318.941 c 284.355 -340.258 307.27 -373.445 310.395 -421.789 c S Q
q 1 0 0 1 0 426.1875 cm
346.02 -0.164 m 381.984 -55.836 325.625 -86.086 356.02 -144.164 c 370.23
 -171.316 364.359 -205.273 354.121 -239.754 c 345.836 -267.656 334.695 -295.902
 329.02 -321.164 c 324.207 -342.582 354.098 -378.027 350.02 -426.164 c S Q
Q Q
showpage
%%Trailer
end restore
%%EOF
