%!PS-Adobe-3.0 EPSF-3.0
%%Creator: cairo 1.12.16 (http://cairographics.org)
%%CreationDate: Wed May 14 17:06:33 2014
%%Pages: 1
%%DocumentData: Clean7Bit
%%LanguageLevel: 2
%%BoundingBox: 0 -1 554 584
%%EndComments
%%BeginProlog
save
50 dict begin
/q { gsave } bind def
/Q { grestore } bind def
/cm { 6 array astore concat } bind def
/w { setlinewidth } bind def
/J { setlinecap } bind def
/j { setlinejoin } bind def
/M { setmiterlimit } bind def
/d { setdash } bind def
/m { moveto } bind def
/l { lineto } bind def
/c { curveto } bind def
/h { closepath } bind def
/re { exch dup neg 3 1 roll 5 3 roll moveto 0 rlineto
      0 exch rlineto 0 rlineto closepath } bind def
/S { stroke } bind def
/f { fill } bind def
/f* { eofill } bind def
/n { newpath } bind def
/W { clip } bind def
/W* { eoclip } bind def
/BT { } bind def
/ET { } bind def
/pdfmark where { pop globaldict /?pdfmark /exec load put }
    { globaldict begin /?pdfmark /pop load def /pdfmark
    /cleartomark load def end } ifelse
/BDC { mark 3 1 roll /BDC pdfmark } bind def
/EMC { mark /EMC pdfmark } bind def
/cairo_store_point { /cairo_point_y exch def /cairo_point_x exch def } def
/Tj { show currentpoint cairo_store_point } bind def
/TJ {
  {
    dup
    type /stringtype eq
    { show } { -0.001 mul 0 cairo_font_matrix dtransform rmoveto } ifelse
  } forall
  currentpoint cairo_store_point
} bind def
/cairo_selectfont { cairo_font_matrix aload pop pop pop 0 0 6 array astore
    cairo_font exch selectfont cairo_point_x cairo_point_y moveto } bind def
/Tf { pop /cairo_font exch def /cairo_font_matrix where
      { pop cairo_selectfont } if } bind def
/Td { matrix translate cairo_font_matrix matrix concatmatrix dup
      /cairo_font_matrix exch def dup 4 get exch 5 get cairo_store_point
      /cairo_font where { pop cairo_selectfont } if } bind def
/Tm { 2 copy 8 2 roll 6 array astore /cairo_font_matrix exch def
      cairo_store_point /cairo_font where { pop cairo_selectfont } if } bind def
/g { setgray } bind def
/rg { setrgbcolor } bind def
/d1 { setcachedevice } bind def
%%EndProlog
%%Page: 1 1
%%BeginPageSetup
%%PageBoundingBox: 0 -1 554 584
%%EndPageSetup
q 0 -1 554 585 rectclip q
0 g
1.1874 w
0 J
0 j
[] 0.0 d
4 M 175.812 304.936 m 175.812 327.971 l 298.656 327.971 l 298.656 351.006 l
 352.637 304.936 l 298.656 258.866 l 298.656 281.905 l 175.812 281.905 l
 h
S
0.8 w
10 M 14.172 225.893 m 4.484 220.991 -8.27 206.444 8.719 204.682 c S
83.859 410.717 m 63.879 417.702 28.961 407.112 20.23 384.659 c S
20.84 385.264 m 14.016 372.963 8.691 345.178 5.688 331.331 c S
6.293 332.545 m 3.035 324.901 8.562 309.659 8.719 301.639 c S
84.465 409.506 m 98.145 411.549 118.445 405.577 122.645 391.932 c S
11.141 252.557 m -4.676 240.366 1.441 225.088 20.84 221.651 c S
97.797 278.612 m 99.375 275.393 98.07 267.995 96.586 264.674 c S
97.797 277.401 m 101.598 272.799 102.02 266.397 95.98 263.463 c S
101.434 249.526 m 92.793 256.694 78.438 251.256 71.742 244.678 c S
88.707 270.737 m 88.707 269.522 l 89.922 269.522 l S
69.316 222.862 m 76.008 222.022 89.309 222.932 95.98 222.862 c S
69.922 222.862 m 54.379 231.647 28.598 254.678 28.715 273.764 c S
26.293 310.12 m 1.031 312.733 13.457 276.338 28.715 270.124 c S
17.203 301.639 m 22.992 304.432 28.52 296.811 28.109 291.338 c S
96.586 222.862 m 115.156 231.678 129.848 262.346 128.703 280.432 c S
128.703 279.827 m 130.359 290.096 131.129 311.94 133.551 322.241 c S
132.34 304.065 m 144.945 302.901 135.945 280.893 129.309 276.795 c S
135.977 294.975 m 134.277 293.924 130.738 291.866 130.52 289.522 c S
31.141 262.249 m 31.41 254.827 31.656 240.276 28.109 233.159 c S
11.75 303.456 m -3.391 286.381 2.129 245.37 25.688 241.038 c S
79.617 385.264 m 80.797 383.28 83.207 379.307 84.465 377.389 c S
75.984 379.202 m 76.992 378.237 78.699 376.014 79.617 374.963 c S
105.676 373.749 m 107.457 375.909 110.996 380.241 112.949 382.237 c S
103.25 374.358 m 106.137 376.741 111.008 382.17 112.949 385.264 c S
111.734 374.963 m 112.367 375.717 113.84 376.999 114.766 377.389 c S
1 g
128.703 314.971 m 123.758 315.549 114.113 315.745 109.312 314.366 c 109.918
 314.366 l 110.188 312.717 109.68 309.588 108.707 308.307 c 109.312 303.459
 l 111.547 298.159 120.496 298.795 125.066 298.612 c 128.703 299.823 l 130.656
 303.616 131.422 311.686 128.703 314.971 c f
79.012 308.913 m 78.199 310.143 76.922 312.792 77.195 314.366 c 69.422 
314.631 53.781 319.694 45.684 317.397 c 47.5 317.397 l 47.016 313.831 48.301
 306.92 49.32 303.459 c 49.32 304.67 l 51 297.241 62.359 297.424 68.105 
297.397 c 70.527 297.397 l 73.094 297.385 76.461 300.338 77.801 302.245 
c f
0 g
107.492 315.577 m 108.094 316.323 108.109 318.467 108.707 319.213 c S
107.492 315.577 m 114.477 317.698 126.906 323.999 134.156 320.424 c S
108.102 318.608 m 115.574 319.557 126.863 327.346 133.551 321.639 c S
109.918 314.366 m 110.188 312.717 109.68 309.588 108.707 308.307 c S
128.703 314.971 m 131.422 311.686 130.656 303.616 128.703 299.823 c S
109.312 314.366 m 114.113 315.741 123.758 315.549 128.703 314.971 c S
45.684 317.397 m 53.781 319.694 69.422 314.631 77.195 314.366 c 76.922 
312.788 78.199 310.143 79.012 308.909 c S
47.5 317.397 m 47.016 313.827 48.301 306.92 49.32 303.456 c S
49.32 304.67 m 51 297.241 62.359 297.424 68.105 297.397 c S
120.824 313.76 m 117.832 307.608 120.258 296.475 127.492 304.67 c 128.863
 306.225 127.34 313.053 124.461 314.366 c S
68.105 315.577 m 59.965 310.768 66.891 298.799 74.77 304.065 c 77.492 305.881
 75.871 312.674 73.559 315.577 c S
99.012 373.749 m 98.848 379.866 107.133 387.284 112.34 390.116 c S
97.191 381.631 m 99.762 387.827 108.164 395.983 114.766 397.385 c S
114.766 397.385 m 139.008 382.92 158.035 341.155 152.336 312.549 c S
139.609 337.393 m 144.516 332.557 152.262 321.979 152.941 314.366 c S
143.246 334.362 m 151.211 322.725 148.699 297.756 145.066 285.28 c S
138.398 316.182 m 143.125 309.764 146.945 294.905 146.883 287.096 c S
143.246 303.456 m 147.156 289.706 143.387 263.284 138.398 250.737 c S
129.914 348.299 m 134.066 323.956 141.027 275.155 138.398 250.737 c S
129.914 351.936 m 130.406 340.237 128.828 317.784 124.461 307.096 c S
108.707 388.295 m 124.645 373.139 125.477 330.116 125.066 309.518 c S
82.648 321.034 m 83.086 319.018 82.461 315.19 80.223 314.366 c S
79.617 314.971 m 70.051 319.885 49.238 328.034 37.199 326.487 c S
36.594 326.487 m 49.562 335.944 69.965 318.448 82.043 320.424 c S
96.586 382.237 m 97.664 400.577 119.629 423.428 132.34 433.139 c S
132.34 433.741 m 112.98 426.674 91.797 405.471 96.586 380.413 c S
82.043 390.116 m 73.305 376.053 60.754 345.795 63.863 327.092 c S
82.043 390.116 m 86.414 387.381 90.285 378.827 89.922 373.749 c S
64.469 325.881 m 59.562 335.866 56.426 356.624 57.195 367.088 c S
56.59 365.87 m 47.438 330.139 34.941 260.737 40.23 224.073 c S
28.715 309.518 m 30.77 288.495 37.375 247.397 40.836 227.104 c S
29.32 309.518 m 25.367 300.561 22.172 281.323 23.262 271.342 c S
25.082 353.756 m 21.492 333.526 19.074 293.979 23.262 274.366 c S
91.738 382.842 m 91.008 387.87 85.711 395.94 80.223 396.78 c S
82.043 395.569 m 62.535 387.573 20.848 368.991 16.598 345.874 c S
24.473 353.756 m 21.836 352.319 16.895 348.987 15.992 345.874 c S
1 0 0 rg
394.641 231.284 m 387.172 228.264 374.922 216.124 390.777 215.397 c 464.902
 406.448 m 447.109 414.37 414.922 407.772 406.641 388.956 c 407.246 389.385
 m 397.875 378.819 386.68 352.108 382.082 327.573 c 382.695 329.327 m 379.504
 320.108 384.543 306.651 383.863 300.756 c 465.332 405.229 m 477.902 406.924
 495.875 400.659 497.949 387.155 c 389.68 252.663 m 376.887 243.678 384.102
 231.6 399.68 227.045 c 450.73 273.303 m 452.992 269.643 451.539 262.178
 450.113 258.92 c 450.711 272.03 m 456.602 266.381 458.211 259.131 449.574
 257.729 c 460.973 239.635 m 447.082 250.987 435.402 246.42 431.66 239.987
 c 440.348 266.202 m 440.352 265.905 440.371 265.295 440.383 264.991 c 440.383
 264.991 m 440.629 264.979 441.137 264.952 441.395 264.944 c 432.176 220.952
 m 443.656 219.534 461.707 218.174 466.828 215.268 c 432.633 220.909 m 421.195
 228.944 403.352 251.655 399.016 274.948 c 395.285 307.522 m 377.828 309.104
 384.648 279.745 395.723 275.795 c 391.227 299.311 m 393.977 302.096 396.289
 294.569 399.312 287.452 c 467.223 214.901 m 482.703 218.217 500.578 247.116
 501.316 271.299 c 502.188 271.506 m 499.82 281.573 498.785 302.202 508.254
 307.194 c 498.969 297.221 m 514.754 299.104 513.211 278.362 506.344 272.034
 c 505.547 290.963 m 505.09 287.6 500.047 283.213 500.41 281.202 c 401.84
 261.788 m 405.48 251.186 405.984 238.87 403.812 234.272 c 386.27 303.756
 m 374.262 282.694 382.91 247.217 401.898 240.663 c 454.805 381.487 m 454.965
 379.44 455.199 375.307 455.348 373.288 c 449.172 375.807 m 449.551 374.76
 449.902 372.405 450.156 371.28 c 474.293 368.522 m 477.18 370.717 482.68
 375.182 485.438 377.245 c 471.938 369.213 m 476.117 371.608 483.414 377.19
 486.492 380.405 c 481.449 369.67 m 482.418 370.444 484.473 371.772 485.594
 372.163 c 468.914 312.045 m 469.723 313.409 470.23 315.706 471.254 316.663
 c 468.914 312.045 m 478.168 316.534 498.203 314.221 508.453 305.428 c 470.254
 315.838 m 480.676 317.932 499.574 315.385 508.16 306.358 c 471.434 311.885
 m 471.148 309.76 469.238 305.698 467.602 304.065 c 495.094 306.799 m 499.422
 301.663 494.703 297.573 491.262 294.588 c 470.699 311.647 m 476.777 314.374
 486.703 310.295 495.094 306.799 c 404.676 313.991 m 408.574 317.909 419.809
 312.932 427.293 314.409 c 427.293 314.409 m 426.664 312.096 427.738 309.194
 428.691 307.807 c 405.523 314.409 m 405.781 310.889 406.816 305.116 407.98
 302.088 c 407.746 303.163 m 412.043 295.506 421.484 294.452 426.676 293.698
 c 481.309 308.694 m 476.578 302.452 482.246 289.573 486.875 302.413 c 486.875
 302.413 m 488.84 301.682 489.621 306.553 486.16 308.444 c 418.832 314.256
 m 413.32 309.104 423.148 296.151 424.816 302.565 c 424.816 302.565 m 427.434
 304.276 425.598 311.577 423.902 314.846 c 467.16 368.741 m 469.98 375.026
 481.328 382.518 487.422 385.413 c 469.16 376.897 m 474.266 383.174 484.871
 391.393 491.5 392.745 c 491.5 392.745 m 510.453 377.135 528.613 338.35 
520.336 306.631 c 511.984 338.178 m 516.762 332.889 522.484 318.432 520.676
 308.35 c 515.574 335.756 m 521.711 319.479 519.238 294.178 519.16 282.284
 c 510.543 304.772 m 512.805 303.049 518.375 292.135 520.098 283.956 c 513.141
 299.694 m 519.805 286.842 514.805 253.717 508.438 238.499 c 500.637 340.944
 m 508.68 310.233 515.34 269.065 508.438 238.499 c 499.703 345.124 m 503.527
 330.038 497.809 308.409 482.691 300.612 c 483.238 383.553 m 494.703 367.635
 498.141 317.655 483.445 303.311 c 437.344 321.338 m 436.074 320.467 433.324
 317.061 430.602 315.338 c 430.117 316.073 m 422.082 320.374 408.781 326.159
 400.281 323.022 c 400.105 322.838 m 417.48 334.01 421.25 318.452 435.973
 321.374 c 468.848 377.534 m 475.953 396.088 496.859 417.741 506.453 426.424
 c 506.391 427.01 m 490.988 421.19 471.434 401.053 468 375.674 c 458.754
 386.12 m 445.629 372.956 427.055 343.35 423.277 325.268 c 458.754 386.12
 m 461.586 383.182 461.219 374.358 458.344 369.241 c 422.246 324.674 m 426.289
 332.198 425.562 355.799 429.809 366.213 c 428.898 365.116 m 411.031 328.448
 407.621 254.811 412.805 224.565 c 396.324 307.569 m 401.516 284.545 409.527
 243.643 412.801 226.897 c 396.652 307.534 m 396.191 296.924 393.543 282.616
 389.234 279.202 c 400.605 358.022 m 393.957 331.217 392.254 292.135 390.555
 280.346 c 464.492 378.354 m 465.969 383.475 463.867 391.733 459.211 392.784
 c 460.492 391.51 m 441.551 385.131 402.852 374.342 393.406 353.678 c 400.207
 358.03 m 398.371 356.713 394.391 355.405 392.918 353.991 c S
181.652 24.026 m 172.285 20.256 156.918 5.116 176.809 4.206 c 269.77 242.53
 m 247.453 252.409 207.086 244.178 196.703 220.713 c 197.461 221.241 m 185.707
 208.061 171.668 174.741 165.902 144.139 c 166.668 146.323 m 162.668 134.823
 168.984 118.034 168.133 110.682 c 270.309 241.01 m 286.074 243.12 308.617
 235.311 311.215 218.456 c 175.43 50.698 m 159.383 39.487 168.434 24.417
 187.973 18.737 c 251.996 76.44 m 254.832 71.874 253.012 62.561 251.223 
58.495 c 251.969 74.85 m 259.363 67.803 261.375 58.764 250.551 57.014 c 
264.84 34.444 m 247.422 48.6 232.77 42.909 228.078 34.881 c 238.977 67.588
 m 238.98 67.209 239.004 66.452 239.02 66.073 c 239.02 66.073 m 239.328 
66.057 239.961 66.03 240.289 66.01 c 228.73 11.135 m 243.125 9.37 265.762
 7.67 272.188 4.045 c 229.301 11.081 m 214.953 21.104 192.578 49.432 187.137
 78.491 c 182.457 119.124 m 160.562 121.1 169.121 84.479 183.008 79.549 
c 177.367 108.885 m 180.816 112.358 183.719 102.967 187.512 94.096 c 272.68
 3.588 m 292.094 7.725 314.512 43.772 315.438 73.94 c 316.531 74.198 m 313.566
 86.756 312.266 112.487 324.141 118.717 c 312.492 106.276 m 332.293 108.624
 330.359 82.752 321.746 74.858 c 320.746 98.471 m 320.172 94.272 313.848
 88.803 314.301 86.299 c 190.684 62.081 m 195.25 48.85 195.875 33.491 193.152
 27.752 c 171.152 114.428 m 156.094 88.155 166.938 43.901 190.754 35.725
 c 257.109 211.393 m 257.309 208.838 257.598 203.682 257.789 201.17 c 250.043
 204.303 m 250.516 202.995 250.961 200.061 251.273 198.659 c 281.551 195.221
 m 285.168 197.956 292.066 203.526 295.523 206.104 c 278.594 196.081 m 283.836
 199.069 292.988 206.03 296.848 210.038 c 290.523 196.651 m 291.738 197.616
 294.316 199.272 295.723 199.764 c 274.801 124.768 m 275.816 126.471 276.453
 129.338 277.738 130.53 c 274.801 124.768 m 286.406 130.366 311.535 127.483
 324.387 116.514 c 276.48 129.495 m 289.555 132.112 313.254 128.936 324.023
 117.67 c 277.961 124.569 m 277.605 121.913 275.211 116.85 273.156 114.815
 c 307.637 118.225 m 313.066 111.823 307.145 106.713 302.832 102.991 c 277.043
 124.272 m 284.664 127.678 297.109 122.581 307.637 118.225 c 194.238 127.194
 m 199.125 132.088 213.219 125.87 222.602 127.717 c 222.602 127.717 m 221.812
 124.827 223.16 121.206 224.355 119.479 c 195.301 127.717 m 195.621 123.327
 196.922 116.131 198.379 112.346 c 198.086 113.69 m 203.477 104.135 215.316
 102.827 221.828 101.881 c 290.348 120.581 m 284.414 112.803 291.523 96.737
 297.328 112.756 c 297.328 112.756 m 299.793 111.842 300.773 117.913 296.434
 120.272 c 211.992 127.526 m 205.078 121.1 217.402 104.94 219.496 112.94
 c 219.496 112.94 m 222.777 115.077 220.477 124.186 218.348 128.264 c 272.602
 195.491 m 276.141 203.331 290.371 212.678 298.012 216.295 c 275.113 205.663
 m 281.512 213.495 294.812 223.745 303.129 225.436 c 303.129 225.436 m 326.898
 205.967 349.676 157.581 339.293 118.018 c 328.816 157.366 m 334.809 150.772
 341.984 132.737 339.719 120.159 c 333.324 154.346 m 341.02 134.038 337.914
 102.483 337.82 87.643 c 327.012 115.694 m 329.848 113.545 336.836 99.932
 338.996 89.733 c 330.27 109.362 m 338.629 93.331 332.355 52.01 324.371 
33.03 c 314.59 160.815 m 324.672 122.51 333.027 71.155 324.371 33.03 c 313.418
 166.034 m 318.215 147.217 311.039 120.233 292.082 110.506 c 292.766 213.971
 m 307.148 194.112 311.457 131.764 293.027 113.87 c 235.207 136.362 m 233.617
 135.272 230.168 131.026 226.754 128.874 c 226.145 129.788 m 216.07 135.159
 199.387 142.381 188.727 138.463 c 188.508 138.233 m 210.297 152.17 215.023
 132.756 233.488 136.409 c 274.719 206.467 m 283.629 229.604 309.848 256.616
 321.883 267.448 c 321.801 268.178 m 302.484 260.92 277.965 235.799 273.652
 204.143 c 262.062 217.174 m 245.598 200.756 222.305 163.819 217.566 141.26
 c 262.062 217.174 m 265.609 213.506 265.152 202.495 261.543 196.116 c 216.273
 140.522 m 221.344 149.905 220.434 179.346 225.758 192.338 c 224.617 190.967
 m 202.207 145.229 197.93 53.374 204.43 15.643 c 183.762 119.186 m 190.277
 90.463 200.324 39.444 204.426 18.549 c 184.176 119.147 m 183.598 105.909
 180.273 88.057 174.871 83.795 c 189.129 182.12 m 180.793 148.682 178.66
 99.932 176.523 85.229 c 269.254 207.483 m 271.109 213.87 268.473 224.174
 262.633 225.487 c 264.238 223.897 m 240.484 215.936 191.949 202.479 180.102
 176.702 c 188.633 182.131 m 186.328 180.491 181.34 178.854 179.488 177.088
 c S
0 g
180.918 19.393 m 168.945 9.858 177.133 2.475 189.098 0.401 c S
176.824 49.917 m 165.758 33.327 176.266 16.256 195.238 12.612 c S
169.324 103.499 m 155.602 80.795 169.684 43.413 193.875 33.639 c S
206.148 37.03 m 206.27 31.139 208.43 19.698 209.559 13.967 c S
184.324 98.756 m 185.48 89.76 190.152 71.952 191.828 62.807 c S
244.336 62.127 m 242.117 65.858 240.945 74.045 243.656 77.729 c S
242.973 77.729 m 238.473 73.057 238.496 65.377 244.336 62.807 c S
257.293 64.842 m 256.801 64.288 256.426 62.678 255.93 62.127 c S
257.293 64.163 m 257.293 61.448 l S
232.746 44.491 m 241.121 46.1 257.598 43.877 265.477 39.745 c S
315.262 70.268 m 334.645 84.19 334.84 121.854 309.125 105.534 c S
323.445 100.112 m 318.051 104.452 312.082 98.389 309.805 93.331 c S
180.234 122.491 m 152.336 121.987 173.016 91.698 183.645 79.764 c S
280.48 197.108 m 284.141 200.045 291.316 206.202 295.484 208.639 c S
284.574 195.073 m 287.301 198.385 293.762 204.217 297.531 206.604 c S
294.801 197.784 m 295.812 199.131 298.406 201.112 300.258 201.178 c S
251.84 214.065 m 253.566 212.116 254.844 207.139 255.25 204.569 c S
169.324 113.678 m 173.867 110.952 183.953 108.913 182.281 102.147 c S
245.703 207.956 m 248.219 205.78 251.766 200.397 252.52 197.108 c S
267.523 241.87 m 284.004 243.44 309.699 232.979 312.531 215.42 c S
197.281 215.42 m 182.527 202.831 175.066 169.241 174.098 152.342 c S
174.098 152.342 m 172.016 143.967 172.367 127.327 174.777 119.104 c S
273.66 123.854 m 280.254 133.108 302.641 131.256 311.852 126.565 c S
275.027 125.206 m 273.766 124.881 271.547 125.42 270.934 126.565 c S
271.617 125.885 m 280.09 139.077 301.559 136.26 311.852 127.92 c S
269.57 196.428 m 272.531 205.706 286.727 214.53 295.484 216.1 c S
290.711 213.385 m 312.285 193.112 301.152 138.112 296.168 112.323 c S
272.297 208.639 m 279.262 213.909 293.945 222.381 302.305 222.881 c S
328.219 98.756 m 331.141 82.944 330.785 51.186 325.488 35.674 c S
296.848 115.034 m 305.637 127.077 312.391 154.631 312.531 169.299 c S
315.262 165.905 m 317.109 135.327 308.047 74.116 313.898 43.815 c S
313.215 41.1 m 318.555 49.135 322.316 66.698 321.398 75.694 c S
320.715 66.198 m 323.957 59.612 327.695 46.584 325.488 39.745 c S
302.305 223.561 m 328.199 206.776 347.699 151.096 337.766 121.819 c S
331.629 158.444 m 339.938 138.788 331.445 93.674 330.266 71.624 c S
330.945 157.768 m 336.078 150.092 339.344 132.01 337.766 122.491 c S
191.145 70.944 m 190.957 48.049 218.652 22.694 232.746 8.542 c S
233.426 8.542 m 241.898 7.198 258.926 4.167 267.523 5.151 c S
265.477 4.471 m 286.98 13.596 313.566 44.217 315.262 70.944 c S
272.98 119.784 m 271.871 118.975 270.961 116.467 270.934 115.034 c S
272.98 119.784 m 282.012 120.553 300.246 120.245 308.441 117.069 c S
308.441 117.069 m 306.363 113.483 302.594 106.034 300.941 102.147 c S
228.652 125.206 m 230.137 123.928 233.195 121.342 233.426 119.104 c S
227.289 125.206 m 220.137 126.124 206.465 129.471 199.328 129.952 c S
199.328 131.315 m 197.039 126.19 198.527 115.87 200.691 110.963 c S
202.059 108.249 m 204.48 106.206 210.445 104.518 213.648 104.862 c S
283.891 117.069 m 277.125 108.803 292.906 96.807 297.531 109.608 c 298.348
 111.87 296.883 117.827 294.121 118.424 c S
294.121 119.104 m 291.379 120.44 286.695 119.975 285.254 117.069 c S
212.285 125.206 m 206.895 105.655 221.062 110.213 221.832 115.713 c 222.391
 119.674 219.703 127.932 214.332 125.885 c S
193.191 140.131 m 204.156 142.116 222.652 134.19 232.062 130.635 c S
232.062 131.315 m 233.609 131.221 235.422 132.991 236.152 134.026 c S
236.152 133.35 m 222.469 133.893 197.562 149.889 188.418 137.413 c S
273.66 241.87 m 247.402 248.784 203.328 243.581 197.281 212.03 c S
258.66 197.108 m 261.859 202.186 260.039 211.776 255.93 216.1 c S
254.566 218.135 m 234.738 203.202 223.102 163.01 221.832 142.846 c S
225.242 196.428 m 222.395 184.241 218.961 161.065 221.832 148.948 c S
223.195 188.967 m 204.57 150.358 194.727 67.647 200.012 23.463 c S
264.797 204.569 m 264.535 211.319 260.293 224.034 253.203 226.952 c S
255.93 225.596 m 232.742 218.268 192.016 195.381 179.551 174.725 c S
180.918 177.436 m 180.406 176.588 180.746 176.245 180.918 176.077 c 182.738
 178.026 186.734 181.581 189.098 182.862 c S
189.781 181.506 m 176.414 157.995 168.586 106.749 176.141 80.44 c S
182.281 119.784 m 178.723 111.569 175.004 94.424 176.824 85.19 c S
181.598 118.424 m 178.199 92.874 189.305 45.6 199.328 23.463 c S
268.207 205.924 m 271.102 230.401 304.594 261.034 327.535 269.006 c S
270.25 207.284 m 274.68 228.1 309.668 254.409 325.488 269.006 c S
0.470588 0.666667 1 rg
1.6 w
460.52 502.311 m 479.566 495.999 518.301 493.045 537.734 493.866 c 507.57
 542.526 m 495.648 521.479 495.648 473.936 497.117 450.03 c 463.734 527.241
 m 482.895 522.491 520.559 519.655 539.344 518.397 c 543.766 508.342 m 542.047
 487.987 528.906 449.647 509.984 440.374 c 458.105 509.549 m 460.637 490.858
 468.875 454.987 487.062 444.401 c 467.355 569.069 m 483.051 582.987 520.543
 589.674 535.32 569.87 c 450.062 494.67 m 448.887 480.135 453.91 452.241
 458.508 438.366 c 479.02 512.768 m 479.02 504.323 l 524.059 508.342 m 523.434
 506.686 523.852 503.143 523.258 501.506 c 458.508 510.756 m 449.082 506.936
 446.711 496.077 456.898 491.452 c 536.125 501.909 m 551.82 506.678 548.469
 485.522 537.332 480.19 c 464.137 522.018 m 470.477 521.768 483.109 520.225
 488.672 517.592 c 535.32 513.971 m 529.027 518.17 517.691 517.401 512.801
 512.366 c 526.473 505.928 m 526.875 506.327 l 527.332 504.545 526.367 501.428
 524.863 500.299 c 546.18 532.069 m 551.129 527.87 552.828 516.545 552.211
 510.756 c 463.336 546.549 m 461.668 546.1 458.621 544.737 457.301 543.733
 c 518.43 439.975 m 520.781 433.78 509.824 431.077 505.562 429.116 c S
250.398 499.6 m 267.703 495.053 303.086 491.663 320.445 487.413 c 299.449
 535.288 m 299.605 513.342 287.484 471.854 279.781 450.991 c 252.777 523.038
 m 269.43 519.756 303.352 518.096 319.832 513.807 c 319.418 513.866 m 324.289
 493.135 303.238 457.639 287.195 443.182 c 243.156 520.967 m 235.871 497.069
 246.656 458.42 266.559 444.327 c 247.77 560.647 m 266.266 578.057 304.5
 578.663 319.129 558.042 c 229.992 502.409 m 228.227 485.53 220.207 452.088
 225.816 435.077 c 276.996 507.823 m 276.758 505.721 276.359 501.475 275.434
 499.549 c 312.281 502.116 m 312.508 500.514 312.156 497.366 311.84 495.811
 c 244.41 508.487 m 226.23 509.053 230.266 488.092 243.484 480.182 c 317.727
 495.424 m 326.867 486.249 313.68 480.405 311.355 473.811 c 259.039 519.206
 m 266.109 518.194 279.324 512.143 285.137 508.397 c 315.754 508.854 m 312.234
 507.327 304.68 506.17 300.906 505.803 c 315.211 498.741 m 314.91 497.268
 313.238 494.928 312.801 493.557 c 326.121 516.338 m 330.309 513.596 331.559
 504.956 332.918 500.971 c 248.652 539.307 m 245.996 539.729 242.035 537.424
 241.242 534.811 c 277.891 437.245 m 278.234 429.502 268.098 425.948 261.766
 428.01 c S
25.312 503.393 m 43.074 501.241 78.59 502.713 96.363 500.866 c 69.039 545.432
 m 72.188 523.717 65.836 480.956 61.051 459.245 c 24.473 526.936 m 41.418
 525.952 75.246 528.936 92.16 526.936 c 91.742 526.936 m 99.395 507.061 
83.383 469.03 69.457 452.522 c 15.223 523.573 m 11.266 498.905 27.219 462.081
 48.855 450.838 c 14.383 563.51 m 30.336 583.28 68.129 589.092 85.434 570.659
 c 4.715 503.393 m 5.266 486.432 1.879 452.202 9.758 436.12 c 50.539 515.159
 m 50.594 513.053 50.773 508.788 50.117 506.756 c 86.273 514.323 m 86.715
 512.768 86.797 509.604 86.695 508.018 c 18.168 511.381 m 0.082 509.463 
6.934 489.241 21.109 483.206 c 92.582 508.436 m 102.887 500.592 90.621 493.006
 89.219 486.155 c 31.199 523.991 m 38.34 523.952 52.258 519.764 58.527 516.846
 c 88.797 521.471 m 85.516 519.475 78.191 517.303 74.504 516.424 c 89.637
 511.381 m 89.539 509.881 88.203 507.331 87.957 505.909 c 98.047 530.299
 m 102.57 528.151 104.984 519.764 106.875 515.999 c 18.168 542.491 m 15.48
 542.545 11.871 539.725 11.441 537.026 c 61.051 445.37 m 62.445 437.741 
52.887 432.842 46.336 434.022 c S
0 g
0.795275 w
4 M 122.148 490.112 m 122.148 505.534 l 175.75 505.534 l 175.75 520.963 l 211.902
 490.112 l 175.75 459.256 l 175.75 474.686 l 122.148 474.686 l h
S
344.871 490.112 m 344.871 505.534 l 398.473 505.534 l 398.473 520.963 l
 434.629 490.112 l 398.473 459.256 l 398.473 474.686 l 344.871 474.686 l
 h
S
Q Q
showpage
%%Trailer
end restore
%%EOF
