%!PS-Adobe-3.0 EPSF-3.0
%%Creator: cairo 1.12.2 (http://cairographics.org)
%%CreationDate: Tue Jan  7 18:11:21 2014
%%Pages: 1
%%DocumentData: Clean7Bit
%%LanguageLevel: 2
%%BoundingBox: 0 -1 373 181
%%EndComments
%%BeginProlog
save
50 dict begin
/q { gsave } bind def
/Q { grestore } bind def
/cm { 6 array astore concat } bind def
/w { setlinewidth } bind def
/J { setlinecap } bind def
/j { setlinejoin } bind def
/M { setmiterlimit } bind def
/d { setdash } bind def
/m { moveto } bind def
/l { lineto } bind def
/c { curveto } bind def
/h { closepath } bind def
/re { exch dup neg 3 1 roll 5 3 roll moveto 0 rlineto
      0 exch rlineto 0 rlineto closepath } bind def
/S { stroke } bind def
/f { fill } bind def
/f* { eofill } bind def
/n { newpath } bind def
/W { clip } bind def
/W* { eoclip } bind def
/BT { } bind def
/ET { } bind def
/pdfmark where { pop globaldict /?pdfmark /exec load put }
    { globaldict begin /?pdfmark /pop load def /pdfmark
    /cleartomark load def end } ifelse
/BDC { mark 3 1 roll /BDC pdfmark } bind def
/EMC { mark /EMC pdfmark } bind def
/cairo_store_point { /cairo_point_y exch def /cairo_point_x exch def } def
/Tj { show currentpoint cairo_store_point } bind def
/TJ {
  {
    dup
    type /stringtype eq
    { show } { -0.001 mul 0 cairo_font_matrix dtransform rmoveto } ifelse
  } forall
  currentpoint cairo_store_point
} bind def
/cairo_selectfont { cairo_font_matrix aload pop pop pop 0 0 6 array astore
    cairo_font exch selectfont cairo_point_x cairo_point_y moveto } bind def
/Tf { pop /cairo_font exch def /cairo_font_matrix where
      { pop cairo_selectfont } if } bind def
/Td { matrix translate cairo_font_matrix matrix concatmatrix dup
      /cairo_font_matrix exch def dup 4 get exch 5 get cairo_store_point
      /cairo_font where { pop cairo_selectfont } if } bind def
/Tm { 2 copy 8 2 roll 6 array astore /cairo_font_matrix exch def
      cairo_store_point /cairo_font where { pop cairo_selectfont } if } bind def
/g { setgray } bind def
/rg { setrgbcolor } bind def
/d1 { setcachedevice } bind def
%%EndProlog
%%Page: 1 1
%%BeginPageSetup
%%PageBoundingBox: 0 -1 373 181
%%EndPageSetup
q 0 -1 373 182 rectclip q
1 0.952941 0.776471 rg
6.469 120.471 m 30.848 86.291 -0.66 66.174 11.469 26.471 c 47.469 20.471
 l 80.078 16.565 96.492 34.909 124.469 18.471 c 142.469 24.471 l 166.344
 35.022 156.156 57.444 179.469 72.471 c 165.469 98.471 l 124.867 114.373
 143.547 156.916 92.469 166.471 c 77.469 165.471 l 66.711 160.467 58.688
 159.557 46.469 163.471 c 21.469 159.471 l 10.52 153.592 5.82 148.557 0.469
 137.471 c f
1 0 0 rg
1 w
0 J
0 j
[] 0.0 d
10 M 6.469 120.471 m 30.848 86.291 -0.66 66.174 11.469 26.471 c S
0 1 0 rg
47.469 20.471 m 80.078 16.565 96.492 34.909 124.469 18.471 c S
0 0 1 rg
92.469 166.471 m 143.547 156.916 124.867 114.373 165.469 98.471 c S
0 g
0.469 137.471 m 6.469 120.471 l 11.469 26.471 m 47.469 20.471 l 124.469
 18.471 m 142.469 24.471 l 179.469 72.471 m 165.469 98.471 l 92.469 166.471
 m 77.469 165.471 l 46.469 163.471 m 21.469 159.471 l 142.469 24.471 m 166.344
 35.022 156.156 57.444 179.469 72.471 c S
77.469 165.471 m 66.711 160.467 58.688 159.557 46.469 163.471 c S
21.469 159.471 m 10.52 153.592 5.82 148.557 0.469 137.471 c S
1 0.952941 0.776471 rg
216.898 140.537 m 206.625 127.049 211.68 119.494 215.969 104.619 c 216.898
 101.819 l 217.27 74.44 238.449 63.838 228.562 33.709 c 228.215 33.241 227.512
 32.307 227.164 31.842 c 232.762 26.244 l 242.582 17.159 245.062 10.479 
258.418 12.248 c 270.547 15.049 l 294.926 29.022 312.949 30.073 333.992 
16.916 c 340.992 21.112 l 339.137 50.651 379.355 43.323 363.852 67.295 c
 357.629 76.92 366.539 92.662 372.246 96.686 c 370.848 101.819 l 372.777
 131.604 356.664 142.987 326.062 153.6 c 318.598 151.733 l 299.598 146.034
 287.922 148.178 273.812 161.53 c 266.352 155.932 l 259.98 133.877 245.266
 139.342 222.965 144.272 c f
1 0 0 rg
216.898 101.819 m 217.27 74.44 238.449 63.838 228.562 33.709 c 228.215 
33.241 227.512 32.307 227.164 31.842 c S
0 g
232.762 26.244 m 242.582 17.159 245.062 10.479 258.418 12.248 c S
0 1 0 rg
270.547 15.049 m 294.926 29.022 312.949 30.073 333.992 16.916 c S
0 g
340.992 21.112 m 339.137 50.651 379.355 43.323 363.852 67.295 c 357.629
 76.92 366.539 92.662 372.246 96.686 c S
0 0 1 rg
370.848 101.819 m 372.777 131.604 356.664 142.987 326.062 153.6 c S
0 g
318.598 151.733 m 299.598 146.034 287.922 148.178 273.812 161.53 c S
266.352 155.932 m 259.98 133.877 245.266 139.342 222.965 144.272 c S
216.898 140.537 m 206.625 127.049 211.68 119.494 215.969 104.619 c 215.969
 104.619 m 216.898 101.819 l 227.164 31.842 m 232.762 26.244 l 258.418 12.248
 m 270.547 15.049 l 333.992 16.916 m 340.992 21.112 l 372.246 96.686 m 370.848
 101.819 l 372.777 131.604 356.664 142.987 326.062 153.6 c 318.598 151.733
 l 299.598 146.034 287.922 148.178 273.812 161.53 c 266.352 155.932 l 216.898
 140.537 m 222.965 144.272 l S
0.784314 g
0.8 w
4 M q 1 0 0 -1 0 180.514023 cm
52.145 18.332 m 109.996 -10.77 206.359 -3.266 262.887 32.527 c S Q
0 0 1 rg
1 w
10 M 370.848 101.819 m 372.777 131.604 356.664 142.987 326.062 153.6 c S
0.784314 g
0.8 w
4 M q 1 0 0 -1 0 180.514023 cm
29.586 157.105 m 31.582 202.352 135.695 158.398 236.027 157.391 c S Q
q 1 0 0 -1 0 180.514023 cm
158.199 141.031 m 202.609 175.77 374.586 211.52 358.684 133.086 c S Q
Q Q
showpage
%%Trailer
end restore
%%EOF
